<?xml version="1.0" encoding="UTF-8"?>
<svg width="10px" height="20px" viewBox="0 0 10 20" version="1.1" xmlns="http://www.w3.org/2000/svg" xmlns:xlink="http://www.w3.org/1999/xlink">
    <!-- Generator: Sketch 39.1 (31720) - http://www.bohemiancoding.com/sketch -->
    <title>cal-prev</title>
    <desc>Created with Sketch.</desc>
    <defs></defs>
    <g id="Page-1" stroke="none" stroke-width="1" fill="none" fill-rule="evenodd" stroke-linecap="round">
        <g id="Desktop-Header-1278-Info-Goal" transform="translate(-640.000000, -246.000000)" stroke-width="1.5" stroke="#74A3C7">
            <g id="Group-7" transform="translate(609.000000, 229.000000)">
                <polyline id="cal-prev" transform="translate(36.000000, 27.000000) scale(-1, 1) translate(-36.000000, -27.000000) " points="32 18 40 27 32 36"></polyline>
            </g>
        </g>
    </g>
</svg>