<?xml version="1.0" encoding="UTF-8"?>
<svg width="20px" height="18px" viewBox="0 0 20 18" version="1.1" xmlns="http://www.w3.org/2000/svg" xmlns:xlink="http://www.w3.org/1999/xlink">
    <!-- Generator: Sketch 39.1 (31720) - http://www.bohemiancoding.com/sketch -->
    <title>print-black</title>
    <desc>Created with Sketch.</desc>
    <defs></defs>
    <g id="Page-1" stroke="none" stroke-width="1" fill="none" fill-rule="evenodd">
        <g id="travel_white" transform="translate(-399.000000, -4423.000000)" fill="#000000">
            <g id="подвал" transform="translate(0.000000, 4209.000000)">
                <g id="Group-5" transform="translate(384.000000, 206.000000)">
                    <path d="M21,24 L29,24 L29,19 L21,19 L21,24 Z M32,15 C32.552,15 33,15.448 33,16 C33,16.552 32.552,17 32,17 C31.448,17 31,16.552 31,16 C31,15.448 31.448,15 32,15 L32,15 Z M17,13 C15.892,13 15,13.892 15,15 L15,22 L19,22 L19,26 L31,26 L31,22 L35,22 L35,15 C35,13.892 34.108,13 33,13 L17,13 Z M19,12 L31,12 L31,8 L19,8 L19,12 Z" id="print-black"></path>
                </g>
            </g>
        </g>
    </g>
</svg>