<?xml version="1.0" encoding="UTF-8"?>
<svg width="21px" height="12px" viewBox="0 0 21 12" version="1.1" xmlns="http://www.w3.org/2000/svg" xmlns:xlink="http://www.w3.org/1999/xlink">
    <!-- Generator: Sketch 39.1 (31720) - http://www.bohemiancoding.com/sketch -->
    <title>Imported Layers</title>
    <desc>Created with Sketch.</desc>
    <defs></defs>
    <g id="Page-1" stroke="none" stroke-width="1" fill="none" fill-rule="evenodd">
        <g id="Group-14" transform="translate(-69.000000, -47.000000)" fill="#999999">
            <g id="Group-8" transform="translate(62.000000, 35.000000)">
                <path d="M25.5965441,16.9960435 C25.8947992,16.6110206 26.131591,16.3020894 26.3064465,16.069014 C27.5658555,14.3969616 28.1117373,13.3288435 27.9444465,12.8631649 L27.8788068,12.7541026 C27.8351914,12.6885944 27.7221144,12.628437 27.5402852,12.5739845 C27.3582195,12.5195714 27.1252889,12.5108763 26.8414934,12.5467976 L23.6965366,12.5689485 C23.6237261,12.5617091 23.5508762,12.5634009 23.4780657,12.5739845 C23.4052552,12.5850403 23.358015,12.5961353 23.33603,12.606719 C23.3140844,12.617814 23.296,12.6267058 23.2815403,12.6339452 L23.237925,12.6666796 C23.2015197,12.6883583 23.1615291,12.7266403 23.1178743,12.7813288 C23.0741801,12.835978 23.0375385,12.8993222 23.0086191,12.9722665 C22.6664728,13.8518468 22.2770469,14.669814 21.8401839,15.4258927 C21.5707692,15.8766599 21.3231426,16.2677026 21.0977373,16.598037 C20.8720169,16.929119 20.6827411,17.1725813 20.5298311,17.3285813 C20.377,17.4848567 20.2385497,17.6105222 20.1149137,17.7047124 C19.9909625,17.7995714 19.8964428,17.8393091 19.8311182,17.8248698 C19.7654784,17.8104304 19.7035422,17.7959911 19.6454278,17.7810403 C19.5434615,17.7158075 19.4614315,17.6269288 19.3997317,17.5140108 C19.3377955,17.4016042 19.2960713,17.2597288 19.2740863,17.088778 C19.2523771,16.9180632 19.2393752,16.770719 19.2359869,16.6469419 C19.2321257,16.5234403 19.2340563,16.3491058 19.2415422,16.1234665 C19.2487917,15.8980632 19.2523771,15.7456829 19.2523771,15.6654993 C19.2523771,15.3895386 19.2579325,15.0895386 19.2688462,14.7659321 C19.2796811,14.4425616 19.2888612,14.1861157 19.2960713,13.9970665 C19.3033208,13.8082927 19.3069062,13.6081878 19.3069062,13.3972632 C19.3069062,13.1868108 19.2941407,13.0211321 19.2684916,12.901014 C19.2429606,12.7813288 19.2046248,12.6650272 19.1539962,12.5521091 C19.1028949,12.4396632 19.0283508,12.3522403 18.92997,12.2906272 C18.8316285,12.2287386 18.7098049,12.1798731 18.5642233,12.1432435 C18.1781463,12.0558206 17.6867542,12.009119 17.0899681,12.0014468 C15.735803,11.9874796 14.8658199,12.0746272 14.4800188,12.2634009 C14.3271482,12.3435845 14.1887373,12.4524108 14.0650619,12.5906272 C13.9339006,12.7507583 13.9158161,12.8381419 14.0105722,12.8521091 C14.4474747,12.9176173 14.7566435,13.0741288 14.9386698,13.3211714 L15.0042702,13.4519124 C15.0551351,13.5467714 15.1060394,13.7139058 15.1571407,13.9537091 C15.208045,14.1935517 15.2408255,14.4588894 15.2555216,14.7497616 C15.2919268,15.280437 15.2919268,15.7345878 15.2555216,16.1128829 C15.2191163,16.4911386 15.1846417,16.7853944 15.1518612,16.9958468 C15.1190413,17.2067714 15.0698705,17.3774862 15.0045066,17.5082272 C14.9389062,17.6394403 14.8952908,17.7193878 14.8733452,17.7485026 C14.8513996,17.7773813 14.8333152,17.7956763 14.8188555,17.802955 C14.7240994,17.8390731 14.625955,17.8573681 14.5239887,17.8573681 C14.4219831,17.8573681 14.2982683,17.8062993 14.1526473,17.704437 C14.0069869,17.6030862 13.8558105,17.4629419 13.6995516,17.2847517 C13.5428199,17.106837 13.366546,16.8576304 13.1697842,16.5376042 C12.9732589,16.2180894 12.7692477,15.8397944 12.5582627,15.4037419 L12.3836829,15.0873353 C12.2744672,14.8841222 12.125182,14.5877026 11.9359062,14.1988239 C11.7466304,13.8099452 11.5790244,13.4338534 11.4336398,13.070037 C11.3752889,12.9176173 11.2879794,12.8013157 11.1715535,12.7211321 L11.1170638,12.6883976 C11.0806585,12.6594796 11.0223077,12.628437 10.9422477,12.5958993 C10.8619512,12.5631649 10.7785422,12.5395583 10.6909962,12.5248829 L7.69887054,12.5465616 C7.39312946,12.5465616 7.18576923,12.6159255 7.07655347,12.7541026 L7.03289869,12.8193747 C7.0108349,12.8559649 7,12.9142337 7,12.9939452 C7,13.0741288 7.02194559,13.1721353 7.06560038,13.2882009 C7.50250281,14.3134731 7.97754409,15.302155 8.4906454,16.2542075 C9.00402251,17.2067714 9.44986867,17.9739058 9.82842026,18.555414 C10.2069719,19.1373944 10.592773,19.6858927 10.98606,20.2021288 C11.3793471,20.7183649 11.6395028,21.0489353 11.766803,21.194155 C11.8941032,21.3398468 11.9941782,21.4489485 12.0670281,21.5213813 L12.3399887,21.7833353 C12.5145685,21.9577091 12.7713752,22.1666665 13.1099362,22.4103649 C13.4484578,22.6540239 13.8231876,22.8938665 14.2347955,23.1298534 C14.6459306,23.3663124 15.1247936,23.5586665 15.6706754,23.707978 C16.2165966,23.8572501 16.7480188,23.9171714 17.2649812,23.8878206 L18.5208049,23.8878206 C18.7756811,23.8661419 18.9685028,23.7864698 19.0995066,23.647978 L19.143122,23.5935649 C19.1720413,23.5502075 19.1995422,23.4828108 19.2250732,23.3920042 C19.2504071,23.301237 19.2634878,23.2010665 19.2634878,23.0922403 C19.2559625,22.7797288 19.279878,22.4975124 19.3343677,22.2470862 C19.3888574,21.9961878 19.4507936,21.807414 19.5200582,21.6798206 C19.5892439,21.552896 19.667334,21.4455255 19.7548405,21.3581026 C19.8421895,21.2706796 19.9038893,21.2184304 19.940531,21.2001353 C19.9769362,21.1823124 20.0061707,21.1695649 20.0278799,21.1618534 C20.2024203,21.1037813 20.4080863,21.1601616 20.644878,21.3308763 C20.8814334,21.5021026 21.1035291,21.7125157 21.3111257,21.963414 C21.5184465,22.2143124 21.7677674,22.4957813 22.0590882,22.8085681 C22.3501332,23.1210796 22.60497,23.3536829 22.8234409,23.5063386 L23.0419118,23.6375911 C23.1874934,23.7245026 23.3765722,23.8044501 23.6097392,23.8774337 C23.8426698,23.9499058 24.0466811,23.9682009 24.2212214,23.9318468 L27.0168218,23.8880173 C27.2934071,23.8880173 27.5082533,23.8427714 27.6611632,23.7517288 C27.8139944,23.6614337 27.9049681,23.5607911 27.9341238,23.4519649 C27.9630432,23.3429026 27.9649737,23.2198731 27.9396792,23.0813813 C27.9141482,22.9434009 27.8885779,22.8470862 27.8632833,22.7926731 C27.8377523,22.7382599 27.8140338,22.6925026 27.7920882,22.6563845 C27.4280356,22.0021681 26.7328293,21.1986403 25.7063508,20.2463517 L25.6844053,20.2246731 L25.6735704,20.2136173 L25.6627355,20.2029944 L25.6517824,20.2029944 C25.1856848,19.7594665 24.891015,19.461355 24.7673002,19.3084632 C24.5416585,19.0181026 24.4905178,18.7236108 24.614469,18.4255386 C24.7012664,18.1995058 25.0287167,17.7232435 25.5965441,16.9960435" id="Imported-Layers"></path>
            </g>
        </g>
    </g>
</svg>