<?xml version="1.0" standalone="no"?>
<!DOCTYPE svg PUBLIC "-//W3C//DTD SVG 1.1//EN" "http://www.w3.org/Graphics/SVG/1.1/DTD/svg11.dtd" >
<svg xmlns="http://www.w3.org/2000/svg">
<metadata>Generated by IcoMoon</metadata>
<defs>
<font id="travel-social-icon" horiz-adv-x="1024">
<font-face units-per-em="1024" ascent="960" descent="-64" />
<missing-glyph horiz-adv-x="1024" />
<glyph unicode="&#x20;" horiz-adv-x="512" d="" />
<glyph unicode="&#xe900;" glyph-name="youtube" horiz-adv-x="878" d="M525.143 215.429v89.714c0 18.857-5.714 28.571-16.571 28.571-6.286 0-12.571-2.857-18.857-9.143v-128c6.286-6.286 12.571-9.143 18.857-9.143 10.857 0 16.571 9.143 16.571 28zM630.286 285.143h37.714v19.429c0 19.429-6.286 29.143-18.857 29.143s-18.857-9.714-18.857-29.143v-19.429zM304 437.143v-40h-45.714v-241.714h-42.286v241.714h-44.571v40h132.571zM418.857 365.143v-209.714h-38.286v22.857c-14.857-17.143-29.143-25.714-43.429-25.714-12 0-20.571 5.143-24 16-2.286 6.286-3.429 16-3.429 30.857v165.714h37.714v-154.286c0-8.571 0-13.714 0.571-14.857 0.571-5.714 3.429-8.571 8.571-8.571 8 0 15.429 5.714 24 17.714v160h38.286zM562.857 301.714v-83.429c0-18.857-1.143-33.143-4-41.714-4.571-16-14.857-24-30.286-24-13.143 0-26.286 8-38.857 23.429v-20.571h-38.286v281.714h38.286v-92c12 14.857 25.143 22.857 38.857 22.857 15.429 0 25.714-8 30.286-24 2.857-8.571 4-22.286 4-42.286zM706.286 228v-5.143c0-12.571-0.571-20.571-1.143-24.571-1.143-8.571-4-16-8.571-22.857-10.286-15.429-26.286-22.857-45.714-22.857-20 0-35.429 7.429-46.286 21.714-8 10.286-12 26.857-12 49.143v73.714c0 22.286 3.429 38.286 11.429 49.143 10.857 14.286 26.286 21.714 45.714 21.714 18.857 0 34.286-7.429 44.571-21.714 8-10.857 12-26.857 12-49.143v-43.429h-76v-37.143c0-19.429 6.286-29.143 19.429-29.143 9.143 0 14.857 5.143 17.143 14.857 0 2.286 0.571 10.857 0.571 25.714h38.857zM448.571 698.857v-89.143c0-19.429-6.286-29.143-18.286-29.143-12.571 0-18.286 9.714-18.286 29.143v89.143c0 19.429 5.714 29.714 18.286 29.714 12 0 18.286-10.286 18.286-29.714zM753.143 291.429v0c0 49.143 0 101.143-10.857 148.571-8 33.714-35.429 58.286-68 61.714-77.714 8.571-156.571 8.571-235.429 8.571-78.286 0-157.143 0-234.857-8.571-33.143-3.429-60.571-28-68-61.714-10.857-47.429-11.429-99.429-11.429-148.571v0c0-48.571 0-100.571 11.429-148.571 7.429-33.143 34.857-57.714 67.429-61.714 78.286-8.571 157.143-8.571 235.429-8.571s157.143 0 235.429 8.571c32.571 4 60 28.571 67.429 61.714 11.429 48 11.429 100 11.429 148.571zM321.714 663.429l51.429 169.143h-42.857l-29.143-111.429-30.286 111.429h-44.571c8.571-26.286 18.286-52.571 26.857-78.857 13.714-40 22.286-69.714 26.286-90.286v-114.857h42.286v114.857zM486.857 617.143v74.286c0 22.286-4 38.857-12 49.714-10.857 14.286-25.714 21.714-44.571 21.714-19.429 0-34.286-7.429-44.571-21.714-8-10.857-12-27.429-12-49.714v-74.286c0-22.286 4-38.857 12-49.714 10.286-14.286 25.143-21.714 44.571-21.714 18.857 0 33.714 7.429 44.571 21.714 8 10.286 12 27.429 12 49.714zM590.286 548.571h38.286v211.429h-38.286v-161.714c-8.571-12-16.571-17.714-24-17.714-5.143 0-8.571 2.857-9.143 9.143-0.571 1.143-0.571 5.714-0.571 14.857v155.429h-38.286v-167.429c0-14.857 1.143-24.571 3.429-31.429 4-10.286 12.571-15.429 24.571-15.429 14.286 0 28.571 8.571 44 25.714v-22.857zM877.714 722.286v-548.571c0-90.857-73.714-164.571-164.571-164.571h-548.571c-90.857 0-164.571 73.714-164.571 164.571v548.571c0 90.857 73.714 164.571 164.571 164.571h548.571c90.857 0 164.571-73.714 164.571-164.571z" />
<glyph unicode="&#xe901;" glyph-name="facebook" horiz-adv-x="878" d="M713.143 886.857c90.857 0 164.571-73.714 164.571-164.571v-548.571c0-90.857-73.714-164.571-164.571-164.571h-107.429v340h113.714l17.143 132.571h-130.857v84.571c0 38.286 10.286 64 65.714 64l69.714 0.571v118.286c-12 1.714-53.714 5.143-101.714 5.143-101.143 0-170.857-61.714-170.857-174.857v-97.714h-114.286v-132.571h114.286v-340h-304c-90.857 0-164.571 73.714-164.571 164.571v548.571c0 90.857 73.714 164.571 164.571 164.571h548.571z" />
<glyph unicode="&#xe902;" glyph-name="google-plus" d="M93.333 960c-51.167 0-93.333-42.167-93.333-93.333v-837.333c0-51.167 42.167-93.333 93.333-93.333h837.333c51.167 0 93.333 42.167 93.333 93.333v837.333c0 51.167-42.167 93.333-93.333 93.333zM392 793.333h188l-60-29.333h-50.667c21.333-21.333 64-55.667 64-124s-39-98.167-77.333-128c-12.833-12.833-25.333-25.667-25.333-42.667 0-21.333 12.5-30.167 25.333-38.667l34.667-25.333c38.333-34.167 77.333-64 77.333-128 0-85.333-86.333-170.667-240-170.667-132.333 0-196 64-196 128 0 34.167 17.833 76.5 73.333 110.667s132 38.333 174.667 42.667c-12.833 17-25.333 34.333-25.333 60 0 17 3.667 26.167 8 34.667h-29.333c-106.667-4.333-162.667 67.5-162.667 140 0 42.667 21.667 90.167 60 120 51.167 42.667 114.333 50.667 161.333 50.667zM337.333 764c-25.667 0-51.167-13.667-64-30.667-17-21.333-21.333-46.667-21.333-68 0-59.667 33.667-161.333 114.667-161.333 21.333 0 47 12.5 64 25.333 21.333 21.333 21.333 51.167 21.333 64 0 68.333-37.833 170.667-114.667 170.667zM725.333 618.667h85.333v-128h128v-85.333h-128v-128h-85.333v128h-128v85.333h128zM380 358.667c-8.5 0-60.333-0.5-98.667-13.333-21.333-8.5-76-29.333-76-93.333s63.167-110.667 161.333-110.667c89.667 0 137.333 41.833 137.333 97.333 0 47-30.333 73-98.667 120z" />
<glyph unicode="&#xe903;" glyph-name="telegram" d="M998.093 943.616c12.288-8.909 17.408-20.89 15.155-35.84l-143.36-860.16c-1.843-10.854-7.885-19.251-17.92-25.19-5.222-2.97-11.059-4.506-17.408-4.506-4.096 0-8.602 0.922-13.414 2.765l-253.645 103.629-135.578-165.171c-6.758-8.602-15.872-12.902-27.443-12.902-4.813 0-8.909 0.717-12.288 2.253-7.066 2.662-12.8 6.963-17.101 13.21-4.301 6.144-6.451 13.005-6.451 20.48v195.379l483.84 592.998-598.63-518.042-221.184 90.726c-13.824 5.222-21.299 15.462-22.426 30.822-0.717 14.95 5.222 25.907 17.92 33.075l931.84 537.6c5.632 3.379 11.571 5.018 17.92 5.018 7.475 0 14.234-2.048 20.173-6.144v0z" />
<glyph unicode="&#xe905;" glyph-name="od" d="M225.28 919.040c-101.28 0-184.32-83.040-184.32-184.32v-573.44c0-101.28 83.040-184.32 184.32-184.32h573.44c101.28 0 184.32 83.040 184.32 184.32v573.44c0 101.28-83.040 184.32-184.32 184.32zM512 816.64c101.84 0 184.32-82.48 184.32-184.32s-82.48-184.32-184.32-184.32c-101.84 0-184.32 82.48-184.32 184.32s82.48 184.32 184.32 184.32zM512 714.24c-45.28 0-81.92-36.64-81.92-81.92s36.64-81.92 81.92-81.92c45.28 0 81.92 36.64 81.92 81.92s-36.64 81.92-81.92 81.92zM682.56 428.56c16.4-0.080 32.48-8.080 42.32-22.8 15.76-23.44 9.44-55.2-14.080-70.96-39.12-26.16-81.84-43.76-125.92-52.96l126.48-125.92c20-19.92 20.080-52.32 0.080-72.4-10-10-23.12-15.040-36.24-15.040-13.040 0-26.080 4.96-36.16 14.96l-127.040 126.48-127.040-126.48c-20.080-20-52.48-19.92-72.4 0.080-20 20.080-19.92 52.48 0.080 72.4l126.48 125.92c-44.080 9.2-86.8 26.8-125.92 52.96-23.52 15.76-29.84 47.52-14.080 70.96 15.68 23.52 47.52 29.84 71.040 14.080 86.080-57.6 197.52-57.6 283.68 0 8.88 5.92 18.8 8.8 28.72 8.72z" />
<glyph unicode="&#xea96;" glyph-name="twitter" d="M1024 733.6c-37.6-16.8-78.2-28-120.6-33 43.4 26 76.6 67.2 92.4 116.2-40.6-24-85.6-41.6-133.4-51-38.4 40.8-93 66.2-153.4 66.2-116 0-210-94-210-210 0-16.4 1.8-32.4 5.4-47.8-174.6 8.8-329.4 92.4-433 219.6-18-31-28.4-67.2-28.4-105.6 0-72.8 37-137.2 93.4-174.8-34.4 1-66.8 10.6-95.2 26.2 0-0.8 0-1.8 0-2.6 0-101.8 72.4-186.8 168.6-206-17.6-4.8-36.2-7.4-55.4-7.4-13.6 0-26.6 1.4-39.6 3.8 26.8-83.4 104.4-144.2 196.2-146-72-56.4-162.4-90-261-90-17 0-33.6 1-50.2 3 93.2-59.8 203.6-94.4 322.2-94.4 386.4 0 597.8 320.2 597.8 597.8 0 9.2-0.2 18.2-0.6 27.2 41 29.4 76.6 66.4 104.8 108.6z" />
<glyph unicode="&#xea98;" glyph-name="vk" d="M928 960h-832c-52.8 0-96-43.2-96-96v-832c0-52.8 43.2-96 96-96h832c52.8 0 96 43.2 96 96v832c0 52.8-43.2 96-96 96zM829.4 243.2l-93.6-1.4c0 0-20.2-4-46.6 14.2-35 24-68 86.6-93.8 78.4-26-8.2-25.2-64.4-25.2-64.4s0.2-12-5.8-18.4c-6.4-7-19.2-8.4-19.2-8.4h-41.8c0 0-92.4-5.6-173.8 79.2-88.8 92.4-167.2 275.8-167.2 275.8s-4.6 12 0.4 17.8c5.6 6.6 20.6 7 20.6 7l100.2 0.6c0 0 9.4-1.6 16.2-6.6 5.6-4 8.6-11.8 8.6-11.8s16.2-41 37.6-78c41.8-72.2 61.4-88 75.6-80.4 20.6 11.2 14.4 102.2 14.4 102.2s0.4 33-10.4 47.6c-8.4 11.4-24.2 14.8-31 15.6-5.6 0.8 3.6 13.8 15.6 19.8 18 8.8 49.8 9.4 87.4 9 29.2-0.2 37.8-2.2 49.2-4.8 34.6-8.4 22.8-40.6 22.8-117.8 0-24.8-4.4-59.6 13.4-71 7.6-5 26.4-0.8 73.4 79 22.2 37.8 39 82.2 39 82.2s3.6 8 9.2 11.4c5.8 3.4 13.6 2.4 13.6 2.4l105.4 0.6c0 0 31.6 3.8 36.8-10.6 5.4-15-11.8-50-54.8-107.4-70.6-94.2-78.6-85.4-19.8-139.8 56-52 67.6-77.4 69.6-80.6 22.8-38.4-26-41.4-26-41.4z" />
</font></defs></svg>