﻿{
  "title": "Тревел-эксперт OneTwoTrip",
  "top": {
    "image": "top/bergamo.jpg",
    "topText": [
      "Бергамо"
    ],
    "text": "Италия",
    "under": ""
  },
  "hideContacts": true,
  "adviceTitle": "Полезная информация",
  "blogFooter": true,
  "about": {
    "hide":true,
    "description": "",
    "price": {
      "cost": "",
      "description": ""
    },
    "map": {
      "poi":{
        "sight":[
[45.704139, 9.678581, "food", "Cantiere Cucina"],
[45.704540, 9.662617, "food", "Il Fornaio"],
[45.703084, 9.665036, "food", "Polentone Citta Alta"],
[45.692998, 9.671811, "icecream", "Grom"],
[45.694029, 9.691894, "food", "Al Bacio Ristorante Pizzeria"],
[45.705127, 9.660935, "food", "Damimo"],
[45.693142, 9.663295, "food", "L'Art Caffè Torrefazione"],
[45.704035, 9.662917, "children", "Piazza Vecchia"],
[45.703228, 9.662150, "church", "Базилика Санта-Мария-Маджоре "],
[45.703451, 9.662175, "church", "Капелла Коллеоне"],
[45.703860, 9.666732, "castle", "Замок Рокка"],
[45.704241, 9.675825, "monument", "Академия Каррара"],
[45.701791, 9.664675, "children", "Венецианские стены"],
[45.703694, 9.676417, "monument", "Галерея современного искусства GAMEC"],
[45.705975, 9.659821, "monument", "Городской археологический музей"],
[45.695252, 9.671009, "theater", "Театр Доницетти"],
[45.702776, 9.665445, "cocktail", "Caffé Della Funicolare"],
[45.705012, 9.680830, "cocktail", "Shake Bar"],
[45.691494, 9.662840, "cocktail", "Perbacco"]
        ]
      }
    },
    "cities": []
  },
  "og": {
    "title": "Что делать в Бергамо",
    "description": "Бергамо — это центр провинции Ломбардия, расположившийся в предгорьях Альп. Парадокс заключается в том, что при большом количестве достопримечательностей город достаточно малоизвестный и не входит в число популярных направлений Италии. Бергамо состоит из Верхнего (старого) и Нижнего города, которые соединены между собой фуникулёром. В Бергамо вас ждут средневековые крепостные стены и архитектурные памятники, старинные церкви, узкие улочки, интересные музеи, дружелюбные местные жители и потрясающая кухня. Этот небольшой городок очень уютен, по нему хочется гулять, а не наслаждаться им просто невозможно."
  },
  "route": [
    {
      "title": "Что делать в Бергамо",
      "description": [
        {
          "type": "text",
          "options": "Бергамо — это центр провинции Ломбардия, расположившийся в предгорьях Альп. Парадокс заключается в том, что при большом количестве достопримечательностей город достаточно малоизвестный и не входит в число популярных направлений Италии. Бергамо состоит из Верхнего (старого) и Нижнего города, которые соединены между собой фуникулёром. В Бергамо вас ждут средневековые крепостные стены и архитектурные памятники, старинные церкви, узкие улочки, интересные музеи, дружелюбные местные жители и потрясающая кухня. Этот небольшой городок очень уютен, по нему хочется гулять, а не наслаждаться им просто невозможно."
        },
        {
          "type": "custom-photos",
          "options": {
            "ids": [
              "38267889364",
              "38948834602",
              "38985536761",
              "38985536341"
            ],
            "items": [
              {
                "id": "38985536341",
                "owner": "151640904@N03",
                "secret": "2ae78f10a8",
                "server": "4641",
                "farm": 5,
                "title": "bergamo--111474-8",
                "ispublic": 1,
                "isfriend": 0,
                "isfamily": 0
              },
              {
                "id": "38985536761",
                "owner": "151640904@N03",
                "secret": "6ce43045b3",
                "server": "4735",
                "farm": 5,
                "title": "x-default",
                "ispublic": 1,
                "isfriend": 0,
                "isfamily": 0
              },
              {
                "id": "38267889364",
                "owner": "151640904@N03",
                "secret": "ed22e7776c",
                "server": "4586",
                "farm": 5,
                "title": "1015608_603x354",
                "ispublic": 1,
                "isfriend": 0,
                "isfamily": 0
              },
              {
                "id": "38948834602",
                "owner": "151640904@N03",
                "secret": "9927ba5e2f",
                "server": "4525",
                "farm": 5,
                "title": "1",
                "ispublic": 1,
                "isfriend": 0,
                "isfamily": 0
              }
            ],
            "urls": [
              "https://farm5.staticflickr.com/4641/38985536341_2ae78f10a8.jpg",
              "https://farm5.staticflickr.com/4735/38985536761_6ce43045b3.jpg",
              "https://farm5.staticflickr.com/4586/38267889364_ed22e7776c.jpg",
              "https://farm5.staticflickr.com/4525/38948834602_9927ba5e2f.jpg"
            ],
            "grid": [
              1,
              1,
              1,
              1
            ]
          }
        },
        {
          "type": "drop-down",
          "title": "Как добраться из аэропорта",
          "options": [
            {
              "type": "text",
              "options": "Удобнее всего добираться до города на автобусе ATB, идущем по линии 1. Он отправляется от аэропорта каждые 20 минут с понедельника по субботу и каждые 30 минут по воскресеньям и праздничным дням. Автобус курсирует с 06:00 до полуночи. Билеты можно купить в одном из киосков в аэропорту (стоит приблизительно 2 евро). Поездка от аэропорта до города займёт около 15 минут в зависимости от интенсивности движения. Актуальное расписание можно посмотреть на <a target='_blank' href=\"https://www.atb.bergamo.it/en/atb-network/tourism-in-bergamo/airport-bus\">этой странице</a>."
            },
            {
              "type": "text",
              "options": "Конечно, комфортнее всего добраться до отеля на такси. Однако несмотря на небольшое расстояние до города, поездка до центра обойдется вам в среднем в 25-30 евро."
            }
          ]
        },
        {
          "type": "drop-down",
          "title": "Что смотреть",
          "options": [
            {
              "type": "custom-photos",
              "options": {
                "ids": [
                  "38267890394",
                  "38267889594",
                  "38267889134",
                  "38267888944"
                ],
                "items": [
                  {
                    "id": "38267890394",
                    "owner": "151640904@N03",
                    "secret": "46022fb8df",
                    "server": "4521",
                    "farm": 5,
                    "title": "35fbeefa6ee984a3b3d68ccac043954c_1ffca0eb",
                    "ispublic": 1,
                    "isfriend": 0,
                    "isfamily": 0
                  },
                  {
                    "id": "38267889594",
                    "owner": "151640904@N03",
                    "secret": "4d1a3f4498",
                    "server": "4641",
                    "farm": 5,
                    "title": "caption",
                    "ispublic": 1,
                    "isfriend": 0,
                    "isfamily": 0
                  },
                  {
                    "id": "38267889134",
                    "owner": "151640904@N03",
                    "secret": "333e08603c",
                    "server": "4534",
                    "farm": 5,
                    "title": "1516_orig",
                    "ispublic": 1,
                    "isfriend": 0,
                    "isfamily": 0
                  },
                  {
                    "id": "38267888944",
                    "owner": "151640904@N03",
                    "secret": "16f65f8ef9",
                    "server": "4690",
                    "farm": 5,
                    "title": "800px-Bergamo_accademia_carrara_esterno",
                    "ispublic": 1,
                    "isfriend": 0,
                    "isfamily": 0
                  }
                ],
                "urls": [
                  "https://farm5.staticflickr.com/4521/38267890394_46022fb8df.jpg",
                  "https://farm5.staticflickr.com/4641/38267889594_4d1a3f4498.jpg",
                  "https://farm5.staticflickr.com/4534/38267889134_333e08603c.jpg",
                  "https://farm5.staticflickr.com/4690/38267888944_16f65f8ef9.jpg"
                ],
                "grid": [
                  1,
                  1,
                  1,
                  1
                ]
              }
            },
            {
              "type": "text",
              "options": "Бергамо состоит из двух частей: Верхний (старый) и Нижний, более современный город, расположенный на равнине. В Верхний город можно добраться на фуникулёре, который ходит несколько раз в час."
            },
            {
              "type": "title",
              "options": "Piazza Vecchia"
            },
            {
              "type": "text",
              "options": "Это главная площадь города, на которой сосредоточены основные достопримечательности. Самое необычное здание – здание Старой ратуши XII в. (она же Палаццо Раджионе). Есть и Новая ратуша, где сейчас располагается библиотека Анджело Маи. На площадь выходит также фасад Палаццо дель Подеста XIV-XVI в., в строительстве которого принимал участие один из основоположников архитектуры ренессанса Донато Браманте. Также на площади расположена самая высокая башня в городе, на которую можно подняться за панорамным видом (пешком или на лифте)."
            },
            {
              "type": "title",
              "options": "Базилика Санта-Мария-Маджоре и Капелла Коллеоне"
            },
            {
              "type": "text",
              "options": "Обе достопримечательности расположены на небольшой площади Дуомо. Санта-Мария-Маджоре — это католическая церковь, наиболее значительная из всех церквей города, была возведена в XII в. В 1340 году началась её перестройка в готическом стиле. Внутри церкви вас ждут барочные интерьеры, гобелены Аллори и фрески Тьеполо. Капелла Коллеони – это шедевр архитектуры Ренессанса, возведённый в XV в. Капелла была построена как мавзолей знаменитого венецианского кондотьера и армейского генерала Бартоломео Коллеоне.\n"
            },
            {
              "type": "text",
              "options": "На площади обратите внимание на северный Портал Белых Львов, выходящий на смежную с соборной площадью Пьяцца Веккья, и южный портал Красных Львов."
            },
            {
              "type": "text",
              "options": "Адрес: Piazza Duomo."
            },
            {
              "type": "title",
              "options": "Замок Рокка"
            },
            {
              "type": "text",
              "options": "Крепость была возведена в XIV в. по приказу Иоанна Люксембургского, короля Польши и Богемии, который захватил Ломбардию. Правда, спустя два года король был изгнан. Но строительство крепости продолжалось, и хотя официально было закончено в 1336 г., замок постоянно расширялся и обустраивался.\n\n\n\n"
            },
            {
              "type": "text",
              "options": "Сейчас в стенах крепости размещен Музей Освобождения и Сопротивления (Museo Civico del Risorgimento e della Resistenza). В разбитом вокруг него парке можно не только отдохнуть и полюбоваться панорамой Нижнего города, но и посмотреть на военные памятники, пушки, танк. Входной билет стоит 4 евро."
            },
            {
              "type": "text",
              "options": "Адрес: Via alla Rocca, 14."
            },
            {
              "type": "title",
              "options": "Академия Каррара"
            },
            {
              "type": "text",
              "options": "Это галерея искусств и академия искусств с огромной коллекцией полотен (их здесь более 1800) периода XV-XIX вв. Здесь вы встретите работы таких мастеров, как Пизанелло, Боттичелли, Беллини, Мантенья, Рафаэль Санти, Морони, Баскенис, Галгарио, Тьеполо, Каналетто и Карновалли (Пиччьо). Кроме живописи в галерее присутствуют рисунки и гравюры, бронза, скульптуры и фарфор, мебель и коллекции медалей. Входной билет стоит 10 евро. Часы работы изменяются в зависимости от сезона, подробную информацию можно уточнить на <a target='_blank' href=\"http://www.lacarrara.it/en/visitaci/schedules-and-tickets/\">этой странице</a>."
            },
            {
              "type": "text",
              "options": "Адрес: Piazza Giacomo Carrara, 82."
            },
            {
              "type": "custom-photos",
              "options": {
                "ids": [
                  "38984197181",
                  "38268475554",
                  "25114573128",
                  "27208618569"
                ],
                "items": [
                  {
                    "id": "38984197181",
                    "owner": "151640904@N03",
                    "secret": "09d3474b87",
                    "server": "4518",
                    "farm": 5,
                    "title": "венецианская-стена",
                    "ispublic": 1,
                    "isfriend": 0,
                    "isfamily": 0
                  },
                  {
                    "id": "38268475554",
                    "owner": "151640904@N03",
                    "secret": "f241e24af6",
                    "server": "4561",
                    "farm": 5,
                    "title": "516f9f66a565f",
                    "ispublic": 1,
                    "isfriend": 0,
                    "isfamily": 0
                  },
                  {
                    "id": "25114573128",
                    "owner": "151640904@N03",
                    "secret": "07a561ee99",
                    "server": "4597",
                    "farm": 5,
                    "title": "lapidario03",
                    "ispublic": 1,
                    "isfriend": 0,
                    "isfamily": 0
                  },
                  {
                    "id": "27208618569",
                    "owner": "151640904@N03",
                    "secret": "7329393d07",
                    "server": "4545",
                    "farm": 5,
                    "title": "Donizetti_cr",
                    "ispublic": 1,
                    "isfriend": 0,
                    "isfamily": 0
                  }
                ],
                "urls": [
                  "https://farm5.staticflickr.com/4518/38984197181_09d3474b87.jpg",
                  "https://farm5.staticflickr.com/4561/38268475554_f241e24af6.jpg",
                  "https://farm5.staticflickr.com/4597/25114573128_07a561ee99.jpg",
                  "https://farm5.staticflickr.com/4545/27208618569_7329393d07.jpg"
                ],
                "grid": [
                  1,
                  1,
                  1,
                  1
                ]
              }
            },
            {
              "type": "title",
              "options": "Венецианские стены"
            },
            {
              "type": "text",
              "options": "Бергамо невозможно представить без легендарных Венецианских стен, окружающих по периметру Верхний город. Они существовали ещё в эпоху Древнего Рима и были перестроены в Средние века, а затем ещё несколько раз. Стены были внесены в список объектов Всемирного наследия ЮНЕСКО. Маршрут длиной более 6 км отлично подходит для неспешных прогулок."
            },
            {
              "type": "text",
              "options": "Адрес: Viale delle Mura."
            },
            {
              "type": "title",
              "options": "Галерея современного искусства GAMEC"
            },
            {
              "type": "text",
              "options": "Галерея находится прямо напротив Академии Каррары в здании бывшего монастыря. Она располагает весьма впечатляющей для небольшого города коллекцией работ итальянских и иностранных мастеров XX и ХXI века. Среди них встречаются такие всемирно известные имена, как Де Кирико, Моранди, Кандинский, Маурицио Каттелан и многие другие. Помимо постоянной экспозиции в галерее регулярно проходят интересные временные выставки. Вход на постоянную экспозицию бесплатный. Часы работы: ежедневно (кроме вторника) с 09:00 до 13:00 и с 15:00 до 18:00."
            },
            {
              "type": "text",
              "options": "Адрес: Via San Tomaso, 53."
            },
            {
              "type": "title",
              "options": "Городской археологический музей (Museo Civico Archeologico)"
            },
            {
              "type": "text",
              "options": "Этот музей мы рекомендуем к посетить всем любителям истории. С 1960 года он занимает помещения Дворца Висконти в Цитадели и рассказывает тысячелетнюю историю территории вокруг Бергамо. Здесь вас ждут некоторые особенно ценные экспонаты, среди которых, например, каменное копьё эпохи неолита и интересные фрески I-II века н.э. Входной билет стоит 3 евро. Время работы изменяется в зависимости от сезона, актуальную информацию уточняйте на <a target='_blank' href=\"http://www.museoarcheologicobergamo.it/index.php/informazioni/\">этой странице</a>."
            },
            {
              "type": "text",
              "options": "Адрес: Piazza Cittadella, 9."
            },
            {
              "type": "title",
              "options": "Театр Доницетти"
            },
            {
              "type": "text",
              "options": "Театр расположен в Нижнем городе и является центром культурной жизни города. Помимо оперы здесь ставят балет, драматические спектакли, дают джазовые и симфонические концерты, проводят фестивали и благотворительные выступления. Посещение театра может стать отличным вариантом для культурного вечера. Однако чтобы посмотреть интерьеры театра, совсем не обязательно покупать билет на спектакль — по предварительной договорённости можно заказать экскурсию. Подробную информацию можно изучить на <a target='_blank' href=\"https://www.teatrodonizetti.it/teatri-di-bergamo-fondazione-teatro-donizetti/visite-guidate-teatri-bergamo/\">этой странице</a>.\n"
            },
            {
              "type": "text",
              "options": "Адрес: Piazza Camillo Benso Conte di Cavour, 15."
            }
          ]
        },
        {
          "type": "drop-down",
          "title": "Где поесть",
          "options": [
            {
              "type": "custom-photos",
              "options": {
                "ids": [
                  "38284979794",
                  "38964513792",
                  "38284961814",
                  "38284961684"
                ],
                "items": [
                  {
                    "id": "38284961814",
                    "owner": "151640904@N03",
                    "secret": "fdb318e599",
                    "server": "4647",
                    "farm": 5,
                    "title": "il-fornaio",
                    "ispublic": 1,
                    "isfriend": 0,
                    "isfamily": 0
                  },
                  {
                    "id": "38284961684",
                    "owner": "151640904@N03",
                    "secret": "eef5b4303e",
                    "server": "4554",
                    "farm": 5,
                    "title": "Cantierecucina-Devid-Rotasperti-fotografo-food-17-659x297",
                    "ispublic": 1,
                    "isfriend": 0,
                    "isfamily": 0
                  },
                  {
                    "id": "38284979794",
                    "owner": "151640904@N03",
                    "secret": "1f61c394d6",
                    "server": "4686",
                    "farm": 5,
                    "title": "l-art-caffe-torrefazione",
                    "ispublic": 1,
                    "isfriend": 0,
                    "isfamily": 0
                  },
                  {
                    "id": "38964513792",
                    "owner": "151640904@N03",
                    "secret": "784a38003e",
                    "server": "4569",
                    "farm": 5,
                    "title": "expo-2015-side-events-expogelato-in-bergamo-is-the-ultimate-gelato-experience-80_2627_1596x982",
                    "ispublic": 1,
                    "isfriend": 0,
                    "isfamily": 0
                  }
                ],
                "urls": [
                  "https://farm5.staticflickr.com/4647/38284961814_fdb318e599.jpg",
                  "https://farm5.staticflickr.com/4554/38284961684_eef5b4303e.jpg",
                  "https://farm5.staticflickr.com/4686/38284979794_1f61c394d6.jpg",
                  "https://farm5.staticflickr.com/4569/38964513792_784a38003e.jpg"
                ],
                "grid": [
                  1,
                  1,
                  1,
                  1
                ]
              }
            },
            {
              "type": "title",
              "options": "Cantiere Cucina"
            },
            {
              "type": "text",
              "options": "В этом небольшом ресторанчике вам подадут вкуснейшие домашние блюда по разумным ценам. Из минусов — пластиковые столовые приборы."
            },
            {
              "type": "text",
              "options": "Адрес: Via Borgo Santa Caterina, 5."
            },
            {
              "type": "title",
              "options": "Il Fornaio"
            },
            {
              "type": "text",
              "options": "Ресторанчик отлично подходит для быстрого и недорогого перекуса в Верхнем городе. Здесь более 20 видов пиццы - можно взять несколько разных кусков на пробу. "
            },
            {
              "type": "text",
              "options": "Адрес: Via Bartolomeo Colleoni, 3."
            },
            {
              "type": "title",
              "options": "Polentone Citta Alta"
            },
            {
              "type": "text",
              "options": "В это кафе отправляйтесь за традиционной полентой - блюдо из кукурузной крупы мелкого помола с разнообразными добавками. Кормят здесь сытно, вкусно и недорого. "
            },
            {
              "type": "text",
              "options": "Адрес: Piazza Mercato delle Scarpe, 1."
            },
            {
              "type": "title",
              "options": "Grom"
            },
            {
              "type": "text",
              "options": "В этой джелатерии огромный выбор натурального мороженого. Обязательно пробуйте тирамису и фисташковое."
            },
            {
              "type": "text",
              "options": "Адрес: Via Papa Giovanni XXIII."
            },
            {
              "type": "title",
              "options": "Al Bacio Ristorante Pizzeria"
            },
            {
              "type": "text",
              "options": "В этом ресторане помимо традиционных итальянских блюд стоит попробовать морепродукты. Цены средние. Днём это отличный вариант вкусного полноценного обеда за относительно небольшие деньги. Так, в определённое время предлагается несколько вариантов комплексного обеда, который обойдется вам приблизительно в 10 евро."
            },
            {
              "type": "text",
              "options": "Адрес: Via Borgo Palazzo, 116."
            },
            {
              "type": "title",
              "options": "Damimo"
            },
            {
              "type": "text",
              "options": "Этот атмосферный ресторан расположен в Верхнем городе недалеко от фуникулёра. Здесь вкусно абсолютно всё — лазанья, равиоли, стейки, пицца, сыры. Кроме того, здесь отличная винная карта. Цены средние."
            },
            {
              "type": "text",
              "options": "Адрес: Via Bartolomeo Colleoni, 17."
            },
            {
              "type": "title",
              "options": "L'Art Caffè Torrefazione"
            },
            {
              "type": "text",
              "options": "Приятное кафе с собственным внутренним двориком, удобно расположенное в самом центре. Здесь отличный выбор кофе и вкусные десерты. Сюда также можно заглянуть и на обед. Цены средние."
            },
            {
              "type": "text",
              "options": "Адрес: Piazza Pontida, 35."
            }
          ]
        },
        {
          "type": "drop-down",
          "title": "Куда сходить вечером",
          "options": [
            {
              "type": "custom-photos",
              "options": {
                "ids": [
                  "25131379298",
                  "39001368661",
                  "38285823814",
                  "38285823714"
                ],
                "items": [
                  {
                    "id": "25131379298",
                    "owner": "151640904@N03",
                    "secret": "0f53d4d238",
                    "server": "4595",
                    "farm": 5,
                    "title": "5669ddcec9f56b4ad628177f",
                    "ispublic": 1,
                    "isfriend": 0,
                    "isfamily": 0
                  },
                  {
                    "id": "38285823814",
                    "owner": "151640904@N03",
                    "secret": "81229818f7",
                    "server": "4685",
                    "farm": 5,
                    "title": "caffeFunicolareBergamo",
                    "ispublic": 1,
                    "isfriend": 0,
                    "isfamily": 0
                  },
                  {
                    "id": "39001368661",
                    "owner": "151640904@N03",
                    "secret": "4479d9802b",
                    "server": "4579",
                    "farm": 5,
                    "title": "shake-bar",
                    "ispublic": 1,
                    "isfriend": 0,
                    "isfamily": 0
                  },
                  {
                    "id": "38285823714",
                    "owner": "151640904@N03",
                    "secret": "5a901f9c8e",
                    "server": "4551",
                    "farm": 5,
                    "title": "56-4003464-14471643629e273d476f8b4352ba1a780e31fff2bc",
                    "ispublic": 1,
                    "isfriend": 0,
                    "isfamily": 0
                  }
                ],
                "urls": [
                  "https://farm5.staticflickr.com/4595/25131379298_0f53d4d238.jpg",
                  "https://farm5.staticflickr.com/4685/38285823814_81229818f7.jpg",
                  "https://farm5.staticflickr.com/4579/39001368661_4479d9802b.jpg",
                  "https://farm5.staticflickr.com/4551/38285823714_5a901f9c8e.jpg"
                ],
                "grid": [
                  1,
                  1,
                  1,
                  1
                ]
              }
            },
            {
              "type": "title",
              "options": "Caffé Della Funicolare"
            },
            {
              "type": "text",
              "options": "Из этого бара, расположенного в Верхнем городе, открывается потрясающий вид на весь Бергамо. Место отлично подходит для того, чтобы встретить закат. Кроме того, здесь большой выбор вкусного чая, вина и оригинальных коктейлей."
            },
            {
              "type": "text",
              "options": "Адрес: via Porta Dipinta, 1."
            },
            {
              "type": "title",
              "options": "Shake Bar"
            },
            {
              "type": "text",
              "options": "Совсем небольшой бар, в котором можно пообщаться с местными жителями и встретить много новых людей. Коктейли здесь качественные, а цены относительно невысокие."
            },
            {
              "type": "text",
              "options": "Адрес: Borgo Santa Caterina, 30."
            },
            {
              "type": "title",
              "options": "Perbacco"
            },
            {
              "type": "text",
              "options": "Типичный винный бар в самом сердце Бергамо. Здесь уютная атмосфера, отменные вина и квалифицированный персонал, который всегда поможет вам с выбором."
            },
            {
              "type": "text",
              "options": "Адрес: via Giovanni Battista Moroni, 66."
            }
          ]
        },
        {
          "type": "drop-down",
          "title": "Озеро Изео",
          "options": [
            {
              "type": "custom-photos",
              "options": {
                "ids": [
                  "24122782927",
                  "25116022508",
                  "38100818975",
                  "38987091351"
                ],
                "items": [
                  {
                    "id": "38100818975",
                    "owner": "151640904@N03",
                    "secret": "092311e3c5",
                    "server": "4736",
                    "farm": 5,
                    "title": "V22461",
                    "ispublic": 1,
                    "isfriend": 0,
                    "isfamily": 0
                  },
                  {
                    "id": "25116022508",
                    "owner": "151640904@N03",
                    "secret": "f7b0b3cc92",
                    "server": "4734",
                    "farm": 5,
                    "title": "ID27_Borgo-di-Lovere_01_(Turismo-Bergamo)",
                    "ispublic": 1,
                    "isfriend": 0,
                    "isfamily": 0
                  },
                  {
                    "id": "38987091351",
                    "owner": "151640904@N03",
                    "secret": "95533120db",
                    "server": "4592",
                    "farm": 5,
                    "title": "lake_iseo_tips_tranio_managers_interview_1",
                    "ispublic": 1,
                    "isfriend": 0,
                    "isfamily": 0
                  },
                  {
                    "id": "24122782927",
                    "owner": "151640904@N03",
                    "secret": "9a68e25ec5",
                    "server": "4583",
                    "farm": 5,
                    "title": "monte-isola",
                    "ispublic": 1,
                    "isfriend": 0,
                    "isfamily": 0
                  }
                ],
                "urls": [
                  "https://farm5.staticflickr.com/4736/38100818975_092311e3c5.jpg",
                  "https://farm5.staticflickr.com/4734/25116022508_f7b0b3cc92.jpg",
                  "https://farm5.staticflickr.com/4592/38987091351_95533120db.jpg",
                  "https://farm5.staticflickr.com/4583/24122782927_9a68e25ec5.jpg"
                ],
                "grid": [
                  1,
                  1,
                  1,
                  1
                ]
              }
            },
            {
              "type": "text",
              "options": "Если вы успели осмотреть достопримечательности Бергамо, рекомендуем отправиться к озеру Изео. Это потрясающе красивое озеро, окружённое горами. На его южной оконечности находится небольшой курортный городок Сарнико, который мы и советуем посетить. Для Сарнико характерны симпатичные виллы в стиле ар-нуво."
            },
            {
              "type": "text",
              "options": "Из Бергамо до Сарнико удобнее всего добраться на автобусе, поездка займёт у вас около 50 минут. Расписание можно уточнить на <a target='_blank' href=\"http://www.bergamotrasporti.it/upload/orari/invernali/E.pdf\">этой странице</a>."
            }
          ]
        }
      ]
    },
    {
      "title": "Погода в Бергамо",
      "description": [
        {
          "type": "weather",
          "options": {
            "lat": 45.6982642,
            "lng": 9.677269799999976,
            "text": "Бергамо, Италия"
          }
        }
      ]
    }
  ],
  "advices": [
    "Обед в итальянских ресторанах длится с 12.00 до 15.30 за редким исключением. Старайтесь не пропустить время обеда: у служителей ресторана есть полное право отказать вам в услуге с 15.30 до 19.00, когда ресторан закрывают для пересменки и уборки. Итальянские магазины обычно имеют обеденный перерыв с 12.30 до 15.30, который совпадает с так называемой сиестой — общепринятым временем отдыха. Ужин в ресторанах начинается с 19.00 и, если это не оговорено с персоналом ресторана, не должен переходить за полночь.",
    "Железные дороги Италии — не самые пунктуальные в мире. Поезда достаточно часто отменяются или задерживаются. Путешествовать на поезде в день вылета — не самая лучшая идея.",
    "В кухне Ломбардии есть свои региональные особенности. Традиционными блюдами местной кухни являются оссобуко (тушёная телятина), ризотто по-милански, полента (блюдо из кукурузной муки мелкого помола), казончелли (паста с начинкой), панеттоне (рождественский кекс). Также популярны блюда из пресноводной рыбы. Именно Ломбардия является родиной ликёров амаретто и кампари.",
    "Кофе за барной стойкой обычно дешевле, чем за столиком.",
    "В качестве сувениров из Бергамо стоит везти местные сыры, вино и ликёры, пасту казончелли."
  ],
  "afterAdvices": {
    "title": "",
    "text": []
  }
}
