﻿{
  "title": "Тревел-эксперт OneTwoTrip",
  "top": {
    "image": "top/bucharest.jpg",
    "topText": [
      "БУХАРЕСТ"
    ],
    "text": "Румыния",
    "under": ""
  },
  "hideContacts": true,
  "adviceTitle": "Полезная информация",
  "blogFooter": true,
  "about": {
    "hide":true,
    "description": "",
    "price": {
      "cost": "",
      "description": ""
    },
    "map": {
      "point": {
        "location": [
          ""
        ],
        "zoom": "7"
      },
      "poi": {
        "name": "бухарест",
        "city_id": 683506,
        "sight": [
[44.431833, 26.102513, "food", "La mama Centrul Vechi"],
[44.431992, 26.098100, "food", "Caru’ cu bere"],
[44.444309, 26.096648, "food", "Camera din Fata"],
[44.436521, 26.095066, "food", "Burger Van Bistro"],
[44.434796, 26.094770, "food", "Gambrinus"],
[44.459625, 26.097045, "food", "La Pescaria Dorobantilor"],
[44.468196, 26.089754, "food", "OSHO"],
[44.430205, 26.100623, "cocktail", "Shoteria"],
[44.430340, 26.100102, "cocktail", "NOMAD Skybar"],
[44.435559, 26.096896, "cocktail", "Control Club"],
[44.427493, 26.087340, "monument", "Дворец Парламента"],
[44.432595, 26.101252, "church", "Церковь Святого Николая"],
[44.431801, 26.098873, "church", "Монастырь Ставрополеос "],
[44.435226, 26.063339, "monument", "Президентский дворец"],
[44.479001, 26.082067, "parking", "Парк Herastrau"],
[44.439343, 26.095846, "monument", "Национальный музей искусств Румынии"],
[44.418787, 26.093420, "eye", "Улица Xenofon"],
[44.436960, 26.062731, "children", "Бухарестский ботанический сад"]
        ],
        "hotels": [],
        "markers": []
      }
    },
    "cities": []
  },
  "og": {
    "title": "Что делать в Бухаресте",
    "description": "Бухарест — столица Румынии, её экономический и культурный центр. Город привлекает богатой историей, колоритом и необычными достопримечательностями — здесь есть своя Триумфальная арка и самое большое здание Парламента в мире. После падения коммунистического режима Бухарест стал совершенно другим, новым и европеизированным. Здесь соседствуют Старый город, с его узкими улочками и историческими памятниками, и офисные здания из стекла. "
  },
  "route": [
    {
      "title": "Что делать в Бухаресте",
      "description": [
        {
          "type": "text",
          "options": "Бухарест — столица Румынии, её экономический и культурный центр. Город привлекает богатой историей, колоритом и необычными достопримечательностями — здесь есть своя Триумфальная арка и самое большое здание Парламента в мире. После падения коммунистического режима Бухарест стал совершенно другим, новым и европеизированным. Здесь соседствуют Старый город, с его узкими улочками и историческими памятниками, и офисные здания из стекла. "
        },
        {
          "type": "custom-photos",
          "options": {
            "ids": [
              "38266600421",
              "38234864972",
              "38234865612",
              "38211734486"
            ],
            "items": [
              {
                "id": "38266600421",
                "owner": "151640904@N03",
                "secret": "9c74477725",
                "server": "4531",
                "farm": 5,
                "title": "Bucharest-evening-tour",
                "ispublic": 1,
                "isfriend": 0,
                "isfamily": 0
              },
              {
                "id": "38234865612",
                "owner": "151640904@N03",
                "secret": "c4c009d218",
                "server": "4554",
                "farm": 5,
                "title": "3cd8b3b65a1686a51926790c37443f11",
                "ispublic": 1,
                "isfriend": 0,
                "isfamily": 0
              },
              {
                "id": "38234864972",
                "owner": "151640904@N03",
                "secret": "ca35e6cdf0",
                "server": "4542",
                "farm": 5,
                "title": "bucharest (1)",
                "ispublic": 1,
                "isfriend": 0,
                "isfamily": 0
              },
              {
                "id": "38211734486",
                "owner": "151640904@N03",
                "secret": "88d27944c5",
                "server": "4546",
                "farm": 5,
                "title": "buharest",
                "ispublic": 1,
                "isfriend": 0,
                "isfamily": 0
              }
            ],
            "urls": [
              "https://farm5.staticflickr.com/4531/38266600421_9c74477725.jpg",
              "https://farm5.staticflickr.com/4554/38234865612_c4c009d218.jpg",
              "https://farm5.staticflickr.com/4542/38234864972_ca35e6cdf0.jpg",
              "https://farm5.staticflickr.com/4546/38211734486_88d27944c5.jpg"
            ],
            "grid": [
              1,
              1,
              1,
              1
            ]
          }
        },
        {
          "type": "drop-down",
          "title": "Как добраться из аэропорта",
          "options": [
            {
              "type": "text",
              "options": "Аэропорт Бухареста расположен примерно в 17 км от исторического центра города, добраться из него можно на автобусе, поезде или такси. Поезд-экспресс Henri Coanda Express отправляется из аэропорта до станции Gara de Nord. В аэропорту следуйте указателям, которые приведут вас к кассам по продаже билетов. До ж/д станции от аэропорта можно доехать на шаттле, остановка которого расположена на выходе из зоны прилёта. Время в пути на поезде – 55 минут. Поезда и автобусы-шаттлы отправляются ежедневно с 06:25 до 21:24."
            },
            {
              "type": "text",
              "options": "Добраться до города можно также и на автобусе (вам подходят № 780 и 783). Остановки находятся на выходе из терминала прилёта. Время в пути — около 45 минут (без учёта пробок).  № 783 курсирует круглосуточно с интервалом в 20-25 минут, а № 780 ходит ежедневно с 05:30 до 23:00."
            },
            {
              "type": "text",
              "options": "Конечно, самый комфортный способ добраться до города — воспользоваться услугами такси. Дешевле всего заказывать машину через сервис Uber."
            }
          ]
        },
        {
          "type": "drop-down",
          "title": "Что смотреть",
          "options": [
            {
              "type": "custom-photos",
              "options": {
                "ids": [
                  "38264942341",
                  "38233030362",
                  "38264942171",
                  "38233029382"
                ],
                "items": [
                  {
                    "id": "38264942341",
                    "owner": "151640904@N03",
                    "secret": "7290970f00",
                    "server": "4548",
                    "farm": 5,
                    "title": "Facade of the Palace of Parliament in Bucharest",
                    "ispublic": 1,
                    "isfriend": 0,
                    "isfamily": 0
                  },
                  {
                    "id": "38264942171",
                    "owner": "151640904@N03",
                    "secret": "141d97c0bb",
                    "server": "4523",
                    "farm": 5,
                    "title": "Stary`j-gorod-Buharest",
                    "ispublic": 1,
                    "isfriend": 0,
                    "isfamily": 0
                  },
                  {
                    "id": "38233030362",
                    "owner": "151640904@N03",
                    "secret": "2ffb5c9242",
                    "server": "4542",
                    "farm": 5,
                    "title": "0_d4739_24c078f3_orig",
                    "ispublic": 1,
                    "isfriend": 0,
                    "isfamily": 0
                  },
                  {
                    "id": "38233029382",
                    "owner": "151640904@N03",
                    "secret": "dc442f342d",
                    "server": "4544",
                    "farm": 5,
                    "title": "1200px-Parcul_Herastrau",
                    "ispublic": 1,
                    "isfriend": 0,
                    "isfamily": 0
                  }
                ],
                "urls": [
                  "https://farm5.staticflickr.com/4548/38264942341_7290970f00.jpg",
                  "https://farm5.staticflickr.com/4523/38264942171_141d97c0bb.jpg",
                  "https://farm5.staticflickr.com/4542/38233030362_2ffb5c9242.jpg",
                  "https://farm5.staticflickr.com/4544/38233029382_dc442f342d.jpg"
                ],
                "grid": [
                  1,
                  1,
                  1,
                  1
                ]
              }
            },
            {
              "type": "title",
              "options": "Дворец Парламента"
            },
            {
              "type": "text",
              "options": "Это второе по величине административное здание в мире после американского Пентагона. В настоящее время здесь заседает парламент, проводятся официальные мероприятия, а часть помещений снимают компании для своих офисов. Ежедневно с 10:00 до 16:00 во дворец можно попасть в составе экскурсии (не забудьте взять с собой паспорт). "
            },
            {
              "type": "text",
              "options": "Адрес: Calea 13 Septembrie, 1."
            },
            {
              "type": "title",
              "options": "Старый город"
            },
            {
              "type": "text",
              "options": "Исторический центр известен своими узкими улочками, старинными церквушками и многочисленными историческими памятниками. Здесь обратите внимание на церковь Святого Николая, королевский двор Curtea Domneasca (в XV это была резиденция Влада Цепеша), монастырь Ставрополеос с очень уютным двориком, здание Национального банка, а также пассаж Villacrosse-Macca. Пассаж представляет собой две крытые жёлтым стеклом улочки с кофейнями и барами, которые ведут от Старого города к одной из центральных улиц."
            },
            {
              "type": "title",
              "options": " Президентский дворец (Muzeul Naţional Cotroceni)"
            },
            {
              "type": "text",
              "options": "Дворец служит резиденцией президента Румынии. Кроме этого, в нём расположен музей. Посещение возможно только по предварительному <a target='_blank' href=\"http://www.muzeulcotroceni.ro/viziteaza/vizitare_eng.html\">бронированию</a>. При себе обязательно иметь паспорт. Время работы: 09:30 - 16:30 (Пн-Пт). "
            },
            {
              "type": "text",
              "options": "Адрес: Bulevardul Geniului, 1."
            },
            {
              "type": "title",
              "options": "Парк Herastrau "
            },
            {
              "type": "text",
              "options": "Это огромный парк с озером на севере города, который идеально подходит для неспешных прогулок. Здесь можно кататься на велосипеде, катамаранах и лодках. Кроме того, рядом находится известная Триумфальная арка."
            },
            {
              "type": "text",
              "options": "Адрес: B-dul Aviatorilor."
            },
            {
              "type": "custom-photos",
              "options": {
                "ids": [
                  "38210282206",
                  "38210317376",
                  "38210317876",
                  "38233502582"
                ],
                "items": [
                  {
                    "id": "38210282206",
                    "owner": "151640904@N03",
                    "secret": "73182c6a88",
                    "server": "4583",
                    "farm": 5,
                    "title": "Bucuresti,_Romania,_Palatul_Regal_(Muzeul_National_de_Arta_al_Romaniei_-_Pavilionul_Sala_Tronului_-_Sala_Tronului_interior_1_);_B-II-m-A-19856",
                    "ispublic": 1,
                    "isfriend": 0,
                    "isfamily": 0
                  },
                  {
                    "id": "38210317376",
                    "owner": "151640904@N03",
                    "secret": "1e003a0df2",
                    "server": "4552",
                    "farm": 5,
                    "title": "xenofon1",
                    "ispublic": 1,
                    "isfriend": 0,
                    "isfamily": 0
                  },
                  {
                    "id": "38233502582",
                    "owner": "151640904@N03",
                    "secret": "e93b4a799a",
                    "server": "4522",
                    "farm": 5,
                    "title": "1Copy of DAP_5198",
                    "ispublic": 1,
                    "isfriend": 0,
                    "isfamily": 0
                  },
                  {
                    "id": "38210317876",
                    "owner": "151640904@N03",
                    "secret": "c945f2d5e5",
                    "server": "4539",
                    "farm": 5,
                    "title": "CMhI1fqWwAAd6BY",
                    "ispublic": 1,
                    "isfriend": 0,
                    "isfamily": 0
                  }
                ],
                "urls": [
                  "https://farm5.staticflickr.com/4583/38210282206_73182c6a88.jpg",
                  "https://farm5.staticflickr.com/4552/38210317376_1e003a0df2.jpg",
                  "https://farm5.staticflickr.com/4522/38233502582_e93b4a799a.jpg",
                  "https://farm5.staticflickr.com/4539/38210317876_c945f2d5e5.jpg"
                ],
                "grid": [
                  1,
                  1,
                  1,
                  1
                ]
              }
            },
            {
              "type": "title",
              "options": "Национальный музей искусств Румынии"
            },
            {
              "type": "text",
              "options": "Это крупнейший музей изобразительного искусства в стране, в его коллекции представлены работы румынских и зарубежных мастеров. Время работы: Ср — Вс: 11:00 — 19:00 (май — сентябрь), 10:00 — 18:00 (октябрь — апрель), Пн, Вт — выходной."
            },
            {
              "type": "text",
              "options": "Адрес: Calea Victoriei, 49-53."
            },
            {
              "type": "title",
              "options": "Улица Xenofon"
            },
            {
              "type": "text",
              "options": "Это единственная улица-лестница в Бухаресте. Пока будете подниматься, обратите внимание на рисунки на лестнице: там изображены все главные достопримечательности города. "
            },
            {
              "type": "title",
              "options": "Бухарестский ботанический сад"
            },
            {
              "type": "text",
              "options": "Сад был создан при медицинском факультете бухарестского университета в середине XIX века. В настоящее время он занимает территорию более 17 га, в нём собрано более 10 тыс. видов растений. Время работы: Пн — Вс: 8:00 — 20:00 (с 1 апреля до 31 октября), Пн — Вс: 9:00 — 17:00 (с 1 ноября до 31 марта); музей ботанического сада: Пн — Чт: 10:00 — 15:00, Сб, Вс: 9:00 — 13:00"
            },
            {
              "type": "text",
              "options": "Адрес: Șoseaua Cotroceni, 32."
            }
          ]
        },
        {
          "type": "drop-down",
          "title": "Где поесть",
          "options": [
            {
              "type": "custom-photos",
              "options": {
                "ids": [
                  "38265995421",
                  "38265994981",
                  "38234168472",
                  "37555348444"
                ],
                "items": [
                  {
                    "id": "38265995421",
                    "owner": "151640904@N03",
                    "secret": "fd863eccb2",
                    "server": "4539",
                    "farm": 5,
                    "title": "62016",
                    "ispublic": 1,
                    "isfriend": 0,
                    "isfamily": 0
                  },
                  {
                    "id": "37555348444",
                    "owner": "151640904@N03",
                    "secret": "2c7bf61023",
                    "server": "4525",
                    "farm": 5,
                    "title": "paul-bakeries-bittersweet-pies-6-600-70421",
                    "ispublic": 1,
                    "isfriend": 0,
                    "isfamily": 0
                  },
                  {
                    "id": "38265994981",
                    "owner": "151640904@N03",
                    "secret": "ed03fd8899",
                    "server": "4579",
                    "farm": 5,
                    "title": "883604_542557832433911_976026777_o",
                    "ispublic": 1,
                    "isfriend": 0,
                    "isfamily": 0
                  },
                  {
                    "id": "38234168472",
                    "owner": "151640904@N03",
                    "secret": "962e99d3a1",
                    "server": "4571",
                    "farm": 5,
                    "title": "12087831_1664313067145451_5299820902719504347_o",
                    "ispublic": 1,
                    "isfriend": 0,
                    "isfamily": 0
                  }
                ],
                "urls": [
                  "https://farm5.staticflickr.com/4539/38265995421_fd863eccb2.jpg",
                  "https://farm5.staticflickr.com/4525/37555348444_2c7bf61023.jpg",
                  "https://farm5.staticflickr.com/4579/38265994981_ed03fd8899.jpg",
                  "https://farm5.staticflickr.com/4571/38234168472_962e99d3a1.jpg"
                ],
                "grid": [
                  1,
                  1,
                  1,
                  1
                ]
              }
            },
            {
              "type": "title",
              "options": "La mama Centrul Vechi"
            },
            {
              "type": "text",
              "options": "В это кафе отправляйтесь за простой домашней кухней и попробуйте традиционные супы. Здесь вполне можно пообедать за пять евро вместе с напитками."
            },
            {
              "type": "text",
              "options": "Адрес: Strada Băcani, 1."
            },
            {
              "type": "title",
              "options": "Caru’ cu bere"
            },
            {
              "type": "text",
              "options": "Атмосферный ресторан в историческом центре, популярный как у туристов, так и у местных. Открылся он ещё в 1879 году, и с тех пор совсем не поменялся. Реконструкции, которые делались позднее, только восстанавливали интерьер. Кухня – национальная, а цены немного выше среднего. Правда, утром и днём здесь всегда найдутся бюджетные предложения в меню завтраков и обедов. "
            },
            {
              "type": "text",
              "options": "Адрес: Strada Stavropoleos, 5."
            },
            {
              "type": "title",
              "options": "Camera din Fata"
            },
            {
              "type": "text",
              "options": "Небольшая уютная кофейня и магазин самых замысловатых сортов кофе и чая. "
            },
            {
              "type": "text",
              "options": "Адрес: Strada D. I. Mendeleev, 22."
            },
            {
              "type": "title",
              "options": "Burger Van Bistro"
            },
            {
              "type": "text",
              "options": "В этой небольшой закусочной вас ждут потрясающие бургеры. Цены невысокие."
            },
            {
              "type": "text",
              "options": "Адрес: George Vraca, 4."
            },
            {
              "type": "title",
              "options": "Gambrinus"
            },
            {
              "type": "text",
              "options": "В этот ресторанчик отправляйтесь, чтобы попробовать традиционную кухню и местное пиво. Цены чуть выше средних."
            },
            {
              "type": "text",
              "options": "Адрес: Bulevardul Regina Elisabeta, 38."
            },
            {
              "type": "title",
              "options": "La Pescaria Dorobantilor"
            },
            {
              "type": "text",
              "options": "Ресторан специализируется на рыбе и морепродуктах, которые вам приготовят по фирменным рецептам. Цены выше средних по Бухаресту."
            },
            {
              "type": "text",
              "options": "Адрес: Tudor Stefan, 23."
            },
            {
              "type": "title",
              "options": "OSHO"
            },
            {
              "type": "text",
              "options": "Всем мясоедам рекомендуем этот стейк-хаус — мясо на гриле здесь готовят отменно, а выбор очень большой. Помимо мяса здесь есть разнообразные супы и салаты."
            },
            {
              "type": "text",
              "options": "Адрес: Boulevardul Primaveri, 19-21."
            }
          ]
        },
        {
          "type": "drop-down",
          "title": "Куда сходить вечером",
          "options": [
            {
              "type": "custom-photos",
              "options": {
                "ids": [
                  "38266508211",
                  "38266455261",
                  "37555785574",
                  "37555784584"
                ],
                "items": [
                  {
                    "id": "37555784584",
                    "owner": "151640904@N03",
                    "secret": "0a59b6995b",
                    "server": "4580",
                    "farm": 5,
                    "title": "shoteria",
                    "ispublic": 1,
                    "isfriend": 0,
                    "isfamily": 0
                  },
                  {
                    "id": "38266508211",
                    "owner": "151640904@N03",
                    "secret": "7444bbeac8",
                    "server": "4547",
                    "farm": 5,
                    "title": "17818178_1399936896737281_6677073106026102784_n",
                    "ispublic": 1,
                    "isfriend": 0,
                    "isfamily": 0
                  },
                  {
                    "id": "37555785574",
                    "owner": "151640904@N03",
                    "secret": "8c204e422e",
                    "server": "4560",
                    "farm": 5,
                    "title": "nomad-skybar",
                    "ispublic": 1,
                    "isfriend": 0,
                    "isfamily": 0
                  },
                  {
                    "id": "38266455261",
                    "owner": "151640904@N03",
                    "secret": "3296bf15c1",
                    "server": "4559",
                    "farm": 5,
                    "title": "control",
                    "ispublic": 1,
                    "isfriend": 0,
                    "isfamily": 0
                  }
                ],
                "urls": [
                  "https://farm5.staticflickr.com/4580/37555784584_0a59b6995b.jpg",
                  "https://farm5.staticflickr.com/4547/38266508211_7444bbeac8.jpg",
                  "https://farm5.staticflickr.com/4560/37555785574_8c204e422e.jpg",
                  "https://farm5.staticflickr.com/4559/38266455261_3296bf15c1.jpg"
                ],
                "grid": [
                  1,
                  1,
                  1,
                  1
                ]
              }
            },
            {
              "type": "title",
              "options": "Shoteria "
            },
            {
              "type": "text",
              "options": "Надпись на входе гласит: «Станция первой алкоголизации и станция реабилитации». Маленький бар с вокзальным декором: меню на табло с расписанием движения поездов, разноцветные старые чемоданы и указатели на перроны. Бар специализируется на шотах, которые считаются одними из лучших в городе."
            },
            {
              "type": "text",
              "options": "Адрес: Strada Selari, 17."
            },
            {
              "type": "title",
              "options": "NOMAD Skybar"
            },
            {
              "type": "text",
              "options": "Отличный бар с панорамными окнами, расположившийся в историческом центре. Цены здесь высокие, но приятная атмосфера, вкусные коктейли и хороший сервис того стоят."
            },
            {
              "type": "text",
              "options": "Адрес: Strada Smardan, 30."
            },
            {
              "type": "title",
              "options": "Control Club"
            },
            {
              "type": "text",
              "options": "Клуб и терраса Control считаются одними из лучших мест для тех, кто «не любит клубов». Яркие вечеринки, альтернативная музыка и концерты в программе и доступные цены в меню."
            },
            {
              "type": "text",
              "options": "Адрес: Strada Constantin Mille, 4."
            }
          ]
        },
        {
          "type": "drop-down",
          "title": "Therme București",
          "options": [
            {
              "type": "custom-photos",
              "options": {
                "ids": [
                  "37554010234",
                  "24393524348",
                  "24393524638",
                  "37554011674"
                ],
                "items": [
                  {
                    "id": "24393524638",
                    "owner": "151640904@N03",
                    "secret": "684dd85b71",
                    "server": "4537",
                    "farm": 5,
                    "title": "therme-bucharest",
                    "ispublic": 1,
                    "isfriend": 0,
                    "isfamily": 0
                  },
                  {
                    "id": "24393524348",
                    "owner": "151640904@N03",
                    "secret": "cf5a077e47",
                    "server": "4543",
                    "farm": 5,
                    "title": "therme-bucuresti",
                    "ispublic": 1,
                    "isfriend": 0,
                    "isfamily": 0
                  },
                  {
                    "id": "37554011674",
                    "owner": "151640904@N03",
                    "secret": "5fced169d7",
                    "server": "4567",
                    "farm": 5,
                    "title": "HIGH7850_672522",
                    "ispublic": 1,
                    "isfriend": 0,
                    "isfamily": 0
                  },
                  {
                    "id": "37554010234",
                    "owner": "151640904@N03",
                    "secret": "09227a3794",
                    "server": "4530",
                    "farm": 5,
                    "title": "therme3",
                    "ispublic": 1,
                    "isfriend": 0,
                    "isfamily": 0
                  }
                ],
                "urls": [
                  "https://farm5.staticflickr.com/4537/24393524638_684dd85b71.jpg",
                  "https://farm5.staticflickr.com/4543/24393524348_cf5a077e47.jpg",
                  "https://farm5.staticflickr.com/4567/37554011674_5fced169d7.jpg",
                  "https://farm5.staticflickr.com/4530/37554010234_09227a3794.jpg"
                ],
                "grid": [
                  1,
                  1,
                  1,
                  1
                ]
              }
            },
            {
              "type": "text",
              "options": "В январе 2016 года недалеко от Бухареста открылся огромный спа-центр, который сейчас считается самым большим в Европе. Очень рекомендуем сюда съездить — вас приятно удивят цены и качество. Здесь более 500 пальм и 800 тысяч различных растений, привезённых из разных уголков мира. Вы в прямом смысле почувствуете себя в джунглях. Актуальные цены вы найдете на <a target='_blank' href=\"http://therme.ro/en/prices/\">этой странице</a>."
            },
            {
              "type": "text",
              "options": "Адрес: Calea Bucuresti, 1k, Balotesti. От площади Piața Romană сюда ходят бесплатные автобусы. Учитывая, что центр расположен всего в 20 км от города, наиболее комфортный вариант — взять такси (дешевле всего заказывать машину через сервис Uber). "
            }
          ]
        }
      ]
    },
    {
      "title": "Погода в Бухаресте",
      "description": [
        {
          "type": "weather",
          "options": {
            "lat": 44.4267674,
            "lng": 26.102538399999958,
            "text": "Бухарест, Румыния"
          }
        }
      ]
    }
  ],
  "advices": [
    "Общественный транспорт в Бухаресте работает с 05:00 до 23:00. Ночные автобусы хоть и существуют, но ездят достаточно редко. После 11 вечера добраться куда-то проще всего на такси (дешевле всего заказывать его через Uber).",
    "Попробуйте традиционные блюда — чорбу (суп), дроб (фарш из субпродуктов ягнёнка, завёрнутый в сальник и жареный как мясной рулет), брынзу, мититеи (маленькие колбаски, которые жарятся на гриле), стуфат (блюдо из баранины), сармале (мясной фарш с рисом, завёрнутый в капустные или виноградные листья), фаршированный перец, кабачки и баклажаны, сыр телемеа, козунак (пирог), симит (круглый бублик с кунжутом).",
    "Местная валюта — румынский лей (приблизительно 15 рублей).",
    "В центре города находится самый большой магазин книг (адрес: Strada Lipscani, 55) в Восточной Европе и, что точно, один из самых красивых. Открылся он в феврале 2015 года в отреставрированном здании начала XX в. На шести этажах магазина вы найдёте книги, музыку, фильмы, сувениры, безделушки, а также тихое место, где можно почитать.",
    "В качестве сувенира из Бухареста стоит везти изображение Дракулы, румынский фарфор, местные вина и сыры, цуйку (сливовая настойка), скатерти ручной вышивки. "
  ],
  "afterAdvices": {
    "title": "",
    "text": []
  }
}
