﻿{
  "title": "OneTwoTrip. Тревел-эксперт.",
  "top": {
    "image": "top/copenhagen.jpg",
    "topText": [
      "КОПЕНГАГЕН"
    ],
    "text": "Дания",
    "under": ""
  },
  "hideContacts": true,
  "adviceTitle": "Полезная информация",
  "blogFooter": true,
  "about": {
    "hide":true,
    "description": "",
    "price": {
      "cost": "",
      "description": ""
    },
    "map": {
      "point": {
        "location": [
          ""
        ],
        "zoom": "7"
      },
      "poi": {
        "name": "",
        "city_id": "",
        "sight": [
[55.676753, 12.608576, "children", "Христиания"],
[55.688825, 12.578330, "monument", "Государственный музей искусств"],
[55.676256, 12.580504, "monument", "Дворец Кристиансборг"],
[55.672986, 12.572540, "monument", "Новая глиптотека Карлсберга"],
[55.673720, 12.568104, "children", "Парк Тиволи"],
[55.673399, 12.582691, "eye", "Королевская библиотека Дании"],
[55.672951, 12.594210, "church", "Церковь Спасителя"],
[55.684077, 12.593020, "monument", "Амалиенборг"],
[55.674666, 12.574741, "monument", "Национальный музей"],
[55.685858, 12.577237, "monument", "Замок Розенборг"],
[55.716572, 12.533676, "church", "Церковь Грундтвига"],
[55.691046, 12.550153, "children", "Кладбище Ассистенс"],
[55.654593, 12.649617, "children", "Пляж Амагер"],
[55.681934, 12.600728, "theater", "Оперный театр Копенгагена"],
[55.689981, 12.562784, "cocktail", "The Barking Dog"],
[55.668687, 12.559770, "cocktail", "Bakken Kbh"],
[55.678117, 12.574735, "cocktail", "Chateau Motel"],
[55.688099, 12.560412, "cocktail", "Kassen"],
[55.671922, 12.557559, "cocktail", "Mikkeller"],
[55.680844, 12.572669, "food", "Dalle Valle"],
[55.689982, 12.559184, "icon-бургер", "Banana Joe"],
[55.673741, 12.603038, "food", "Morgenstedet"],
[55.682169, 12.582988, "food", "Atelier September"],
[55.676384, 12.574759, "food", "Bastard Café"],
[55.669090, 12.558719, "food", "Fleisch"],
[55.684052, 12.569462, "food", "Torvehallerne"]
        ],
        "hotels": [],
        "markers": []
      }
    },
    "cities": []
  },
  "og": {
    "title": "Что делать в Копенгагене ",
    "description": "Копенгаген — очень уютный город, расположившийся на трёх островах. Здесь вас ждут королевские дворцы, красивые набережные, многочисленные музеи, ухоженные парки, отлично сохранившийся исторический центр и знаменитый свободный город Христиания. По Копенгагену очень комфортно передвигаться на велосипеде — общая протяжённость велодорожек составляет более 400 км. Мы расскажем вам, что стоит увидеть за пару дней не только в самом Копенгагене, но и его окрестностях."
  },
  "route": [
    {
      "title": "Что делать в Копенгагене",
      "description": [
        {
          "type": "text",
          "options": "Копенгаген — очень уютный город, расположившийся на трёх островах. Здесь вас ждут королевские дворцы, красивые набережные, многочисленные музеи, ухоженные парки, отлично сохранившийся исторический центр и знаменитый свободный город Христиания. По Копенгагену очень комфортно передвигаться на велосипеде — общая протяжённость велодорожек составляет более 400 км. Мы расскажем вам, что стоит увидеть за пару дней не только в самом Копенгагене, но и его окрестностях."
        },
        {
          "type": "custom-photos",
          "options": {
            "ids": [
              "26259785289",
              "37982464466",
              "38035783921",
              "38035784111"
            ],
            "items": [
              {
                "id": "26259785289",
                "owner": "151640904@N03",
                "secret": "17bf6ee111",
                "server": "4504",
                "farm": 5,
                "title": "258618815",
                "ispublic": 1,
                "isfriend": 0,
                "isfamily": 0
              },
              {
                "id": "37982464466",
                "owner": "151640904@N03",
                "secret": "486c4790fb",
                "server": "4491",
                "farm": 5,
                "title": "tivoli",
                "ispublic": 1,
                "isfriend": 0,
                "isfamily": 0
              },
              {
                "id": "38035784111",
                "owner": "151640904@N03",
                "secret": "9ed127b661",
                "server": "4457",
                "farm": 5,
                "title": "superkilen_thomas_christensen",
                "ispublic": 1,
                "isfriend": 0,
                "isfamily": 0
              },
              {
                "id": "38035783921",
                "owner": "151640904@N03",
                "secret": "120e568070",
                "server": "4494",
                "farm": 5,
                "title": "6388284-22-Daniya_Mechty_sbyvayutsya",
                "ispublic": 1,
                "isfriend": 0,
                "isfamily": 0
              }
            ],
            "urls": [
              "https://farm5.staticflickr.com/4504/26259785289_17bf6ee111.jpg",
              "https://farm5.staticflickr.com/4491/37982464466_486c4790fb.jpg",
              "https://farm5.staticflickr.com/4457/38035784111_9ed127b661.jpg",
              "https://farm5.staticflickr.com/4494/38035783921_120e568070.jpg"
            ],
            "grid": [
              1,
              1,
              1,
              1
            ]
          }
        },
        {
          "type": "drop-down",
          "title": "Как добраться из аэропорта",
          "options": [
            {
              "type": "text",
              "options": "Аэропорт Каструп находится всего в 8 км от центра Копенгагена, поэтому поездка не займёт много времени. Вам понадобится билет на 3 зоны (в том случае если вы не приобрели сити-пасс). Он стоит 36 крон (примерно 5 евро), позволяет перемещаться на поездах, метро и автобусах. Действителен в течение 1 часа 15 минут, то есть в этот период вы можете сделать любое количество пересадок. Билеты можно купить в автоматах и в кассах железнодорожного оператора DSB в терминале 3. Имейте в виду, что автоматы не принимают банкноты, оплата производится только монетами и банковскими картами.\n"
            },
            {
              "type": "text",
              "options": "Быстрее всего вы доберётесь до центра на метро. Платформа находится в терминале 3. Метро работает круглосуточно.\n"
            },
            {
              "type": "text",
              "options": "Конечно, самый комфортный вариант добраться до отеля — на такси. Дешевле всего заказывать машину через сервис Uber."
            }
          ]
        },
        {
          "type": "drop-down",
          "title": "Copenhagen Card",
          "options": [
            {
              "type": "text",
              "options": "Copenhagen Card представляет собой сити-пасс и даёт право на проезд в автобусе, водном трамвае, поезде и метро по всему столичному региону, а также обеспечивает бесплатный доступ во многие музеи. В случае если вы планируете активно посещать достопримечательности и перемещаться по городу на общественном транспорте, покупка будет очень выгодна. Кроме того, учитывая цены на проезд в Копенгагене, карта окупится, даже если её использовать только как проездной билет."
            },
            {
              "type": "text",
              "options": "Карту можно приобрести на 24 часа (53 евро), 48 часов (74 евро), 72 часа (89 евро). Узнать все подробности, а также оформить карту можно <a target='_blank' href=\"http://www.copenhagencard.com/buy-copenhagencard\">на официальном сайте</a>, а забрать в аэропорту Копенгагена сразу по прилёту в Copenhagen Airport Service Center, Терминал 3. Часы работы центра: с 06:00 до 23:00. Таким образом, вы сможете добраться до города на метро или поезде, не покупая отдельных билетов."
            }
          ]
        },
        {
          "type": "drop-down",
          "title": "Транспорт",
          "options": [
            {
              "type": "title",
              "options": "Метро"
            },
            {
              "type": "text",
              "options": "Копенгагенский метрополитен — один из самых новых в мире (открыт в 2002 г.), а также первый и единственный в Дании. Так как поезда управляются автоматически и кабина машиниста не предусмотрена, пассажиры могут наблюдать за движением через лобовое стекло. Метро работает круглосуточно, что очень удобно."
            },
            {
              "type": "text",
              "options": "В случае если вы решили не приобретать сити-пасс, вы должны знать, что стоимость проезда зависит от того, в какую зону вы следуете (всего их 4). Карту метро, а также подробную информацию вы найдёте на <a target='_blank' href=\"http://intl.m.dk/#!/\">официальном сайте</a>."
            },
            {
              "type": "title",
              "options": "Велосипед"
            },
            {
              "type": "text",
              "options": "Отличный способ исследовать город — пересесть на велосипед. Арендовать его можно, например, на одной из станций <a target='_blank' href=\"https://bycyklen.dk/en/\">Bycyklen</a>. Тем более что по всему городу проложены удобные велосипедные дорожки.\n"
            }
          ]
        },
        {
          "type": "drop-down",
          "title": "Что смотреть",
          "options": [
            {
              "type": "custom-photos",
              "options": {
                "ids": [
                  "24966753897",
                  "39837037171",
                  "39837037551",
                  "25963839048"
                ],
                "items": [
                  {
                    "id": "24966753897",
                    "owner": "151640904@N03",
                    "secret": "42038a2c22",
                    "server": "4611",
                    "farm": 5,
                    "title": "christiania7-tmb-768x404xfill",
                    "ispublic": 1,
                    "isfriend": 0,
                    "isfamily": 0
                  },
                  {
                    "id": "39837037171",
                    "owner": "151640904@N03",
                    "secret": "a6d8113aa3",
                    "server": "4719",
                    "farm": 5,
                    "title": "i_001",
                    "ispublic": 1,
                    "isfriend": 0,
                    "isfamily": 0
                  },
                  {
                    "id": "39837037551",
                    "owner": "151640904@N03",
                    "secret": "168049af1b",
                    "server": "4716",
                    "farm": 5,
                    "title": "christiansborg_palace",
                    "ispublic": 1,
                    "isfriend": 0,
                    "isfamily": 0
                  },
                  {
                    "id": "25963839048",
                    "owner": "151640904@N03",
                    "secret": "d937abca0f",
                    "server": "4716",
                    "farm": 5,
                    "title": "wintergarden-1024x687",
                    "ispublic": 1,
                    "isfriend": 0,
                    "isfamily": 0
                  }
                ],
                "urls": [
                  "https://farm5.staticflickr.com/4611/24966753897_42038a2c22.jpg",
                  "https://farm5.staticflickr.com/4719/39837037171_a6d8113aa3.jpg",
                  "https://farm5.staticflickr.com/4716/39837037551_168049af1b.jpg",
                  "https://farm5.staticflickr.com/4716/25963839048_d937abca0f.jpg"
                ],
                "grid": [
                  1,
                  1,
                  1,
                  1
                ]
              }
            },
            {
              "type": "title",
              "options": "Христиания"
            },
            {
              "type": "text",
              "options": "Это городской квартал, который представляет собой частично самоуправляемое, неофициальное «государство внутри государства». Христиания возникла в 1971 г., когда группа хиппи незаконно вселилась в заброшенные казармы и основала альтернативное сообщество, пытаясь добиться автономии от датского правительства. Сейчас Христиания по-прежнему остается частично самостоятельным районом, располагает собственными законами, среди которых такие как, например, запрет на фотографирование, разговоры по телефону, запрет на автомобили, воровство, оружие, тяжёлые наркотики. В Христиании постоянно проживает около тысячи жителей, ежегодно сюда приезжают более полумиллиона человек, чтобы посмотреть на этот уникальный свободный город, который непохож ни на один другой район Копенгагена.\n"
            },
            {
              "type": "text",
              "options": "Кстати, цены в кафе на территории Христиании немного ниже, чем в остальном Копенгагене. Ориентир, по которому можно найти Христианию — церковь Спасителя с высокой башней и ведущей на неё винтовой лестницей. "
            },
            {
              "type": "title",
              "options": "Государственный музей искусств"
            },
            {
              "type": "text",
              "options": "В музее представлены произведения искусства, начиная с XII-го века. Вы сможете увидеть работы Мантенья, Тициана, Тинторетто, Брейгели, Рубенса, Рембрандта. Коллекция современного искусства включает произведения Пикассо, Брака, Леже, Матисса, Модильяни и Нольде. Кроме этого широко представлены работы датских авторов. Входной билет для взрослых стоит 110 крон, действует система скидок. Часы работы: 11:00 - 17:00 (Вт-Вс), 11:00 - 20:00 (Ср)."
            },
            {
              "type": "text",
              "options": "Адрес: Sølvgade, 48-50."
            },
            {
              "type": "title",
              "options": "Дворец Кристиансборг"
            },
            {
              "type": "text",
              "options": "Это бывший королевский дворец, в котором с 1849 г. заседает датский парламент. За свою более чем 8-вековую историю несколько раз подвергался разрушениям и реставрациям. В самом дворце расположен музей оружия. Но самое главное это то, что  совершенно бесплатно можно подняться на смотровую площадку (она сама высокая в городе) и осмотреть город с высоты 106 метров. Часы работы: 10:00-17:00."
            },
            {
              "type": "text",
              "options": "Адрес: Prins Jørgens Gård, 1."
            },
            {
              "type": "title",
              "options": "Новая глиптотека Карлсберга"
            },
            {
              "type": "text",
              "options": "Художественный музей, известный обширной коллекцией произведений искусства Древнего Египта, Древней Греции и Древнего Рима. На верхних этажах представлены картины импрессионистов — Мане, Писсарро, Ренуара, Дега, Сезанна. Также в центре здания находится красивый зимний сад. Глиптотека расположена рядом с парком Тиволи, поэтому их посещение удобно совместить. Входной билет для взрослых стоит 95 крон, по вторникам бесплатно. Часы работы: 11:00 - 18:00 (Вт-Вс), четверг 11:00 - 22:00, понедельник — выходной. "
            },
            {
              "type": "text",
              "options": "Адрес: Dantes Plads, 7."
            },
            {
              "type": "custom-photos",
              "options": {
                "ids": [
                  "39852679341",
                  "24981981227",
                  "24981976117",
                  "24981976857"
                ],
                "items": [
                  {
                    "id": "39852679341",
                    "owner": "151640904@N03",
                    "secret": "8672c2f8ea",
                    "server": "4603",
                    "farm": 5,
                    "title": "Tivoli-Gardens-4",
                    "ispublic": 1,
                    "isfriend": 0,
                    "isfamily": 0
                  },
                  {
                    "id": "24981981227",
                    "owner": "151640904@N03",
                    "secret": "f764060f94",
                    "server": "4629",
                    "farm": 5,
                    "title": "ob_0669bf_5",
                    "ispublic": 1,
                    "isfriend": 0,
                    "isfamily": 0
                  },
                  {
                    "id": "24981976117",
                    "owner": "151640904@N03",
                    "secret": "bf27074fc0",
                    "server": "4695",
                    "farm": 5,
                    "title": "789241_original",
                    "ispublic": 1,
                    "isfriend": 0,
                    "isfamily": 0
                  },
                  {
                    "id": "24981976857",
                    "owner": "151640904@N03",
                    "secret": "a505c1ac89",
                    "server": "4616",
                    "farm": 5,
                    "title": "535ebb4246013",
                    "ispublic": 1,
                    "isfriend": 0,
                    "isfamily": 0
                  }
                ],
                "urls": [
                  "https://farm5.staticflickr.com/4603/39852679341_8672c2f8ea.jpg",
                  "https://farm5.staticflickr.com/4629/24981981227_f764060f94.jpg",
                  "https://farm5.staticflickr.com/4695/24981976117_bf27074fc0.jpg",
                  "https://farm5.staticflickr.com/4616/24981976857_a505c1ac89.jpg"
                ],
                "grid": [
                  1,
                  1,
                  1,
                  1
                ]
              }
            },
            {
              "type": "title",
              "options": "Парк Тиволи"
            },
            {
              "type": "text",
              "options": "Это известный парк развлечений, один из самых посещаемых в Европе. На его территории работают 26 аттракционов во время летних месяцев и 29 аттракционов во время Хэллоуина и Рождества. <a target='_blank' href=\"https://www.tivoligardens.com/en/praktisk/priser\">На этой странице</a> вы найдёте актуальную информацию о ценах, а также сможете приобрести билет онлайн. Часы работы: 11:00 - 23:00 (Вс-Чт), 11:00 - 24:00 (Пт-Сб)."
            },
            {
              "type": "text",
              "options": "Адрес: Vesterbrogade, 3."
            },
            {
              "type": "title",
              "options": "Королевская библиотека Дании"
            },
            {
              "type": "text",
              "options": "Национальная библиотека Дании является одной из крупнейших не только в Скандинавии, но и в мире. Она состоит из целого комплекса зданий, а в 1999 г. на острове Слотсхольмен было построено новое, получившее название «Чёрный алмаз». Название связано с внешним обликом здания: оно построено из чёрного гранита и стекла. В библиотеке периодически проводятся разнообразные мероприятия и выставки, а также имеется концертный зал. <a target='_blank' href=\"http://www.kb.dk/en/dia/index.html\">На официальном сайте</a> вы найдёте актуальную афишу. Очень рекомендуем зайти внутрь — библиотека действительно завораживает. "
            },
            {
              "type": "text",
              "options": "Адрес: Black Diamond, Søren Kierkegaards Plads, 1."
            },
            {
              "type": "title",
              "options": "Церковь Спасителя"
            },
            {
              "type": "text",
              "options": "Эта барочная церковь известна открытой винтовой лестницей, опоясывающей колокольню. Советуем подняться на неё всем любителям высоты — виды отсюда просто потрясающие. С 1 мая по 30 сентября билет стоит 50 крон, в зимний период —35 крон. Часы работы с 1 мая по 30 сентября: 09:30 - 19:00 (Пн-Сб), 10:30 - 19:00 (Вс), в остальное время года — с 10:00 до 16:00. С 16 декабря по 24 февраля закрыто. Внутрь самой церкви тоже стоит заглянуть. \n\n"
            },
            {
              "type": "text",
              "options": "Адрес: Sankt Annæ Gade, 29."
            },
            {
              "type": "title",
              "options": "Национальный музей"
            },
            {
              "type": "text",
              "options": "Крупнейший культурно-исторический музей Дании, открытый в 1892 г. Постоянная экспозиция точно придётся по душе любителям викингов и античного периода. Экспонаты рассказывают об истории Дании и соседних северных стран с доисторических времён. А в античном разделе представлены результаты раскопок в Египте, Греции и Риме. Кроме того, здесь можно увидеть одежду и орудия инуитов, рунические камни, предметы из средневековых церквей. Временные экспозиции постоянно меняются, поэтому даже местные стараются посещать музей хотя бы пару раз в год. Билет для взрослого стоит 85 крон. Часы работы: 10:00 - 17:00 (Вт-Вс). "
            },
            {
              "type": "text",
              "options": "Адрес: Prinsens Palæ, Vestergade, 10."
            },
            {
              "type": "custom-photos",
              "options": {
                "ids": [
                  "39821222562",
                  "39821222292",
                  "39821221982",
                  "39821221762"
                ],
                "items": [
                  {
                    "id": "39821222562",
                    "owner": "151640904@N03",
                    "secret": "16e7a66dcb",
                    "server": "4667",
                    "farm": 5,
                    "title": "171919_Amalienborg_sunset_Martin_Heiberg",
                    "ispublic": 1,
                    "isfriend": 0,
                    "isfamily": 0
                  },
                  {
                    "id": "39821222292",
                    "owner": "151640904@N03",
                    "secret": "65e3f547f3",
                    "server": "4706",
                    "farm": 5,
                    "title": "02-Rosenborg-Slot",
                    "ispublic": 1,
                    "isfriend": 0,
                    "isfamily": 0
                  },
                  {
                    "id": "39821221762",
                    "owner": "151640904@N03",
                    "secret": "ec0c7652a5",
                    "server": "4671",
                    "farm": 5,
                    "title": "grundtvigschurch1",
                    "ispublic": 1,
                    "isfriend": 0,
                    "isfamily": 0
                  },
                  {
                    "id": "39821221982",
                    "owner": "151640904@N03",
                    "secret": "0f5a8c4bcb",
                    "server": "4663",
                    "farm": 5,
                    "title": "cmentarz-norrebro",
                    "ispublic": 1,
                    "isfriend": 0,
                    "isfamily": 0
                  }
                ],
                "urls": [
                  "https://farm5.staticflickr.com/4667/39821222562_16e7a66dcb.jpg",
                  "https://farm5.staticflickr.com/4706/39821222292_65e3f547f3.jpg",
                  "https://farm5.staticflickr.com/4671/39821221762_ec0c7652a5.jpg",
                  "https://farm5.staticflickr.com/4663/39821221982_0f5a8c4bcb.jpg"
                ],
                "grid": [
                  1,
                  1,
                  1,
                  1
                ]
              }
            },
            {
              "type": "title",
              "options": "Амалиенборг"
            },
            {
              "type": "text",
              "options": "Это официальная резиденция датской королевской семьи. Амалиенборг начал выполнять эту роль после пожара дворца Кристиансборг в 1794 г. Комплекс состоит из четырёх особняков, которые расположены фасадами друг к другу, образуя таким образом одноимённую площадь. Ежедневно в полдень происходит смена караула. Если королева во дворце, то церемония длится немного дольше и торжественнее. Вход в музей стоит 95 крон. Актуальную информацию о часах работы вы найдёте на <a target='_blank' href=\"http://www.kongernessamling.dk/en/amalienborg/visit-amalienborg/#opening-hours\">этой странице</a>. "
            },
            {
              "type": "text",
              "options": "Адрес: Amalienborg Slotsplads, 5."
            },
            {
              "type": "title",
              "options": "Замок Розенборг"
            },
            {
              "type": "text",
              "options": "Бывшая королевская резиденция, выстроенная по приказу короля Кристиана IV в XVII веке. В музее представлена богатая коллекция драгоценностей, картин и украшений датской королевской семьи, собрание королевского фарфора и серебра. Входной билет для взрослого стоит 110 крон. Если вы также планируете посетить Амалиенборг, будет выгодно приобрести комбинированный билет за 155 крон (действителен 36 часов). Вокруг замка разбит красивый Королевский сад. "
            },
            {
              "type": "text",
              "options": "Адрес: Øster Voldgade, 4A."
            },
            {
              "type": "title",
              "options": "Церковь Грундтвига"
            },
            {
              "type": "text",
              "options": "Эта лютеранская церковь интересна тем, что построена в стиле экспрессионизма. В архитектуре переплетаются черты традиционных датских деревенских церквей, готики, барокко и разнообразных модернистских течений. Находится она достаточно далеко от центра, однако если окажетесь в этом районе, обязательно зайдите внутрь. "
            },
            {
              "type": "text",
              "options": "Адрес: På Bjerget, 14B."
            },
            {
              "type": "title",
              "options": "Кладбище Ассистенс"
            },
            {
              "type": "text",
              "options": "Производит очень приятное впечатление и больше похоже на парк со скульптурами, чем на место захоронения. Местные даже занимаются здесь йогой и гуляют с детьми в колясках. "
            },
            {
              "type": "text",
              "options": "Адрес: Kapelvej, 4."
            },
            {
              "type": "title",
              "options": "Пляж Амагер (Amager)"
            },
            {
              "type": "text",
              "options": "Летом в Копенгагене открыто несколько зон для купания. Главный и самый популярный пляж города — «Амагер» — находится всего 10 минутах езды от центра. Он расположен на одном естественном и нескольких искусственных островах. Северная часть — 4 км белоснежного песка — предназначена для купания, а южная — для пикников и игр. Есть раздельные зоны для детей и взрослых. Этот пляж регулярно получает награду ЮНЕСКО \"Голубой флаг\".\n\n"
            },
            {
              "type": "text",
              "options": "Адрес: Amager Strand Promenaden, 1.\n\n"
            }
          ]
        },
        {
          "type": "drop-down",
          "title": "Где поесть",
          "options": [
            {
              "type": "custom-photos",
              "options": {
                "ids": [
                  "39010905045",
                  "39909812071",
                  "26036712898",
                  "26036733938"
                ],
                "items": [
                  {
                    "id": "26036712898",
                    "owner": "151640904@N03",
                    "secret": "6189a99843",
                    "server": "4763",
                    "farm": 5,
                    "title": "P5061183",
                    "ispublic": 1,
                    "isfriend": 0,
                    "isfamily": 0
                  },
                  {
                    "id": "39010905045",
                    "owner": "151640904@N03",
                    "secret": "525c11d3ee",
                    "server": "4696",
                    "farm": 5,
                    "title": "copenhagenrestorvehallerne03",
                    "ispublic": 1,
                    "isfriend": 0,
                    "isfamily": 0
                  },
                  {
                    "id": "39909812071",
                    "owner": "151640904@N03",
                    "secret": "7762a3f5d9",
                    "server": "4622",
                    "farm": 5,
                    "title": "348s",
                    "ispublic": 1,
                    "isfriend": 0,
                    "isfamily": 0
                  },
                  {
                    "id": "26036733938",
                    "owner": "151640904@N03",
                    "secret": "9696ee6cb3",
                    "server": "4712",
                    "farm": 5,
                    "title": "copenhagen-food-1",
                    "ispublic": 1,
                    "isfriend": 0,
                    "isfamily": 0
                  }
                ],
                "urls": [
                  "https://farm5.staticflickr.com/4763/26036712898_6189a99843.jpg",
                  "https://farm5.staticflickr.com/4696/39010905045_525c11d3ee.jpg",
                  "https://farm5.staticflickr.com/4622/39909812071_7762a3f5d9.jpg",
                  "https://farm5.staticflickr.com/4712/26036733938_9696ee6cb3.jpg"
                ],
                "grid": [
                  1,
                  1,
                  1,
                  1
                ]
              }
            },
            {
              "type": "text",
              "options": "Для бюджетных путешественников, приехавших в Копенгаген, всегда очень остро встаёт вопрос, где же можно недорого поесть. Ресторанов и кафе тут великое множество, но средний счёт за обед или ужин составит не менее 40 евро за человека. Сильно помогут сэкономить супермаркеты, в которых всегда есть большой выбор готовой еды на любой вкус. Можно без проблем купить салат, сэндвич и воду за 100 DKK (14 евро) и спокойно съесть их в одном из копенгагенских парков. "
            },
            {
              "type": "title",
              "options": "Dalle Valle"
            },
            {
              "type": "text",
              "options": "Это демократичное кафе — отличное место для сытного обеда. Работает по системе \"шведский стол\", выбор огромный. Кроме того, есть возможность выбора блюд по меню."
            },
            {
              "type": "text",
              "options": "Адрес: Fiolstræde, 3-5."
            },
            {
              "type": "title",
              "options": "Banana Joe"
            },
            {
              "type": "text",
              "options": "В этом заведении вам подадут отличные бургеры по приемлемым ценам. А ещё здесь очень обаятельный и дружелюбный владелец,  он же шеф-повар. Попробуйте, например, фишбургер с лососем. Правда, кафе совсем небольшое, поэтому готовьтесь, что мест вам может не хватить."
            },
            {
              "type": "text",
              "options": "Адрес: Elmegade, 18."
            },
            {
              "type": "title",
              "options": "Morgenstedet"
            },
            {
              "type": "text",
              "options": "Вегетарианское кафе в Христиании, которое порадует вегетарианцев большим выбором, а мясоедов удивит тем, что даже такая еда может быть очень вкусной. Цены невысокие. Если вам повезло с погодой, можно расположиться в саду."
            },
            {
              "type": "text",
              "options": "Адрес: Fabriksomradet, 134."
            },
            {
              "type": "title",
              "options": "Atelier September"
            },
            {
              "type": "text",
              "options": "Модное заведение с огромными окнами и несколько завышенными ценами. Идеально подходит для неспешного завтрака — берите чашечку кофе, авокадо на тосте из ржаного хлеба и садитесь за стойку с видом на улицу."
            },
            {
              "type": "text",
              "options": "Адрес: Gothersgade, 30."
            },
            {
              "type": "title",
              "options": "Bastard Café"
            },
            {
              "type": "text",
              "options": "Атмосферное кафе, в котором можно не только перекусить, но и поиграть в настольные игры (их здесь действительно очень много). Цены невысокие."
            },
            {
              "type": "text",
              "options": "Адрес: Raadhusstraede, 13."
            },
            {
              "type": "title",
              "options": "Fleisch"
            },
            {
              "type": "text",
              "options": "Ресторан специализируется в основном на сморребродах - традиционных датских бутербродах с разнообразными начинками. Правда, кроме них здесь есть и другие блюда. Цены выше средних, но качество еды отменное."
            },
            {
              "type": "text",
              "options": "Адрес: Slagterboderne, 7."
            },
            {
              "type": "title",
              "options": "Torvehallerne"
            },
            {
              "type": "text",
              "options": "На этом стильном продуктовом рынке более 80 торговых точек со свежайшими морепродуктами, традиционной выпечкой и прочими местными продуктами. Здесь каждый точно найдёт что-нибудь на свой вкус. Правда, цены здесь далеко не низкие."
            },
            {
              "type": "text",
              "options": "Адрес: Frederiksborggade, 21 | Israel's Square."
            }
          ]
        },
        {
          "type": "drop-down",
          "title": "Куда сходить вечером",
          "options": [
            {
              "type": "custom-photos",
              "options": {
                "ids": [
                  "39907703941",
                  "39907704151",
                  "28127619609",
                  "28127620039"
                ],
                "items": [
                  {
                    "id": "39907703941",
                    "owner": "151640904@N03",
                    "secret": "5763a72a0d",
                    "server": "4762",
                    "farm": 5,
                    "title": "Opera_Copenhagen_maina-1",
                    "ispublic": 1,
                    "isfriend": 0,
                    "isfamily": 0
                  },
                  {
                    "id": "28127620039",
                    "owner": "151640904@N03",
                    "secret": "a3341a8244",
                    "server": "4752",
                    "farm": 5,
                    "title": "382_5687",
                    "ispublic": 1,
                    "isfriend": 0,
                    "isfamily": 0
                  },
                  {
                    "id": "39907704151",
                    "owner": "151640904@N03",
                    "secret": "7ce9a7d836",
                    "server": "4753",
                    "farm": 5,
                    "title": "183548_The_Barking_Dog_Photo_Cocktails_of_Copenhagen_13",
                    "ispublic": 1,
                    "isfriend": 0,
                    "isfamily": 0
                  },
                  {
                    "id": "28127619609",
                    "owner": "151640904@N03",
                    "secret": "9a6db656fa",
                    "server": "4672",
                    "farm": 5,
                    "title": "Asger Juel Larsen's Burned Not Fried Party at Chateau Motel on August 13, 2016",
                    "ispublic": 1,
                    "isfriend": 0,
                    "isfamily": 0
                  }
                ],
                "urls": [
                  "https://farm5.staticflickr.com/4762/39907703941_5763a72a0d.jpg",
                  "https://farm5.staticflickr.com/4752/28127620039_a3341a8244.jpg",
                  "https://farm5.staticflickr.com/4753/39907704151_7ce9a7d836.jpg",
                  "https://farm5.staticflickr.com/4672/28127619609_9a6db656fa.jpg"
                ],
                "grid": [
                  1,
                  1,
                  1,
                  1
                ]
              }
            },
            {
              "type": "title",
              "options": "Оперный театр Копенгагена"
            },
            {
              "type": "text",
              "options": "Поход в один из новейших оперных театров в мире — отличный вариант для культурного вечера. Актуальную афишу можно посмотреть на <a target='_blank' href=\"https://kglteater.dk/en/shows/?f-type=\">официальном сайте</a>. А у местных жителей уже давно стал привычным трюк — войти по билету на стоячее место, а затем найти свободное кресло после первого акта. Даже если не пойдёте на представление, обязательно приходите полюбоваться архитектурой - вечером здание красиво подсвечивается."
            },
            {
              "type": "text",
              "options": "Адрес: Ekvipagemestervej, 10."
            },
            {
              "type": "title",
              "options": "The Barking Dog"
            },
            {
              "type": "text",
              "options": "Очень уютный бар с вкусными коктейлями, быстрым обслуживанием и не слишком высокими ценами."
            },
            {
              "type": "text",
              "options": "Адрес: Sankt Hans Gade, 19."
            },
            {
              "type": "title",
              "options": "Bakken Kbh"
            },
            {
              "type": "text",
              "options": "Клуб расположен на первом этаже так называемого \"Meatpacking District\" - район бывших складов, где хранилось замороженное мясо. Внутренний дворик и разноцветные огоньки создают очень приятную атмосферу. Самые масштабные вечеринки здесь проходят по четвергам."
            },
            {
              "type": "text",
              "options": "Адрес: Flæsketorvet, 19-21."
            },
            {
              "type": "title",
              "options": "Chateau Motel"
            },
            {
              "type": "text",
              "options": "Один из крупнейших ночных клубов Копенгагена, который состоит из четырёх этажей, причём каждый из них имеет свой музыкальный профиль. Независимо от того, предпочитаете вы танцевать всю ночь напролёт или спокойно потягивать коктейль — вы точно не пожалеете, заглянув сюда. "
            },
            {
              "type": "text",
              "options": "Адрес: Knabrostræde, 3."
            },
            {
              "type": "title",
              "options": "Kassen "
            },
            {
              "type": "text",
              "options": "В этом баре вас ждут вкусные коктейли, отличные цены и быстрые бармены. Каждую пятницу с 14.00 до 22.00 действует happy hour – два коктейля по цене одного. Конечно, многие копенгагенцы об этом знают, поэтому в это время здесь достаточно многолюдно."
            },
            {
              "type": "text",
              "options": "Адрес: Nørrebrogade, 18."
            },
            {
              "type": "title",
              "options": "Mikkeller"
            },
            {
              "type": "text",
              "options": "Небольшой бар с огромным выбором крафтового пива, которое варят прямо на месте. Большой бокал пива обойдется в 55-65 крон."
            },
            {
              "type": "text",
              "options": "Адрес: Viktoriagade N. 8 B-C."
            }
          ]
        },
        {
          "type": "drop-down",
          "title": "Окрестности Копенгагена",
          "options": [
            {
              "type": "title",
              "options": "Парк с оленями Dyrehaven"
            },
            {
              "type": "custom-photos",
              "options": {
                "ids": [
                  "39854593781",
                  "28075149609",
                  "28075149359",
                  "38955450755"
                ],
                "items": [
                  {
                    "id": "28075149609",
                    "owner": "151640904@N03",
                    "secret": "1f77bd2702",
                    "server": "4721",
                    "farm": 5,
                    "title": "159242_Dyrehaven_2_Naturstyrelsen_beskret",
                    "ispublic": 1,
                    "isfriend": 0,
                    "isfamily": 0
                  },
                  {
                    "id": "28075149359",
                    "owner": "151640904@N03",
                    "secret": "0992ccfbb9",
                    "server": "4716",
                    "farm": 5,
                    "title": "Jægersborg_Dyrehave_-_Hermitage_Pavilion_and_deer",
                    "ispublic": 1,
                    "isfriend": 0,
                    "isfamily": 0
                  },
                  {
                    "id": "39854593781",
                    "owner": "151640904@N03",
                    "secret": "c300ce5672",
                    "server": "4713",
                    "farm": 5,
                    "title": "382_12425",
                    "ispublic": 1,
                    "isfriend": 0,
                    "isfamily": 0
                  },
                  {
                    "id": "38955450755",
                    "owner": "151640904@N03",
                    "secret": "29f36cba5b",
                    "server": "4742",
                    "farm": 5,
                    "title": "dyrehaven",
                    "ispublic": 1,
                    "isfriend": 0,
                    "isfamily": 0
                  }
                ],
                "urls": [
                  "https://farm5.staticflickr.com/4721/28075149609_1f77bd2702.jpg",
                  "https://farm5.staticflickr.com/4716/28075149359_0992ccfbb9.jpg",
                  "https://farm5.staticflickr.com/4713/39854593781_c300ce5672.jpg",
                  "https://farm5.staticflickr.com/4742/38955450755_29f36cba5b.jpg"
                ],
                "grid": [
                  1,
                  1,
                  1,
                  1
                ]
              }
            },
            {
              "type": "text",
              "options": "Парк занимает почти 1000 га и отлично подходит для продолжительных неспешных прогулок пешком, на велосипеде или верхом на лошади. Здесь можно запросто встретить оленей (отсюда и название). В центре Dyrehaven работает самый старый в мире парк аттракционов Бакен (Bakken), открытый в 1583 г. Место очень атмосферное, потому что владельцы парка постарались сохранить дух Дании XVI века, оформив аттракционы под старину. В настоящее время их более 100, причём популярны они как среди детей, так и среди взрослых. "
            },
            {
              "type": "text",
              "options": "Парк с оленями открыт круглосуточно, вход на территорию свободный. Часы работы парка развлечений изменяются в зависимости от сезона. Актуальную информацию уточняйте на <a target='_blank' href=\"https://www.bakken.dk/planlaeg-dit-besog/abningstider/\">этой странице</a>."
            },
            {
              "type": "text",
              "options": "Добраться из Копенгагена можно за 25 минут c центрального вокзала (Reventlovsgade Ved Tivolis Hovedindgang, 22). Вам нужен поезд до станции Klampenborg. Поездка также может быть бесплатной по Copenhagen Card."
            },
            {
              "type": "text",
              "options": "Адрес: Dyrehaven, Klampenborg."
            },
            {
              "type": "title",
              "options": "Замок Кронборг"
            },
            {
              "type": "custom-photos",
              "options": {
                "ids": [
                  "28076776069",
                  "39146052304",
                  "38957230555",
                  "39145977624"
                ],
                "items": [
                  {
                    "id": "39145977624",
                    "owner": "151640904@N03",
                    "secret": "88607135ec",
                    "server": "4702",
                    "farm": 5,
                    "title": "article2838",
                    "ispublic": 1,
                    "isfriend": 0,
                    "isfamily": 0
                  },
                  {
                    "id": "28076776069",
                    "owner": "151640904@N03",
                    "secret": "cff27cd9fd",
                    "server": "4753",
                    "farm": 5,
                    "title": "Dansesalen_Kronborg_foto_Thorkild_Jensen",
                    "ispublic": 1,
                    "isfriend": 0,
                    "isfamily": 0
                  },
                  {
                    "id": "38957230555",
                    "owner": "151640904@N03",
                    "secret": "14ab90ac87",
                    "server": "4703",
                    "farm": 5,
                    "title": "1354708357_0_9c969_ed6c88c9_xl",
                    "ispublic": 1,
                    "isfriend": 0,
                    "isfamily": 0
                  },
                  {
                    "id": "39146052304",
                    "owner": "151640904@N03",
                    "secret": "c09f0bb22e",
                    "server": "4711",
                    "farm": 5,
                    "title": "kronborg-castle-0",
                    "ispublic": 1,
                    "isfriend": 0,
                    "isfamily": 0
                  }
                ],
                "urls": [
                  "https://farm5.staticflickr.com/4702/39145977624_88607135ec.jpg",
                  "https://farm5.staticflickr.com/4753/28076776069_cff27cd9fd.jpg",
                  "https://farm5.staticflickr.com/4703/38957230555_14ab90ac87.jpg",
                  "https://farm5.staticflickr.com/4711/39146052304_c09f0bb22e.jpg"
                ],
                "grid": [
                  1,
                  1,
                  1,
                  1
                ]
              }
            },
            {
              "type": "text",
              "options": "Замок Кронборг также широко известен под именем «Эльсинор» как место действия пьесы «Гамлет» Уильяма Шекспира. Включён в список объектов всемирного наследия ЮНЕСКО как один из наиболее значимых замков эпохи Возрождения в Северной Европе. Ежегодно его посещают около 200 тысяч человек. Для туристов открыты укрепления замка, многочисленные комнаты и залы, королевские покои, подземные казематы, часовня. В настоящее время здесь расположен Морской музей."
            },
            {
              "type": "text",
              "options": "Часы работы изменяются в зависимости от сезона, актуальную информацию уточняйте на <a target='_blank' href=\"http://kongeligeslotte.dk/en/palaces-and-gardens/kronborg-castle/visit-kronborg-castle/opening-hours-at-kronborg-castle.html\">этой странице</a>. В период с июня по август входной билет для взрослых стоит 140 крон, в остальное время года — 90 крон."
            },
            {
              "type": "text",
              "options": "Для того чтобы добраться до замка, вам нужно будет сесть на электричку на железнодорожном вокзале. Уже через 45 минут вы будете на месте. Пересадок нет, поезда курсируют каждые 20 минут, с 4:50 до 0:40. От вокзала Эльсинора до Кронборга нужно пройти пешком приблизительно минут 15. Однако прогулка может затянуться, потому что местность очень живописная."
            }
          ]
        }
      ]
    },
    {
      "title": "Погода в Копенгагене",
      "description": [
        {
          "type": "weather",
          "options": {
            "lat": 55.6760968,
            "lng": 12.568337199999974,
            "text": "Копенгаген, Дания"
          }
        }
      ]
    }
  ],
  "advices": [
    "Чтобы познакомиться с городом, можно отправиться на бесплатную пешую экскурсию. Опытные гиды показывают туристам основные достопримечательности Копенгагена, сопровождая это интересными фактами и деталями. Хотя экскурсии и бесплатны, чаевые гидам только приветствуются. Проводятся туры на английском, продолжительность составляет 2 – 2,5 часа. Расписание можно посмотреть на <a target='_blank' href=\"http://www.neweuropetours.eu/copenhagen/en/home\">этой странице</a>.",
    "Лучшее место для покупок в Копенгагене — пешеходная зона Строгет в центре города. На ней расположены магазины на любой вкус и кошелёк: от Prada и Louis Vuitton до Benetton и H&M. В сердце города находятся и старейшие торговые центры: Illum и Magasin du Nord. Первый более дорогой, в нём представлены солидные бренды; второй ориентирован на молодёжную аудиторию и предлагает коллекции от начинающих дизайнеров.",
    "Вам не нужно покупать дорогой билет на туристическую речную прогулку, чтобы посмотреть на город с воды – воспользуйтесь речным автобусом, как это делают датчане. В Копенгагене три водных маршрута – 991, 992 и 993. За 24 кроны (по цене обычного билета на общественный транспорт, или бесплатно с Copenhagen Card) он доставит вас от «Русалочки» к «Черному Алмазу», а на своём пути вы успеете увидеть Оперу и Нюхавн (линии 991 и 992). <a target='_blank' href=\"http://public.mishka.travel/images/mini/7457.jpg\">По ссылке</a> есть карта этих водных маршрутов. Мы рекомендуем начинать поездку со станции Nordre Toldbod (Københavns Havn).",
    "Дания – родина Lego, поэтому обязательно загляните во флагманский магазин бренда на Vimmelskaftet, 37 и ощутите детский восторг, рассматривая двухметровые постройки из Lego. К слову, приглянувшиеся наборы можно попросить протестировать на месте.",
    "Датская кухня, как и в большинстве скандинавских стран, достаточно простая и очень калорийная. В Копенгагене стоит отведать традиционные открытые сэндвичи smørrebrød (очень много разновидностей), стегт флэск (готовится из жареного бекона и подается с картофелем), фрикадельки, местное пиво, всевозможные рыбные блюда (жареная солёная сельдь, рулетики из угря, камбала по-скагенски и др.), ягодный суп со сливками, разнообразные варенья из северных ягод и знаменитые датские булочки.",
    "Местная валюта — датская крона (приблизительно 9,3 ₽).",
    "Для велосипедистов в Дании действуют следующие правила: нельзя ездить «без рук», вдвоём на одном велосипеде, разговаривать по мобильному телефону, пересекать пешеходные дороги. Нарушителям грозит штраф от 700 до 1000 DKK."
  ],
  "afterAdvices": {
    "title": "",
    "text": [
      ""
    ]
  }
}
