﻿{
  "title": "Неизведанные Нидерланды",
  "search": true,
  "hideContacts": true,
  "top": {
    "text": "Неизведанные Нидерланды",
    "under": "16-19 февраля 2019 г."
  },
  "about": {
    "description": "В цену включен международный перелет, проживание в отелях, аренда автомобиля на 3 дня. Цены на авиаперелеты указаны за 1 взрослого. Цены на проживание указаны за номер (2 взрослых) на весь период проживания. Цены за аренду авто указаны за автомобиль (4 места) на все время аренды. Цена представлена для ознакомления. OneTwoTrip не несет ответственности за изменение цен.",
    "price": {
      "cost": "",
      "description": "за одного взрослого при путешествии вчетвером."
    },
    "map": {
      "direction": {
        "origin": "Кельн",
        "destination": "Кельн",
        "waypoints": [
          {
            "location": "Роттердам"
          },
          {
            "location": "Гаага"
          },
          {
            "location": "Арнем"
          }
        ]
      }
    },
    "cities": [
      "Москва",
      "Кельн",
      "Роттердам",
      "Гаага",
      "Арнем",
      "Кельн",
      "Москва"
    ]
  },
  "route": [
    {
      "title": "16 февраля, Москва – Кельн",
      "description": [
        {
          "type": "text",
          "options": "Перелет рейсом авиакомпании «Победа». Обратите внимание, что в стоимость входит 10 кг багажа, за ручную кладь или перевес придется платить дополнительно. Но нужно ли вам так много вещей на 3 дня?"
        },
        {
          "type": "text",
          "options": "Сразу по прилету берите в аренду автомобиль на 3 дня. Стойки прокатных контор находятся в Терминале 2 аэропорта Кельн/Бонн на 3 этаже.  Сдать автомобиль нужно будет там же, на парковке Терминала 2 через 3 дня."
        },
        {
          "type": "cards",
          "api": {
            "cars": [
              {
                "cost": {
                  "coefficient": ".25"
                },
                "render": {
                  "cards": [
                    "route-0-2-1"
                  ],
                  "url": {
                    "ageRangeIdx": "0",
                    "age": "23"
                  }
                },
                "options": {
                  "pLocation": "city",
                  "dLocation": "city",
                  "pCode": "CGN",
                  "dCode": "CGN",
                  "pDate": "20190216",
                  "dDate": "20190219",
                  "pTime": "1200",
                  "dTime": "1200",
                  "age": 23,
                  "transmission": "M"
                },
                "filter": {
                  "doors": 4,
                  "not": [
                    {
                      "brand": "Peugeot",
                      "model": "107"
                    }
                  ]
                }
              }
            ],
            "flights": [
              {
                "render": {
                  "url": {
                    "p": "4,0,0"
                  },
                  "cards": [
                    "route-0-2-0"
                  ]
                },
                "options": {
                  "route": "1602MOWCGN1902",
                  "cs": "E",
                  "ad": 1,
                  "cn": 0,
                  "in": 0
                },
                "filter": {
                }
              }
            ]
          },
          "cost": {
            "groups": [
              [
                "route-0-2-0"
              ],
              [
                "route-0-2-1"
              ]
            ]
          },
          "options": [
            {
              "cost": {
                "price": "7895",
                "coefficient": 1,
                "currency": "RUB"
              },
              "id": "route-0-2-0",
              "type": "flight",
              "from": {
                "title": "Внуково",
                "time": "11:45"
              },
              "to": {
                "title": "Кельн",
                "time": "13:55"
              },
              "across": {
                "title": "Прямой",
                "time": ""
              },
              "price": {
                "title": "+рейс обратно",
                "btn": {
                  "href": "https://www.onetwotrip.com/ru/aviabilety/moskva-kel'n_MOW-CGN/?p=1,0,0&s=true#0704MOWCGN1004",
                  "title": "7 895 %rub%"
                }
              },
              "back": {
                "title": "16 февраля",
                "items": [
                  {
                    "title": "Кельн",
                    "time": "14:25"
                  },
                  {
                    "title": "Внуково",
                    "time": "18:30"
                  }
                ],
                "across": {
                  "title": "Прямой",
                  "time": ""
                },
                "close_text": "+рейс туда"
              }
            },
            {
              "type": "car",
              "id": "route-0-2-1",
              "cost": {
                "price": "2893",
                "coefficient": 0.25,
                "currency": "RUB"
              },
              "image": {
                "title": "Аренда авто на 3 дня",
                "src": "https://multimedia.amadeus.com/mdc/retrieveCarItem?ctg=VEHICLE&prov=ET&cnt=DE&vehcat=EC&item=0&stamp=VEHICLE_0_0_1277114406825&file=8.JPEG"
              },
              "price": {
                "title": [
                  "",
                  ""
                ],
                "btn": {
                  "href": "https://www.onetwotrip.com/ru/cars/?pCode=CGN&dCode=CGN&pLocation=city&dLocation=city&pDate=20170407&dDate=20170410&ageRangeIdx=0&startSearch=true&srcmarker2=travel_expert_page&scp=14,12trip_travel-expert_ru,travel_expert_page",
                  "title": "от 2 893 %rub%"
                }
              }
            }
          ]
        },
        {
          "type": "map",
          "options": {
            "direction": {
              "origin": "Koln/Bonn Airport",
              "destination": "Rotterdam",
              "waypoints": []
            }
          }
        },
        {
          "type": "text",
          "options": "Дорога до Роттердама займет около 3 часов. В пятницу возможны пробки на территории Германии, но вряд ли они задержат вас более чем на час."
        }
      ]
    },
    {
      "title": "16-17 февраля, Роттердам",
      "description": [
        {
          "type": "text",
          "options": "Роттердам – один из самых необычных городов Голландии. Тут почти нет старых зданий (город был полностью разрушен во время войны), зато современная архитектура поражает воображение.  Мы подобрали для вас наиболее выгодные предложения от отелей и отметили их на карте."
        },
        {
          "type": "cards",
          "api": {
            "hotels": [
              {
                "render": {
                  "cards": [
                    "route-1-1-0",
                    "route-1-1-1",
                    "route-1-1-2",
                    "route-1-1-3"
                  ],
                  "maps": [
                    "route-1-2"
                  ]
                },
                "options": {
                  "object_id": 2747891,
                  "date_start": "2019-02-16",
                  "adults": 2,
                  "date_end": "2019-02-17"
                },
                "filter": {
                  "districts": [
                    6055810
                  ],
                  "facilities": [
                    "parking"
                  ]
                }
              }
            ]
          },
          "cost": {
            "groups": [
              [
                "route-1-1-0",
                "route-1-1-1",
                "route-1-1-2",
                "route-1-1-3"
              ]
            ]
          },
          "options": [
            {
              "id": "route-1-1-0",
              "type": "hotel",
              "image": {
                "title": "Hostel ROOM Rotterdam",
                "description": "Van Vollenhovenstraat 62",
                "src": "https://e86451daaa32c758810f-3b644443a64c96357705f8f2be9c2e51.ssl.cf3.rackcdn.com/290117/2342311_b.jpg"
              },
              "cost": {
                "price": "1386",
                "coefficient": 0.5,
                "currency": "RUB"
              },
              "price": {
                "title": [
                  "",
                  ""
                ],
                "btn": {
                  "href": "https://www.onetwotrip.com/ru/hotels/hotel/hostel-room-rotterdam-2342311/?date_start=2017-04-07&date_end=2017-04-08&utm_source=travel_expert_page&utm_medium=travel-expert&utm_campaign=travel_expert_page&srcmarker2=travel_expert_page&scp=14%2C12trip_travel-expert_ru%2Ctravel_expert_page&s=true&adults=1&sc=2747891&id=2747891&to=%D0%A0%D0%BE%D1%82%D1%82%D0%B5%D1%80%D0%B4%D0%B0%D0%BC&countryName=netherlands&cityName=rotterdam",
                  "title": "1 386 %rub%"
                }
              }
            },
            {
              "type": "hotel",
              "id": "route-1-1-1",
              "cost": {
                "price": "1702",
                "coefficient": 0.5,
                "currency": "RUB"
              },
              "image": {
                "title": "Stayokay Rotterdam",
                "description": "Overblaak 85- 87",
                "src": "https://e86451daaa32c758810f-3b644443a64c96357705f8f2be9c2e51.ssl.cf3.rackcdn.com/290117/1197043_b.jpg"
              },
              "price": {
                "title": [
                  "",
                  ""
                ],
                "btn": {
                  "href": "https://www.onetwotrip.com/ru/hotels/hotel/stayokay-rotterdam-1197043/?date_start=2017-04-07&date_end=2017-04-08&utm_source=travel_expert_page&utm_medium=travel-expert&utm_campaign=travel_expert_page&srcmarker2=travel_expert_page&scp=14%2C12trip_travel-expert_ru%2Ctravel_expert_page&s=true&adults=1&sc=2747891&id=2747891&to=%D0%A0%D0%BE%D1%82%D1%82%D0%B5%D1%80%D0%B4%D0%B0%D0%BC&countryName=netherlands&cityName=rotterdam",
                  "title": "1 702 %rub%"
                }
              }
            },
            {
              "type": "hotel",
              "id": "route-1-1-2",
              "cost": {
                "price": "3039",
                "coefficient": 0.5,
                "currency": "RUB"
              },
              "image": {
                "title": "ART Hotel Rotterdam",
                "description": "Mijnsherenlaan 9",
                "src": "https://e86451daaa32c758810f-3b644443a64c96357705f8f2be9c2e51.ssl.cf3.rackcdn.com/290117/283319_b.jpg"
              },
              "price": {
                "title": [
                  "",
                  ""
                ],
                "btn": {
                  "href": "https://www.onetwotrip.com/ru/hotels/hotel/art-hotel-rotterdam-283319/?date_start=2017-04-07&date_end=2017-04-08&utm_source=travel_expert_page&utm_medium=travel-expert&utm_campaign=travel_expert_page&srcmarker2=travel_expert_page&scp=14%2C12trip_travel-expert_ru%2Ctravel_expert_page&s=true&adults=1&sc=2747891&id=2747891&to=%D0%A0%D0%BE%D1%82%D1%82%D0%B5%D1%80%D0%B4%D0%B0%D0%BC&countryName=netherlands&cityName=rotterdam",
                  "title": "3 039 %rub%"
                }
              }
            },
            {
              "type": "hotel",
              "id": "route-1-1-3",
              "cost": {
                "price": "3039",
                "coefficient": 0.5,
                "currency": "RUB"
              },
              "image": {
                "title": "ART Hotel Rotterdam",
                "description": "Mijnsherenlaan 9",
                "src": "https://e86451daaa32c758810f-3b644443a64c96357705f8f2be9c2e51.ssl.cf3.rackcdn.com/290117/283319_b.jpg"
              },
              "price": {
                "title": [
                  "",
                  ""
                ],
                "btn": {
                  "href": "https://www.onetwotrip.com/ru/hotels/hotel/art-hotel-rotterdam-283319/?date_start=2017-04-07&date_end=2017-04-08&utm_source=travel_expert_page&utm_medium=travel-expert&utm_campaign=travel_expert_page&srcmarker2=travel_expert_page&scp=14%2C12trip_travel-expert_ru%2Ctravel_expert_page&s=true&adults=1&sc=2747891&id=2747891&to=%D0%A0%D0%BE%D1%82%D1%82%D0%B5%D1%80%D0%B4%D0%B0%D0%BC&countryName=netherlands&cityName=rotterdam",
                  "title": "3 039 %rub%"
                }
              }
            }
          ]
        },
        {
          "type": "map",
          "options": {
            "options": {
              "id": "route-1-2"
            },
            "poi": {
              "sight": [
                [
                  51.920105,
                  4.486548,
                  "food",
                  "Рынок Роттердама (Markthal)"
                ],
                [
                  51.925625,
                  4.476553,
                  "food",
                  "Кафе на крыше Op Het Dak"
                ],
                [
                  51.922503,
                  4.488139,
                  "food",
                  "Кафе StrEAT Food"
                ],
                [
                  51.922325,
                  4.499467,
                  "food",
                  "Брассерия Kaat Mossel"
                ],
                [
                  51.915674,
                  4.477354,
                  "vine",
                  "Улица Witte de Withstraat"
                ],
                [
                  51.906859,
                  4.488551,
                  "vine",
                  "Бар в отеле nhow"
                ],
                [
                  51.923349,
                  4.469152,
                  "vine",
                  "Suicide Club"
                ],
                [
                  51.908743,
                  4.448900,
                  "vine",
                  "Пивная De Pelgrim"
                ],
                [
                  51.920138,
                  4.490499,
                  "monument",
                  "Кубические дома"
                ],
                [
                  51.922632,
                  4.479354,
                  "monument",
                  "Ратуша"
                ],
                [
                  51.906708,
                  4.454608,
                  "sign",
                  "Делфтсхавен"
                ],
                [
                  51.918868,
                  4.491800,
                  "place",
                  "Хет Витте Хейс"
                ],
                [
                  51.913520,
                  4.482603,
                  "boat",
                  "Водное такси"
                ],
                [
                  51.916431,
                  4.491100,
                  "boat",
                  "Водное такси"
                ],
                [
                  51.915663,
                  4.496421,
                  "boat",
                  "Водное такси"
                ],
                [
                  51.911109,
                  4.496207,
                  "boat",
                  "Водное такси"
                ],
                [
                  51.907455,
                  4.478676,
                  "boat",
                  "Водное такси"
                ],
                [
                  51.905431,
                  4.466584,
                  "place",
                  "Башня Euromast (Евромачта)"
                ]
              ]
            }
          }
        },
        {
          "type": "drop-down",
          "title": "Как передвигаться по городу?",
          "options": [
            {
              "type": "text",
              "options": "Автомобиль советуем сразу оставлять на парковке отеля. Он станет для вас лишь обузой при изучении города из-за высоких цен и строгих правил парковки. \n"
            },
            {
              "type": "title",
              "options": "Метро и автобусы"
            },
            {
              "type": "text",
              "options": "В Роттердаме развитая система общественного транспорта, однако она мало поможет вам в изучении города. Метро тут самое обычное, и если вы не планируете постоянно на нем ездить и покупать дневной билет за 10 евро, одна поездка обойдется вам почти в 4 евро, что не очень дешево даже для Нидерландов. "
            },
            {
              "type": "title",
              "options": "Велосипед"
            },
            {
              "type": "text",
              "options": "Нидерланды — страна велосипедов. Тут есть все условия для передвижения на двух колесах. Дешевле всего арендовать велосипед можно на центральном вокзале Rotterdam Centraal (9 евро в день, депозит 50-150 евро)."
            },
            {
              "type": "title",
              "options": "Водное такси"
            },
            {
              "type": "text",
              "options": "В Роттердаме есть также водное такси. Мы отметили на карте точки, откуда они отправляются. Самый удачный маршрут — проплыть с берега на берег под мостом Эразма (например, к отелю nhow). Стоимость поездки 20-50 евро (зависит от маршрута)."
            },
            {
              "type": "title",
              "options": "Такси"
            },
            {
              "type": "text",
              "options": "Примерно в 2 раза дешевле, чем обычное такси, обойдется поездка на автомобиле, заказанном через сервис Uber."
            },
            {
              "type": "title",
              "options": "Автобус-амфибия"
            },
            {
              "type": "photo",
              "title": "",
              "options": {
                "text": "splashtours rotterdam"
              }
            },
            {
              "type": "text",
              "options": "Еще можно заказать <a href='https://www.splashtours.nl/en/' target='_blank'>экскурсию на автобусе-амфибии</a> за 26,5 евро. Такое развлечение мало, где еще можно попробовать\n"
            }
          ]
        },
        {
          "type": "drop-down",
          "title": "Что посмотреть?",
          "options": [
            {
              "type": "text",
              "options": "Обязательно прогуляйтесь по центру города возле Ратуши, посетите старый квартал Делфтсхавен, единственный сохранившийся после бомбардировки во время войны, посмотрите на кубические дома и рынок. Еще достаточно примечательно здание Хет Витте Хейс, долгое время остававшееся самым высоким зданием Европы."
            },
            {
              "type": "title",
              "options": "Башня Euromast (Евромачта) "
            },
            {
              "type": "photo",
              "title": "",
              "options": {
                "tags": [
                  "Euromast Rotterdam"
                ]
              }
            },
            {
              "type": "text",
              "options": "Это самое популярное место среди туристов в Роттердаме. Наверх можно подняться сначала на лифте, а потом проделать отрезок до самой верхушки на специальной платформе, которая вращается вокруг своей оси. Это мероприятие имеет смысл только в хорошую безоблачную погоду, когда вы сможете увидеть с высоты даже Амстердам, находящийся в часе езды. Наверху также есть ресторан, но цены там неоправданно высоки. Посещение Евромачты займет около 40 минут.\n"
            },
            {
              "type": "text",
              "options": "Цена билета: 9.75 евро"
            },
            {
              "type": "text",
              "options": "Часы работы: с 10:00 до 22:00"
            },
            {
              "type": "text",
              "options": "Адрес: Parkhaven 20"
            }
          ]
        },
        {
          "type": "drop-down",
          "title": "Где поесть?",
          "options": [
            {
              "type": "text",
              "options": "В Роттердаме есть множество кафе и ресторанов на любой вкус и кошелек. Голландцы очень любят рыбу, так что не отказывайте себе в удовольствии попробовать местные морепродукты. Мы составили для вас список интересных и недорогих мест в Роттердаме, где питаются местные жители. Эти места вы вряд ли найдете в популярных путеводителях, но именно они, на наш взгляд, лучше всего передают атмосферу города."
            },
            {
              "type": "title",
              "options": "Рынок Роттердама (Markthal)"
            },
            {
              "type": "text",
              "options": "Роттердамский центральный рынок расположился в современном футуристичном здании в центре города. На выобр множество кафе и очень богатый выбор продуктов. Мы советуем вам найти кафе «Andalus Fish» (на 2ом этаже) c хорошим выбором свежей рыбы, которую тут же приготовят при вас и подадут с салатом или супом. Цены довольно низкие для Нидерландов — около 15 евро за килограмм (!) рыбы: этого хватит как минимум на двоих.\n"
            },
            {
              "type": "text",
              "options": "Часы работы: с 10:00 до 20:00\n"
            },
            {
              "type": "text",
              "options": "Адрес: Grotemarkt 4\n"
            },
            {
              "type": "title",
              "options": "Кафе на крыше Op Het Dak "
            },
            {
              "type": "text",
              "options": "Очень обаятельное кафе на крыше, недалеко от вокзала Роттердама. Прям на веранде владельцы кафе разбили огород, где выращивают свежие овощи для своей кухни. В меню богатый выбор органической и вегетарианской пищи, но есть и блюда из мяса или рыбы. Даже если вы не планируете тут обедать, сюда стоит заглянуть ради прекрасного домашнего пива, нестандартных смузи и отличного вида на современные небоскребы с крыши с огородом. Средний счет на человека 10 евро. Ищите вход с надписью Op Het Dak и поднимайтесь на лифте на 6 этаж.\n\n"
            },
            {
              "type": "text",
              "options": "Часы работы: с 9:00 до 17:00\n"
            },
            {
              "type": "text",
              "options": "Адрес: Schiekade 189"
            },
            {
              "type": "title",
              "options": "Кафе StrEAT Food  "
            },
            {
              "type": "text",
              "options": "Кафе-буфет с большим выбором органической еды. Отличный вариант для полноценного и недорого обеда, поблизости от основных достопримечательностей Роттердама. Тут можно взять обед из 2-3 блюд за 10-15 евро. \n\n"
            },
            {
              "type": "text",
              "options": "Часы работы: с 8:00 до 17:30 в пятницу, до 15:00 в субботу."
            },
            {
              "type": "text",
              "options": "Адрес: Botersloot 50A "
            },
            {
              "type": "title",
              "options": "Брассерия Kaat Mossel  "
            },
            {
              "type": "text",
              "options": "Отличный рыбный ресторанчик с доступными ценами и уютной атмосферой. Обязателен к посещению для любителей мидий и устриц. Цена ужина с алкоголем 20-30 евро на человека."
            },
            {
              "type": "text",
              "options": "Часы работы: с 12:00 до 02:00"
            },
            {
              "type": "text",
              "options": "Адрес: Admiraliteitskade 85 "
            }
          ]
        },
        {
          "type": "drop-down",
          "title": "Что делать вечером в пятницу?",
          "options": [
            {
              "type": "text",
              "options": "Роттердам — эпицентр ночной жизни Нидерландов. Этот город — родина множества ди-джеев и музыкантов, и каждые выходные тут проходит множество мероприятий. Если вы любите электронную музыку, обязательно сходите на какую-нибудь вечернику в городе. Интересные события можно отслеживать на <a href='https://www.residentadvisor.net/events.aspx?ai=174&v=month&mn=5&yr=2017&dy=12' target='_blank'>этом сайте</a>. Местом для вечеринки, помимо клубов, могут стать старые складские помещения, здание старого порта, индустриальные ангары на окраине города и многие другие интересные площадки.\n"
            },
            {
              "type": "text",
              "options": "Кроме того, в Роттердаме можно найти много интересных баров. Мы составили небольшой список мест, которые сложно найти самостоятельно"
            },
            {
              "type": "title",
              "options": "Улица Witte de Withstraat"
            },
            {
              "type": "text",
              "options": "Это улица в центре города со множеством баров. Голландцы редко засиживаются в одном месте весь вечер: тут принято пить по напитку в одном баре, а потом идти в другой. В пятницу вечером Witte de Withstraat буквально «закипает». Если вы любите размеренный и спокойный отдых, лучше сюда не соваться."
            },
            {
              "type": "title",
              "options": "Бар в отеле nhow"
            },
            {
              "type": "photo",
              "title": "",
              "options": {
                "text": "Bar nhow rotterdam"
              }
            },
            {
              "type": "text",
              "options": "Этот бар расположился в одном из самых примечательных небоскребов Роттердама. Просто приезжайте по указанному адресу и поднимайтесь на лифте на 7 этаж. С балкона открывается отличный вид на центр Роттердама и мост Эразма. Цены немного выше среднего, коктейли от 8 евро.\n"
            },
            {
              "type": "text",
              "options": "Часы работы: с 20:00 до 04:00"
            },
            {
              "type": "text",
              "options": "Адрес: Wilhelminakade 137"
            },
            {
              "type": "title",
              "options": "Suicide Club"
            },
            {
              "type": "text",
              "options": "Нестандартный бар со странным названием. Как и многие интересные места, он спрятан на последнем этаже здания в центре города, прям рядом с центральным вокзалом. Чтобы найти вход, нужно основательно изучить внутренний двор, пройти через охрану, подняться на лифте на последний этаж, где вы сразу попадете на кухню ресторана, и только потом вы окажетесь в баре."
            },
            {
              "type": "text",
              "options": "Часы работы: с 16:00 до 02:00"
            },
            {
              "type": "text",
              "options": "Адрес: Stationsplein 45 "
            },
            {
              "type": "title",
              "options": "Пивная De Pelgrim"
            },
            {
              "type": "text",
              "options": "Это самый старый бар в Роттердаме. И его стоит посетить хотя бы по-этому. Кроме того, он находится по-соседству с единственной городской пивоварней Роттердама, что гарантирует свежесть пива, которое тут наливают."
            },
            {
              "type": "text",
              "options": "Часы работы: с 12:00 до 0:00"
            },
            {
              "type": "text",
              "options": "Адрес: Aelbrechtskolk 12 "
            }
          ]
        }
      ]
    },
    {
      "title": "17-18 февраля, Гаага",
      "description": [
        {
          "type": "text",
          "options": "Следующий город на вашем маршруте – Гаага. По пути можете заехать в город Делфт, чтобы прогуляться вдоль каналов старого города. Машину можно оставить на подземной парковке почти в самом центре города за 2.9 евро в час. Мы отметили парковку точкой на карте (точный адрес Phoenixstraat 29, Delft). Делфт очень красив и уютен, но делать дольше пары часов тут без конкретного плана нечего."
        },
        {
          "type": "map",
          "options": {
            "direction": {
              "origin": "Rotterdam",
              "destination": "Den Haag",
              "waypoints": [
                {
                  "location": "Phoenixstraat 29, Delft"
                }
              ]
            }
          }
        },
        {
          "type": "text",
          "options": "Дорога от Роттердама до Гааги займет около 30 минут."
        },
        {
          "type": "cards",
          "api": {
            "hotels": [
              {
                "render": {
                  "cards": [
                    "route-2-3-0",
                    "route-2-3-1",
                    "route-2-3-2",
                    "route-2-3-3"
                  ],
                  "maps": [
                    "route-2-4"
                  ]
                },
                "options": {
                  "object_id": 2747373,
                  "adults": 2,
                  "date_start": "2019-02-17",
                  "date_end": "2019-02-18"
                },
                "filter": {
                  "themes": [
                    14
                  ],
                  "facilities": [
                    "parking"
                  ]
                }
              }
            ]
          },
          "cost": {
            "groups": [
              [
                "route-2-3-0",
                "route-2-3-1",
                "route-2-3-2",
                "route-2-3-3"
              ]
            ]
          },
          "options": [
            {
              "id": "route-2-3-0",
              "type": "hotel",
              "image": {
                "title": "Kingkool The Hague City Hostel",
                "description": "Prinsegracht 51",
                "src": "https://e86451daaa32c758810f-3b644443a64c96357705f8f2be9c2e51.ssl.cf3.rackcdn.com/290117/2496490_b.jpg"
              },
              "cost": {
                "price": "1519",
                "coefficient": 0.5,
                "currency": "RUB"
              },
              "price": {
                "title": [
                  "",
                  ""
                ],
                "btn": {
                  "href": "https://www.onetwotrip.com/ru/hotels/hotel/kingkool-the-hague-city-hostel-2496490/?date_start=2017-04-08&date_end=2017-04-09&utm_source=travel_expert_page&utm_medium=travel-expert&utm_campaign=travel_expert_page&srcmarker2=travel_expert_page&scp=14%2C12trip_travel-expert_ru%2Ctravel_expert_page&s=true&adults=1&sc=2747373&id=2747373&to=%D0%93%D0%B0%D0%B0%D0%B3%D0%B0&countryName=netherlands&cityName=the-hague",
                  "title": "1 519 %rub%"
                }
              }
            },
            {
              "id": "route-2-3-1",
              "type": "hotel",
              "image": {
                "title": "Budget Studio´s",
                "description": "Javastraat 120A",
                "src": "https://e86451daaa32c758810f-3b644443a64c96357705f8f2be9c2e51.ssl.cf3.rackcdn.com/290117/3388768_b.jpg"
              },
              "cost": {
                "price": "3008",
                "coefficient": 0.5,
                "currency": "RUB"
              },
              "price": {
                "title": [
                  "",
                  ""
                ],
                "btn": {
                  "href": "https://www.onetwotrip.com/ru/hotels/hotel/budget-studio-s-3388768/?date_start=2017-04-08&date_end=2017-04-09&utm_source=travel_expert_page&utm_medium=travel-expert&utm_campaign=travel_expert_page&srcmarker2=travel_expert_page&scp=14%2C12trip_travel-expert_ru%2Ctravel_expert_page&s=true&adults=1&sc=2747373&id=2747373&to=%D0%93%D0%B0%D0%B0%D0%B3%D0%B0&countryName=netherlands&cityName=the-hague",
                  "title": "3 008 %rub%"
                }
              }
            },
            {
              "id": "route-2-3-2",
              "type": "hotel",
              "image": {
                "title": "Patten Hotel",
                "description": "Wagenstraat 127-129",
                "src": "https://e86451daaa32c758810f-3b644443a64c96357705f8f2be9c2e51.ssl.cf3.rackcdn.com/290117/711064_b.jpg"
              },
              "cost": {
                "price": "3950",
                "coefficient": 0.5,
                "currency": "RUB"
              },
              "price": {
                "title": [
                  "",
                  ""
                ],
                "btn": {
                  "href": "https://www.onetwotrip.com/ru/hotels/hotel/patten-hotel-711064/?date_start=2017-04-08&date_end=2017-04-09&utm_source=travel_expert_page&utm_medium=travel-expert&utm_campaign=travel_expert_page&srcmarker2=travel_expert_page&scp=14%2C12trip_travel-expert_ru%2Ctravel_expert_page&s=true&adults=1&sc=2747373&id=2747373&to=%D0%93%D0%B0%D0%B0%D0%B3%D0%B0&countryName=netherlands&cityName=the-hague",
                  "title": "3 950 %rub%"
                }
              }
            },
            {
              "id": "route-2-3-3",
              "type": "hotel",
              "image": {
                "title": "Patten Hotel",
                "description": "Wagenstraat 127-129",
                "src": "https://e86451daaa32c758810f-3b644443a64c96357705f8f2be9c2e51.ssl.cf3.rackcdn.com/290117/711064_b.jpg"
              },
              "cost": {
                "price": "3950",
                "coefficient": 0.5,
                "currency": "RUB"
              },
              "price": {
                "title": [
                  "",
                  ""
                ],
                "btn": {
                  "href": "https://www.onetwotrip.com/ru/hotels/hotel/patten-hotel-711064/?date_start=2017-04-08&date_end=2017-04-09&utm_source=travel_expert_page&utm_medium=travel-expert&utm_campaign=travel_expert_page&srcmarker2=travel_expert_page&scp=14%2C12trip_travel-expert_ru%2Ctravel_expert_page&s=true&adults=1&sc=2747373&id=2747373&to=%D0%93%D0%B0%D0%B0%D0%B3%D0%B0&countryName=netherlands&cityName=the-hague",
                  "title": "3 950 %rub%"
                }
              }
            }
          ]
        },
        {
          "type": "map",
          "options": {
            "options": {
              "id": "route-2-4"
            },
            "poi": {
              "name": "Гаага",
              "city_id": 2747373,
              "sight": [
                [
                  52.076440,
                  4.314612,
                  "food",
                  "Ресторан Simonis"
                ],
                [
                  52.100799,
                  4.264243,
                  "food",
                  "Ресторан Simonis"
                ],
                [
                  52.114709,
                  4.282026,
                  "food",
                  "Ресторан Simonis"
                ],
                [
                  52.115094,
                  4.283782,
                  "food",
                  "Ресторан Simonis"
                ],
                [
                  52.075739,
                  4.314328,
                  "food",
                  "Вьетнамский Little V"
                ],
                [
                  52.075795,
                  4.317684,
                  "food",
                  "Суринамский Warum Mini"
                ],
                [
                  52.081114,
                  4.297132,
                  "food",
                  "Кафе Crunch"
                ],
                [
                  52.075177,
                  4.309549,
                  "vine",
                  "Бар De Gekke Geit"
                ],
                [
                  52.071513,
                  4.324278,
                  "vine",
                  "The Penthouse"
                ],
                [
                  52.073235,
                  4.308438,
                  "vine",
                  "Музей ликера Van Kleef"
                ],
                [
                  52.099489,
                  4.296941,
                  "monument",
                  "Мадюродам"
                ],
                [
                  52.080414,
                  4.314269,
                  "monument",
                  "Маурицхёйс"
                ],
                [
                  52.089864,
                  4.280612,
                  "monument",
                  "Муниципальный музей"
                ],
                [
                  52.083435,
                  4.314323,
                  "monument",
                  "Музей Эшера"
                ],
                [
                  52.079552,
                  4.313134,
                  "monument",
                  "Парламент (Binenhof)"
                ],
                [
                  52.079205,
                  4.304887,
                  "coffeeshop",
                  "Кофешоп Cremers"
                ],
                [
                  52.086604,
                  4.295377,
                  "place",
                  "Дворец Мира"
                ],
                [
                  52.083550,
                  4.320326,
                  "children",
                  "Парк с оленями"
                ],
                [
                  52.117506,
                  4.280951,
                  "children",
                  "Колесо обозрения"
                ],
                [
                  52.118428,
                  4.292120,
                  "bicycle",
                  "Веломаршрут по дюнам"
                ]
              ],
              "hotels": [],
              "markers": []
            }
          }
        },
        {
          "type": "drop-down",
          "title": "Где оставить машину и как передвигаться по городу?",
          "options": [
            {
              "type": "text",
              "options": "Исторический центр Гааги закрыт для автомобилей. Поэтому мы рекомендуем вам сразу выбирать отели с парковкой. Стоимость парковки составит 20-30 евро за сутки. Если это дорого для вас, есть более бюджетный вариант — оставить автомобиль в пригороде на парковке <a href='https://www.denhaag.nl/en/residents/to/Binnenstad-Express-to-the-city-centre.htm' target='_blank'>Park and Ride</a> (точный адрес: Laan van Zuid Hoorn 38, Rijswijk). За 8 евро вы сможете припарковать машину на сутки и получите  дневные билеты на трамвай на 4 человека (это дешевле, чем покупать такие билеты отдельно). Дорога на трамвае №15 или №5 до центра Гааги займет 13 минут.\n"
            },
            {
              "type": "title",
              "options": "Велосипед"
            },
            {
              "type": "text",
              "options": "Как и в случае с Роттердамом, самый дешевый прокат велосипедов предлагается на вокзале Den Haag Centraal за 9,5 евро в сутки (в Гааге 2 вокзала: есть еще Den Haag HS, там тоже можно взять велосипед). Отели сдают велосипеды в аренду за 15-20 евро.\nЕсли вам повезло с погодой, очень рекомендуем изучать Гаагу именно на велосипеде. Обязательная программа: поездка из центра города к морю (в Схевенинген) на велосипеде, где по песчаным дюнам проложены велодорожки почти до самого Амстердама."
            },
            {
              "type": "title",
              "options": "Трамвай"
            },
            {
              "type": "text",
              "options": "Гаагскому трамвайному движению уже больше 100 лет. Если небо затянуло тучами, и периодически идет дождь, это отличная альтернатива велосипедам. Самые интересные маршруты, идущие к морю — 1 и 9. Билет на весь день обойдется в 7,7 евро, одна поездка — 3 евро."
            }
          ]
        },
        {
          "type": "drop-down",
          "title": "Куда сходить?",
          "options": [
            {
              "type": "text",
              "options": "Обязательная программа прогулки по городу включает в себя Парламент, Гаагский Трибунал (Дворец Мира), поездку на велосипеде или трамвае в Схевенинген — приморский пригород Гааги, где можно погулять по песчаным дюнам и очень красивой набережной. С недавнего времени тут можно прокатиться на колесе обозрения, которое расположено прям в море, за 9 евро. "
            },
            {
              "type": "text",
              "options": "Прям у центрального вокзала (Den Haag Centraal) расположился парк-заповедник с оленями и цаплями, которые очень необычно смотрятся на фоне современных небоскребов центра Гааги."
            },
            {
              "type": "photo",
              "title": "",
              "options": {
                "tags": [
                  "Binnenhof den haag"
                ]
              }
            },
            {
              "type": "text",
              "options": "Гаага — город музеев. При том хождение по музеям тут - отнюдь не нудное занятие. Почти все музеи предлагают интерактивные развлечения, и порой действительно поражают воображение своими экспозициями. Мы собрали для самые интересные, на наш взгляд, музеи Гааги.\n"
            },
            {
              "type": "title",
              "options": "Магазин и музей ликера Van Kleef"
            },
            {
              "type": "text",
              "options": "Мало кто знает, но ликеры Van Kleef – это настоящая достопримечательность Гааги. История напитка уходит корнями в средневековье и напрямую связана с гаагским водопроводом, который в свое время пытались очистить добавлением спирта. В итоге из водопровода получился ликерный завод. Отличное место для покупки уникальных сувениров. Владельцы музея щедро угощают всех посетителей своими ликерами с самого утра.\n"
            },
            {
              "type": "text",
              "options": "Часы работы: с 10:00 до 18:00\n"
            },
            {
              "type": "text",
              "options": "Адрес: Lange Beestenmarkt 109 "
            },
            {
              "type": "title",
              "options": "Мадюродам"
            },
            {
              "type": "photo",
              "title": "",
              "options": {
                "text": "Madurodam"
              }
            },
            {
              "type": "text",
              "options": "Это музей миниатюр. Здесь на небольшой площади поместилась уменьшенная копия всей Голландии. Место действительно интересное и поражающее воображение. При желании, тут можно провести весь день. Мы рекомендуем закладывать минимум 1,5 часа на поход в Мадюродам."
            },
            {
              "type": "text",
              "options": "Цена билета: 14,5 евро или 49,5 евро за 4 билета"
            },
            {
              "type": "text",
              "options": "Часы работы: с 9:00 до 20:00"
            },
            {
              "type": "text",
              "options": "Адрес: George Maduroplein 1"
            },
            {
              "type": "title",
              "options": "Маурицхёйс"
            },
            {
              "type": "text",
              "options": "Этот музей — визитная карточка Гааги. «Девушка с жемчужной сережкой», картина Яна Вермеера, которую еще называют «голландской Мона Лизой» находится именно здесь.\n"
            },
            {
              "type": "text",
              "options": "Цена билета: 14 евро\n"
            },
            {
              "type": "text",
              "options": "Часы работы: с 10:00 до 18:00"
            },
            {
              "type": "text",
              "options": "Адрес: Plein 29"
            },
            {
              "type": "title",
              "options": "Муниципальный музей (Gementee museum)"
            },
            {
              "type": "text",
              "options": "Прекрасный музей со сменяемой экспозицией. Уклон в сторону искусства 20-21 веков. Тут можно увидеть самую большую коллекцию Пита Мондриана, а на цокольном этаже всегда есть интерактивные экспозиции, которые дадут вам почувствовать себя художником, поучаствовать в создании музея,  пройти различные квесты. Интересно будет даже взрослым.\n"
            },
            {
              "type": "text",
              "options": "Цена билета: 14,5 евро"
            },
            {
              "type": "text",
              "options": "Часы работы: с 10:00 до 17:00"
            },
            {
              "type": "text",
              "options": "Адрес: Stadhouderslaan 41"
            },
            {
              "type": "title",
              "options": "Музей Эшера"
            },
            {
              "type": "text",
              "options": "Если вам знакомо это имя, то вы точно знаете, что ждать от музея мастера оптических иллюзий. Музей достаточно небольшой, осмотр всей экспозиции займет не более 2 часов (можно уложиться и за 30 минут). Так что, если в ваш план не входит хождение по бесчисленным музеям и выставкам Гааги, музей Эшера — отличный выбор для быстрого знакомства с голландской культурой музеев, это не займет целый день. \n"
            },
            {
              "type": "text",
              "options": "Цена билета: 9,5 евро.\n"
            },
            {
              "type": "text",
              "options": "Часы работы: с 11:00 до 17:00\n"
            },
            {
              "type": "text",
              "options": "Адрес: Lange Voorhout 74"
            }
          ]
        },
        {
          "type": "drop-down",
          "title": "Где поесть?",
          "options": [
            {
              "type": "title",
              "options": "Чайна-таун. "
            },
            {
              "type": "text",
              "options": "Если хотите сэкономить на еде, держите путь в Чайна-Таун. Тут можно отведать китайской лапши за рекордные для города 2-3 евро, при этом китайский квартал находится в самом сердце города. "
            },
            {
              "type": "text",
              "options": "Помимо китайских лапшичных, тут есть неплохой вьетнамский ресторанчик Little V (Rabbijn Maarssenplein 21), где огромная порция супа Фо обойдется вам в 7 евро. И суринамское кафе Warum Mini (Amsterdamse Veerkade 57) с большим выбором недорогих блюд из жареного риса и лапши. Где еще вы сможете попробовать суринамскую кухню?\n"
            },
            {
              "type": "title",
              "options": "Simonis"
            },
            {
              "type": "text",
              "options": "Это лучшие рыбные рестораны Голландии. В Гааге их 4 (3 из них — у моря, в Схевенингене), особой разницы между ними нет, так что можете выбрать любой, который будет по пути. Simonis неизменно лидирует в конкурсах на лучшую селедку Голландии, а к селедке голландцы относятся очень серьезно. \n\n"
            },
            {
              "type": "text",
              "options": "Так что если вы решите попробовать знаменитый голландский фаст-фуд, не спешите покупать булочку с селедкой у Парламента или у Дворца Мира, лучше зайдите в Simonis. Бутерброд с селедкой стоит 2,5 евро, и вам не обязательно покупать что-то еще, всю еду можно брать с собой. Полноценный обед или ужин из морепродуктов обойдется в 20-40 евро."
            },
            {
              "type": "text",
              "options": "Часы работы: с 9:00 до 20:00"
            },
            {
              "type": "text",
              "options": "Адреса: Visafslagweg 20 / Gedempte Gracht 405H / Strandweg 41 / Strandweg 77-79"
            },
            {
              "type": "title",
              "options": "Кафе-буфет Crunch"
            },
            {
              "type": "text",
              "options": "Неплохое и демократичное место. Идеально подойдет для недорогого обеда или завтрака\n"
            },
            {
              "type": "text",
              "options": "Часы работы: с 10:00 до 20:00"
            },
            {
              "type": "text",
              "options": "Адрес: Piet Heinstraat 108"
            }
          ]
        },
        {
          "type": "drop-down",
          "title": "Где провести вечер?",
          "options": [
            {
              "type": "title",
              "options": "Grote Markt"
            },
            {
              "type": "text",
              "options": "Основное место, где по вечерам собираются местные — это площадь Grote Markt. Тут, в окружении старых домов, находятся порядка 10 разных баров на любой вкус и кошелек, а в выходные дни веселье затягивается до самого утра. "
            },
            {
              "type": "title",
              "options": "De Gekke Geit"
            },
            {
              "type": "text",
              "options": "Буквально в 100 метрах от Grote Markt есть небольшой бар при хостеле. Тут наливают самое дешевое в Гааге пиво (2,5 евро). Кроме того, по выходным тут играет живой джазз, а посетители этого бара — уникальный микс из путешественников, остановившихся в хостеле при баре и местных жителей Гааги.\n"
            },
            {
              "type": "text",
              "options": "Часы работы: 16:00-02:00"
            },
            {
              "type": "text",
              "options": "Адрес: Lutherse Burgwal 5"
            },
            {
              "type": "title",
              "options": "Ресторан и скай-бар The Penthouse"
            },
            {
              "type": "text",
              "options": "Ресторан и бар находятся на 42 этаже небоскреба, откуда открывается прекрасный вид на всю Голландию. Вы можете пойти либо в бар (вход платный — 9 евро, включает в себя 1 коктейль), либо в ресторан (лучше забронировать столик заранее <a href='http://www.thepenthouse.nl/reservations/restaurant/' target='_blank'>на сайте</a>). Полноценный ужин тут обойдется в 30-50 евро с человека, что не дешево, но кухня тут действительно неплохая. \n"
            },
            {
              "type": "text",
              "options": "Часы работы: с 12:00 до 02:00 (ужин до 22:00)"
            },
            {
              "type": "text",
              "options": "Адрес: Rijswijkseplein 786  (The Hague Tower)"
            },
            {
              "type": "title",
              "options": "Кофешоп Cremers"
            },
            {
              "type": "text",
              "options": "В Гааге, как и во всех Нидерландах, много кофешопов. Для тех, кто не знает: так в Голландии называются кафе, где продается марихуана. Cremers примечателен, в первую очередь, тем, что это единственный в стране кофешоп, где продается еще и алкоголь. История заведения уходит корнями в далекое прошлое, и тут до сих пор очень атмосферно. Так что совсем не обязательно ехать в Амстердам, чтобы побывать в колоритных голландских кофешопах.\n"
            },
            {
              "type": "text",
              "options": "Часы работы: с 11:00 до 01:00"
            },
            {
              "type": "text",
              "options": "Адрес: Prinsestraat 84 "
            }
          ]
        }
      ]
    },
    {
      "title": "18-19 февраля, Арнем",
      "description": [
        {
          "type": "text",
          "options": "Последнюю ночь вашей поездки мы советуем провести в городе Арнем. Он находится недалеко от границы с Германией, так что вам будет вполне удобно утром доехать до Кельна. Сам город Арнем красив и уютен, но все-таки менее примечателен, чем Гаага или Роттердам. Мы советуем вам провести утро этого дня в Гааге и после обеда отправляться в сторону Арнема."
        },
        {
          "type": "map",
          "options": {
            "direction": {
              "origin": "Den Haag",
              "destination": "Arnhem",
              "waypoints": [
                {
                  "location": "de hoge veluwe"
                }
              ]
            }
          }
        },
        {
          "type": "text",
          "options": "Дорога от Гааги до Арнема займет не более 2 часов."
        },
        {
          "type": "drop-down",
          "title": "Парк Де-Хоге-Велюве",
          "options": [
            {
              "type": "text",
              "options": "Рядом с Арнемом располагается национальный парк Де-Хоге-Велюве. Мы очень рекомендуем его посетить. Помимо уникальной природы парка, озер, леса, стай оленей и муфлонов (которых сложно встретить где-то еще), уникальных скульптур и арт-объектов, в центре парка есть музей Крёллер-Мюллер, который может похвастаться второй по величине в мире коллекцией картин Ван Гога. В музее также можно увидеть картины Пита Мондриана, Поля Гогена, Пабло Пикассо."
            },
            {
              "type": "photo",
              "title": "",
              "options": {
                "tags": [
                  "Nationaal Park De Hoge Veluwe",
                  "Kröller-Müller Museum"
                ]
              }
            },
            {
              "type": "text",
              "options": "В парке можно взять бесплатно белые велосипеды (у каждого входа и у музея). По всей территории Де-Хоге-Велюве проложены велодорожки. Помимо прочего, тут есть кафе, где можно пообедать за вполне разумную цену (10-20 евро), и несколько десятков отличных мест для пикника на природе (если купите продукты заранее)."
            },
            {
              "type": "text",
              "options": "В парк можно въехать на автомобиле, заплатив 6,6 евро за автомобиль. Парковка (если не заезжать в парк) обойдется в 3,3 евро. "
            },
            {
              "type": "text",
              "options": "Входной билет для взрослого обойдется в 9,3 евро или в 18,6 евро с посещением музея Кёллер-Мюллер."
            },
            {
              "type": "text",
              "options": "Часы работы: с 8:00 до 20:00.  Исчерпывающая информация о парке есть на <a href='https://www.hogeveluwe.nl/en.' target='_blank'>официальном сайте</a>."
            }
          ]
        },
        {
          "type": "text",
          "options": "Мы рекомендуем остановиться в одном из отелей на окраине Арнема: так получится избежать проблем c парковкой и высокой платы. Во всех предложенных отелях есть рестораны или кафе, где можно будет поужинать и позавтракать, а парковка бесплатная."
        },
        {
          "type": "cards",
          "cost": {
            "groups": [
              [
                "card-id_1490368906488",
                "card-id_1490368934020",
                "card-id_1490368965723",
                "card-id_1490369004111"
              ]
            ]
          },
          "api": {
            "hotels": [
              {
                "render": {
                  "cards": [
                    "card-id_1490368906488",
                    "card-id_1490368934020",
                    "card-id_1490368965723",
                    "card-id_1490369004111"
                  ]
                },
                "options": {
                  "object_id": 2759661,
                  "date_start": "2019-02-18",
                  "adults": 2,
                  "date_end": "2019-02-19"
                },
                "filter": {
                  "themes": [
                    [
                      16
                    ]
                  ]
                }
              }
            ]
          },
          "options": [
            {
              "type": "hotel",
              "image": {
                "title": "Stayokay Arnhem",
                "description": "Diepenbrocklaan 27",
                "src": "https://e86451daaa32c758810f-3b644443a64c96357705f8f2be9c2e51.ssl.cf3.rackcdn.com/290117/2186382_b.jpg"
              },
              "cost": {
                "price": 1346,
                "currency": "RUB",
                "coefficient": 0.5
              },
              "price": {
                "title": [
                  "",
                  ""
                ],
                "btn": {
                  "href": "https://www.onetwotrip.com/ru/hotels/hotel/stayokay-arnhem-2186382/?date_start=2017-05-14&date_end=2017-05-15&utm_source=travel_expert_page&utm_medium=travel-expert&utm_campaign=travel_expert_page&srcmarker2=travel_expert_page&scp=14%2C12trip_travel-expert_ru%2Ctravel_expert_page&s=true&adults=1&sc=2759661&id=2759661&to=%D0%90%D1%80%D0%BD%D0%B5%D0%BC&countryName=netherlands&cityName=arnhem",
                  "title": "1 346 %rub%"
                }
              },
              "id": "card-id_1490368906488"
            },
            {
              "type": "hotel",
              "image": {
                "title": "Guesthouse de Hoogkamp",
                "description": "Albert Neuhuysstraat 24",
                "src": "https://e86451daaa32c758810f-3b644443a64c96357705f8f2be9c2e51.ssl.cf3.rackcdn.com/290117/3421040_b.jpg"
              },
              "cost": {
                "price": 2477,
                "currency": "RUB",
                "coefficient": 0.5
              },
              "price": {
                "title": [
                  "",
                  ""
                ],
                "btn": {
                  "href": "https://www.onetwotrip.com/ru/hotels/hotel/guesthouse-de-hoogkamp-3421040/?date_start=2017-05-14&date_end=2017-05-15&utm_source=travel_expert_page&utm_medium=travel-expert&utm_campaign=travel_expert_page&srcmarker2=travel_expert_page&scp=14%2C12trip_travel-expert_ru%2Ctravel_expert_page&s=true&adults=1&sc=2759661&id=2759661&to=%D0%90%D1%80%D0%BD%D0%B5%D0%BC&countryName=netherlands&cityName=arnhem",
                  "title": "2 477 %rub%"
                }
              },
              "id": "card-id_1490368934020"
            },
            {
              "type": "hotel",
              "image": {
                "title": "Pension Arnhem",
                "description": "De Praets 1a en 3",
                "src": "https://e86451daaa32c758810f-3b644443a64c96357705f8f2be9c2e51.ssl.cf3.rackcdn.com/290117/2276105_b.jpg"
              },
              "cost": {
                "price": 3468,
                "currency": "RUB",
                "coefficient": 0.5
              },
              "price": {
                "title": [
                  "",
                  ""
                ],
                "btn": {
                  "href": "https://www.onetwotrip.com/ru/hotels/hotel/pension-arnhem-2276105/?date_start=2017-05-14&date_end=2017-05-15&utm_source=travel_expert_page&utm_medium=travel-expert&utm_campaign=travel_expert_page&srcmarker2=travel_expert_page&scp=14%2C12trip_travel-expert_ru%2Ctravel_expert_page&s=true&adults=1&sc=2759661&id=2759661&to=%D0%90%D1%80%D0%BD%D0%B5%D0%BC&countryName=netherlands&cityName=arnhem",
                  "title": "3 468 %rub%"
                }
              },
              "id": "card-id_1490368965723"
            },
            {
              "type": "hotel",
              "image": {
                "title": "Postillion Hotel Arnhem",
                "description": "Europaweg 25",
                "src": "https://e86451daaa32c758810f-3b644443a64c96357705f8f2be9c2e51.ssl.cf3.rackcdn.com/290117/282325_b.jpg"
              },
              "cost": {
                "price": 3963,
                "currency": "RUB",
                "coefficient": 0.5
              },
              "price": {
                "title": [
                  "",
                  ""
                ],
                "btn": {
                  "href": "https://www.onetwotrip.com/ru/hotels/hotel/postillion-hotel-arnhem-282325/?date_start=2017-05-14&date_end=2017-05-15&utm_source=travel_expert_page&utm_medium=travel-expert&utm_campaign=travel_expert_page&srcmarker2=travel_expert_page&scp=14%2C12trip_travel-expert_ru%2Ctravel_expert_page&s=true&adults=1&sc=2759661&id=2759661&to=%D0%90%D1%80%D0%BD%D0%B5%D0%BC&countryName=netherlands&cityName=arnhem",
                  "title": "3 963 %rub%"
                }
              },
              "id": "card-id_1490369004111"
            }
          ]
        }
      ]
    },
    {
      "title": "19 февраля. Кельн — Москва ",
      "description": [
        {
          "type": "map",
          "options": {
            "direction": {
              "origin": "Arnhem ",
              "destination": "Koln/Bonn airport",
              "waypoints": []
            }
          }
        },
        {
          "type": "text",
          "options": "Ваш рейс вылетает из Кельна. Мы рекомендуем выезжать из Арнема за 4 часа до вылета, так вы точно успеете к вылету. Дорога займет около 2 часов, с учетом отсутствия на немецких автобанах лимита скорости. Детали перелета мы показали в начале маршрута."
        }
      ]
    }
  ],
  "advices": [
    "При аренде автомобиля на банковской карте водителя будет заморожен депозит (примерно 300 евро). Деньги вернутся на карту, когда сдадите машину. Также потребуется водительское удостоверение (российские права подойдут, если второй язык в них — английский, т.е новые образцы).",
    "В Германии нет лимита скорости на автобанах, так что если нет знаков ограничения скорости, можете разгоняться на магистралях хоть до 300 км/ч.",
    "В Нидерландах максимальная разрешенная скорость 130 км/ч. Следите за знаками, штрафы достигают 1000 евро. В городах наказывается штрафом даже превышение на 3 км/ч, будьте осторожны. Все дороги на вашем маршруте — бесплатные.",
    "В Кельне достаточно дотошные работники паспортного контроля, так что лучше приезжать с уже открытой шенгенской визой, или с визой Германии или Нидерландов."
  ],
  "afterAdvices": {
    "title": "",
    "text": []
  }
}
