﻿{
  "title": "Тревел-эксперт OneTwoTrip",
  "top": {
    "image": "top/dubai.jpg",
    "topText": [
      "ДУБАЙ"
    ],
    "text": "ОАЭ",
    "under": ""
  },
  "hideContacts": true,
  "adviceTitle": "Полезная информация",
  "blogFooter": true,
  "about": {
    "hide": true,
    "description": "",
    "price": {
      "cost": "",
      "description": ""
    },
    "map": {
      "point": {
        "location": [
          ""
        ],
        "zoom": "7"
      },
      "poi": {
        "name": "дубай",
        "city_id": 292223,
        "sight": [
          [
            25.151479,
            55.197084,
            "food",
            "Bu Qtair"
          ],
          [
            25.237416,
            55.309305,
            "food",
            "Dubai fish hut restaurant"
          ],
          [
            25.118255,
            55.198511,
            "food",
            "Olea"
          ],
          [
            25.075995,
            55.130751,
            "food",
            "The Cheesecake Factory"
          ],
          [
            25.13218,
            55.118403,
            "food",
            "Cold Stone Creamery Atlantis"
          ],
          [
            25.197199,
            55.274412,
            "food",
            "Armani/Amal"
          ],
          [
            25.080388,
            55.136704,
            "food",
            "The Talk Restaurant"
          ],
          [
            25.076647,
            55.132237,
            "food",
            "Operation: Falafel"
          ],
          [
            25.197509,
            55.274848,
            "eye",
            "Бурдж-Халифа"
          ],
          [
            25.264395,
            55.29986,
            "sign",
            "Бастакия"
          ],
          [
            25.263234,
            55.297212,
            "monument",
            "Музей Дубая"
          ],
          [
            25.233832,
            55.265465,
            "cathedral",
            "Мечеть Джумейра"
          ],
          [
            25.19752,
            55.27855,
            "shop",
            "Дубай Молл"
          ],
          [
            25.140671,
            55.226339,
            "monument",
            "Альсеркаль"
          ],
          [
            25.133594,
            55.120403,
            "children",
            "Aquaventure Waterpark"
          ],
          [
            25.141312,
            55.185346,
            "eye",
            "Бурдж-аль-Араб"
          ],
          [
            25.270859,
            55.298306,
            "kiosk",
            "Золотой рынок"
          ],
          [
            25.163033,
            55.20649,
            "wave",
            "Кайт-Бич"
          ]
        ],
        "hotels": [],
        "markers": []
      }
    },
    "cities": []
  },

  "og": {
    "title": "Что делать в Дубае",
    "description": "Дубай — это современный город, возникший буквально посреди пустыни. Сегодня это важный морской порт, финансовый, торговый и культурный центр не только ОАЭ, но и всего региона. Здесь вас ждут небоскрёбы, крупнейшие торговые центры, архипелаг искусственных островов в форме пальмы, огромный аквариум, интересные музеи, парки аттракционов и аквапарки, горнолыжный комплекс и многое, многое другое."
  },
  "route": [
    {
      "title": "Что делать в Дубае",
      "description": [
        {
          "type": "text",
          "options": "Дубай — это современный город, возникший буквально посреди пустыни. Сегодня это важный морской порт, финансовый, торговый и культурный центр не только ОАЭ, но и всего региона. Здесь вас ждут небоскрёбы, крупнейшие торговые центры, архипелаг искусственных островов в форме пальмы, огромный аквариум, интересные музеи, парки аттракционов и аквапарки, горнолыжный комплекс и многое, многое другое."
        },
        {
          "type": "custom-photos",
          "options": {
            "ids": [
              "23918794418",
              "37739913922",
              "37254451164",
              "37964019781"
            ],
            "items": [
              {
                "id": "23918794418",
                "owner": "151640904@N03",
                "secret": "9591accc3d",
                "server": "4464",
                "farm": 5,
                "title": "home_bg_tcm186-80501",
                "ispublic": 1,
                "isfriend": 0,
                "isfamily": 0
              },
              {
                "id": "37964019781",
                "owner": "151640904@N03",
                "secret": "7a62694a44",
                "server": "4507",
                "farm": 5,
                "title": "maxresdefault (2)",
                "ispublic": 1,
                "isfriend": 0,
                "isfamily": 0
              },
              {
                "id": "37739913922",
                "owner": "151640904@N03",
                "secret": "2f5ee89dc1",
                "server": "4497",
                "farm": 5,
                "title": "burj-al-arab-jumeirah-terrace-exterior-hero",
                "ispublic": 1,
                "isfriend": 0,
                "isfamily": 0
              },
              {
                "id": "37254451164",
                "owner": "151640904@N03",
                "secret": "cce0f206f5",
                "server": "4450",
                "farm": 5,
                "title": "The-Dubai-Fountain",
                "ispublic": 1,
                "isfriend": 0,
                "isfamily": 0
              }
            ],
            "urls": [
              "https://farm5.staticflickr.com/4464/23918794418_9591accc3d.jpg",
              "https://farm5.staticflickr.com/4507/37964019781_7a62694a44.jpg",
              "https://farm5.staticflickr.com/4497/37739913922_2f5ee89dc1.jpg",
              "https://farm5.staticflickr.com/4450/37254451164_cce0f206f5.jpg"
            ],
            "grid": [
              1,
              1,
              1,
              1
            ]
          }
        },
        {
          "type": "drop-down",
          "title": "Как добраться из аэропорта",
          "options": [
            {
              "type": "text",
              "options": "Аэропорт расположен всего в 5 км от города, а добраться из него можно тремя способами — на автобусе, метро и такси. Автобусные остановки расположены напротив терминалов 1, 2 и 3. Вам нужны № 401, № 402. Днём автобусы отходят каждые 7 минут, ночью — каждые 20."
            },
            {
              "type": "text",
              "options": "Наиболее удобный вариант — воспользоваться метро. Вам подходит красная ветка, которая довезёт до центра города. Станции расположены у терминалов 1 и 3, вы легко найдёте их по указателям. Время работы метро: с 05:50 до 00:00 (Пт — с 13:00 до 01:00). Стоимость билета зависит от зоны, в которую вы едете (средняя цена — около 1,5 долларов). "
            },
            {
              "type": "text",
              "options": "Если вы решите воспользоваться такси, рекомендуем заказывать машину через сервис Uber."
            }
          ]
        },
        {
          "type": "drop-down",
          "title": "Что смотреть",
          "options": [
            {
              "type": "custom-photos",
              "options": {
                "ids": [
                  "23918794648",
                  "37101785183",
                  "26188390459",
                  "37910544356"
                ],
                "items": [
                  {
                    "id": "23918794648",
                    "owner": "151640904@N03",
                    "secret": "0d62cdc63c",
                    "server": "4459",
                    "farm": 5,
                    "title": "48cd288bb7fdcaffae134dbc69f7bbe8_XL",
                    "ispublic": 1,
                    "isfriend": 0,
                    "isfamily": 0
                  },
                  {
                    "id": "37101785183",
                    "owner": "151640904@N03",
                    "secret": "46a0936863",
                    "server": "4507",
                    "farm": 5,
                    "title": "maxresdefault",
                    "ispublic": 1,
                    "isfriend": 0,
                    "isfamily": 0
                  },
                  {
                    "id": "26188390459",
                    "owner": "151640904@N03",
                    "secret": "fab88e122c",
                    "server": "4450",
                    "farm": 5,
                    "title": "1-shutterstock_181749203",
                    "ispublic": 1,
                    "isfriend": 0,
                    "isfamily": 0
                  },
                  {
                    "id": "37910544356",
                    "owner": "151640904@N03",
                    "secret": "130e5c8d90",
                    "server": "4448",
                    "farm": 5,
                    "title": "7-Things-to-do-in-Dubai-The-Dubai-Mall",
                    "ispublic": 1,
                    "isfriend": 0,
                    "isfamily": 0
                  }
                ],
                "urls": [
                  "https://farm5.staticflickr.com/4459/23918794648_0d62cdc63c.jpg",
                  "https://farm5.staticflickr.com/4507/37101785183_46a0936863.jpg",
                  "https://farm5.staticflickr.com/4450/26188390459_fab88e122c.jpg",
                  "https://farm5.staticflickr.com/4448/37910544356_130e5c8d90.jpg"
                ],
                "grid": [
                  1,
                  1,
                  1,
                  1
                ]
              }
            },
            {
              "type": "title",
              "options": "Бурдж-Халифа"
            },
            {
              "type": "text",
              "options": "Символ города и самое высокое здание мира (его высота составляет 828 метров). По сути, комплекс представляет собой город в городе — внутри расположены жилые помещения, офисы, отель, торговый центр, фитнес-клубы, рестораны, и многое другое. На 148 этаже находится смотровая площадка, на которую можно подняться за 350 дирхам."
            },
            {
              "type": "text",
              "options": "Адрес: Sheikh Mohammed bin Rashid Blvd, 1."
            },
            {
              "type": "title",
              "options": "Бастакия (Старый Дубай)"
            },
            {
              "type": "text",
              "options": "Это исторический квартал города. Погуляйте по узким улочкам с традиционной арабской архитектурой, рассмотрите ветряные башни (это распространённый на Ближнем Востоке архитектурный элемент). Главной достопримечательностью квартала считается Форт Аль-Фахиди."
            },
            {
              "type": "text",
              "options": "Адрес: Al Hamriya, Bur Dubai."
            },
            {
              "type": "title",
              "options": "Музей Дубая (Dubai Museum)"
            },
            {
              "type": "text",
              "options": "Очень атмосферный музей, который находится в Форте Аль-Фахиди. В нём вы узнаете всё об истории развития города. Время работы: 08:30 - 20:30 (Сб-Чт), 14:00-20:30 (Пт)."
            },
            {
              "type": "text",
              "options": "Адрес: 34 St | Al Fahidi Fort, Bur Dubai."
            },
            {
              "type": "title",
              "options": "Мечеть Джумейра"
            },
            {
              "type": "text",
              "options": "Пожалуй, это самая красивая мечеть в городе. Она открыта для посетителей, неисповедующих ислам. Центр культурного взаимопонимания шейха Мухаммеда бин Рашида организует экскурсии по мечети. Они начинаются ежедневно в 10 утра, за исключением пятницы. Предварительное бронирование не требуется, необходимо подъехать к главному входу в мечеть приблизительно к 9.45. Продолжительность экскурсии — около 75 минут, её стоимость составляет 20 дирхам (дети до 12 лет — бесплатно)."
            },
            {
              "type": "text",
              "options": "Адрес: Jumeirah Beach Road, Jumeria 1."
            },
            {
              "type": "title",
              "options": "Дубай Молл"
            },
            {
              "type": "text",
              "options": "Крупнейший торговый центр в мире, в котором помимо многочисленных магазинов и ресторанов есть кинотеатры, игровые зоны и каток. Из молла можно попасть в башню Бурдж-Халифа, а также Дубайский аквариум."
            },
            {
              "type": "text",
              "options": "Адрес: Doha Road, just off Sheikh Zayed Road."
            },
            {
              "type": "custom-photos",
              "options": {
                "ids": [
                  "37771997721",
                  "37739915062",
                  "37254330094",
                  "37910544166"
                ],
                "items": [
                  {
                    "id": "37254330094",
                    "owner": "151640904@N03",
                    "secret": "1f173c932d",
                    "server": "4498",
                    "farm": 5,
                    "title": "1344928548",
                    "ispublic": 1,
                    "isfriend": 0,
                    "isfamily": 0
                  },
                  {
                    "id": "37739915062",
                    "owner": "151640904@N03",
                    "secret": "d8ba1f48ae",
                    "server": "4467",
                    "farm": 5,
                    "title": "Burj-Al-Arab-hotel-parus",
                    "ispublic": 1,
                    "isfriend": 0,
                    "isfamily": 0
                  },
                  {
                    "id": "37771997721",
                    "owner": "151640904@N03",
                    "secret": "1124e00a0b",
                    "server": "4446",
                    "farm": 5,
                    "title": "IMG_4250",
                    "ispublic": 1,
                    "isfriend": 0,
                    "isfamily": 0
                  },
                  {
                    "id": "37910544166",
                    "owner": "151640904@N03",
                    "secret": "0f9a408699",
                    "server": "4488",
                    "farm": 5,
                    "title": "864e86e5b272ae11ff765a9b5180565a_XL",
                    "ispublic": 1,
                    "isfriend": 0,
                    "isfamily": 0
                  }
                ],
                "urls": [
                  "https://farm5.staticflickr.com/4498/37254330094_1f173c932d.jpg",
                  "https://farm5.staticflickr.com/4467/37739915062_d8ba1f48ae.jpg",
                  "https://farm5.staticflickr.com/4446/37771997721_1124e00a0b.jpg",
                  "https://farm5.staticflickr.com/4488/37910544166_0f9a408699.jpg"
                ],
                "grid": [
                  1,
                  1,
                  1,
                  1
                ]
              }
            },
            {
              "type": "title",
              "options": "Квартал искусств Альсеркаль"
            },
            {
              "type": "text",
              "options": "Квартал представляет собой бывший индустриальный район, в котором в настоящее время сконцентрированы наиболее интересные галереи современного искусства в городе. Здесь выставляются как известные художники, так и молодые и талантливые. Помимо галерей в этом районе находятся модные бутики местных дизайнеров, а также кафе с интересным интерьером."
            },
            {
              "type": "text",
              "options": "Адрес: lserkal Avenue, Al Quoz Industrial district."
            },
            {
              "type": "title",
              "options": "Аквапарк \"Aquaventure Waterpark\""
            },
            {
              "type": "text",
              "options": "Аквапарк находится в отеле Атлантис на искусственном острове Пальма Джумейра и занимает площадь 17 га. Выбор водных аттракционов огромный. Именно здесь находится самая длинная водная горка в мире. Стоимость билета составляет 260 дирхам для посетителей выше 1,2 м, 215 — для детей ниже 1,2 м. Дети до 2 лет — бесплатно. Подробную информацию об аквапарке можно узнать на <a target='_blank' href=\"https://www.atlantisthepalm.com/\">этом сайте</a>."
            },
            {
              "type": "text",
              "options": "Адрес: Crescent Road, Palm Jumeirah."
            },
            {
              "type": "title",
              "options": "Бурдж-аль-Араб"
            },
            {
              "type": "text",
              "options": "Один из самых роскошных и дорогих отелей в мире расположен на собственном искусственном острове. Внешне напоминает парусник. За панорамным видом на весь город отправляйтесь на чай в Skyview Bar, расположенный на 27 этаже. Посещение необходимо бронировать заранее, без этого не пропустят. Сделать это можно на <a target='_blank' href=\"https://www.jumeirah.com/en/hotels-resorts/dubai/burj-al-arab/restaurant-at-burj-al-arab/skyview-bar/\">этой странице</a>."
            },
            {
              "type": "text",
              "options": "Адрес: Jumeira Road، Umm Suqeim, 3."
            },
            {
              "type": "title",
              "options": "Кайт-Бич"
            },
            {
              "type": "text",
              "options": "Этот протяженный бесплатный пляж с белым песком — излюбленное место кайтсерферов. Также здесь можно попробовать себя в любом другом водном виде спорта."
            },
            {
              "type": "text",
              "options": "Адрес: Off Jumeirah Road."
            },
            {
              "type": "title",
              "options": "Золотой рынок"
            },
            {
              "type": "text",
              "options": "Рынок представляет собой целую улицу, заполненную магазинчиками, торгующими изделиями из золота. В них совершенно точно можно найти украшения на любой вкус. Впрочем, если ничего покупать вы не намерены, по рынку стоит погулять хотя бы ради того, чтобы посмотреть на такое количество золота. Так как это рынок, торговаться не только можно, но и нужно — цену можно сбить в несколько раз."
            },
            {
              "type": "text",
              "options": "Адрес: Al Khor Str., 54"
            }
          ]
        },
        {
          "type": "drop-down",
          "title": "Где поесть",
          "options": [
            {
              "type": "custom-photos",
              "options": {
                "ids": [
                  "37254154974",
                  "37254154464",
                  "37254154184",
                  "37254154054"
                ],
                "items": [
                  {
                    "id": "37254154974",
                    "owner": "151640904@N03",
                    "secret": "c456250a01",
                    "server": "4511",
                    "farm": 5,
                    "title": "datacapture-1425444281_base",
                    "ispublic": 1,
                    "isfriend": 0,
                    "isfamily": 0
                  },
                  {
                    "id": "37254154464",
                    "owner": "151640904@N03",
                    "secret": "c6c2bdbdc4",
                    "server": "4500",
                    "farm": 5,
                    "title": "armani-amal",
                    "ispublic": 1,
                    "isfriend": 0,
                    "isfamily": 0
                  },
                  {
                    "id": "37254154184",
                    "owner": "151640904@N03",
                    "secret": "c81f7cf57c",
                    "server": "4496",
                    "farm": 5,
                    "title": "CCF2",
                    "ispublic": 1,
                    "isfriend": 0,
                    "isfamily": 0
                  },
                  {
                    "id": "37254154054",
                    "owner": "151640904@N03",
                    "secret": "0ccfa54c25",
                    "server": "4510",
                    "farm": 5,
                    "title": "olea-interior-2",
                    "ispublic": 1,
                    "isfriend": 0,
                    "isfamily": 0
                  }
                ],
                "urls": [
                  "https://farm5.staticflickr.com/4511/37254154974_c456250a01.jpg",
                  "https://farm5.staticflickr.com/4500/37254154464_c6c2bdbdc4.jpg",
                  "https://farm5.staticflickr.com/4496/37254154184_c81f7cf57c.jpg",
                  "https://farm5.staticflickr.com/4510/37254154054_0ccfa54c25.jpg"
                ],
                "grid": [
                  1,
                  1,
                  1,
                  1
                ]
              }
            },
            {
              "type": "title",
              "options": "Bu Qtair"
            },
            {
              "type": "text",
              "options": "Очень рекомендуем посетить этот колоритный ресторанчик, популярный не только у туристов, но и у местных. Специализируется он в основном на креветках и рыбе, которую вы сможете выбрать сами. Все соусы достаточно острые. Цены невысокие."
            },
            {
              "type": "text",
              "options": "Адрес: D Street, 4 | Al Sufouh."
            },
            {
              "type": "title",
              "options": "Dubai fish hut restaurant"
            },
            {
              "type": "text",
              "options": "Ещё один недорогой ресторанчик, где потрясающе вкусно готовят свежайшие морепродукты. Плюс ко всему — богатый выбор блюд и большие порции."
            },
            {
              "type": "text",
              "options": "Адрес: 8 Str."
            },
            {
              "type": "title",
              "options": "Operation: Falafel"
            },
            {
              "type": "text",
              "options": "В этом кафе ливанской и средиземноморской кухни можно вкусно и недорого перекусить."
            },
            {
              "type": "text",
              "options": "Адрес: Jumeirah Beach Residence."
            },
            {
              "type": "title",
              "options": "Olea"
            },
            {
              "type": "text",
              "options": "Это неплохой ресторан ливанской, турецкой и ближневосточной кухни. Цены выше среднего."
            },
            {
              "type": "text",
              "options": "Адрес: Sheikh Zayed Road | Kempinski Hotel Mall of the Emirates."
            },
            {
              "type": "title",
              "options": "The Cheesecake Factory"
            },
            {
              "type": "text",
              "options": "В это заведение отправляйтесь за вкуснейшими чизкейками — выбор здесь огромный. Кроме десертов здесь ещё подают блюда американской и итальянской кухни."
            },
            {
              "type": "text",
              "options": "Адрес: Jumeirah Beach Residence | Al Mamsha Street, 46/1."
            },
            {
              "type": "title",
              "options": "Cold Stone Creamery Atlantis"
            },
            {
              "type": "text",
              "options": "Кафе расположено на знаменитом \"пальмовом архипелаге\", а посетить его стоит ради вкусного мороженого."
            },
            {
              "type": "text",
              "options": "Адрес: Jumeira Rd | Palm Jumeirah."
            },
            {
              "type": "title",
              "options": "Armani/Amal"
            },
            {
              "type": "text",
              "options": "Это ресторан высокой кухни, расположенный в башне Бурдж Халифа. Кухня — индийская, азиатская. Чтобы попробовать несколько блюд, можно заказать дегустационный сет. Советуем посетить его вечером — отсюда открывается потрясающий вид на поющие фонтаны. Столик лучше бронировать заранее."
            },
            {
              "type": "text",
              "options": "Адрес: Armani Hotel | Burj Khalifa."
            },
            {
              "type": "title",
              "options": "The Talk Restaurant"
            },
            {
              "type": "text",
              "options": "Ресторан расположен в отеле Movenpick. Здесь большой выбор блюд и дружелюбный персонал, возможна система \"шведский стол\". Кухня европейская, азиатская, международная."
            },
            {
              "type": "text",
              "options": "Адрес: Movenpick Hotel, Jumeirah Beach Residence, Dubai Marina."
            }
          ]
        },
        {
          "type": "drop-down",
          "title": "Куда сходить вечером",
          "options": [
            {
              "type": "custom-photos",
              "options": {
                "ids": [
                  "37254056254",
                  "37254056064",
                  "37254055794",
                  "24112768378"
                ],
                "items": [
                  {
                    "id": "37254056254",
                    "owner": "151640904@N03",
                    "secret": "7323665a07",
                    "server": "4466",
                    "farm": 5,
                    "title": "5",
                    "ispublic": 1,
                    "isfriend": 0,
                    "isfamily": 0
                  },
                  {
                    "id": "37254056064",
                    "owner": "151640904@N03",
                    "secret": "8e2a27a23e",
                    "server": "4458",
                    "farm": 5,
                    "title": "poyushhij_fontan_v_dubae_2",
                    "ispublic": 1,
                    "isfriend": 0,
                    "isfamily": 0
                  },
                  {
                    "id": "37254055794",
                    "owner": "151640904@N03",
                    "secret": "71a2fed3c6",
                    "server": "4460",
                    "farm": 5,
                    "title": "3 (1)",
                    "ispublic": 1,
                    "isfriend": 0,
                    "isfamily": 0
                  },
                  {
                    "id": "24112768378",
                    "owner": "151640904@N03",
                    "secret": "9611fb7077",
                    "server": "4508",
                    "farm": 5,
                    "title": "neos-1024x668",
                    "ispublic": 1,
                    "isfriend": 0,
                    "isfamily": 0
                  }
                ],
                "urls": [
                  "https://farm5.staticflickr.com/4466/37254056254_7323665a07.jpg",
                  "https://farm5.staticflickr.com/4458/37254056064_8e2a27a23e.jpg",
                  "https://farm5.staticflickr.com/4460/37254055794_71a2fed3c6.jpg",
                  "https://farm5.staticflickr.com/4508/24112768378_9611fb7077.jpg"
                ],
                "grid": [
                  1,
                  1,
                  1,
                  1
                ]
              }
            },
            {
              "type": "title",
              "options": "Дубайская опера"
            },
            {
              "type": "text",
              "options": "Дубайская опера может по праву считаться культурным центром города. Помимо оперных представлений здесь даются разнообразные концерты и мюзиклы. Цены стартуют в основном от 150 дирхам. Актуальную информацию о представлениях и наличии билетов можно узнать на <a target='_blank' href=\"http://www.dubaiopera.com/\">этом сайте</a>."
            },
            {
              "type": "text",
              "options": "Адрес: Sheikh Mohammed Bin Rashid, Downtown Dubai."
            },
            {
              "type": "title",
              "options": "Поющие фонтаны"
            },
            {
              "type": "text",
              "options": "Дубайский музыкальный фонтан (один из самых высоких в мире) — это впечатляющее зрелище, которое мы очень советуем посетить. Все шоу бесплатные. Вечерние сеансы начинаются каждые 30 мин с 18:00 до 23:00. Также есть два дневных сеанса — в 13:00 и 13:30."
            },
            {
              "type": "text",
              "options": "Адрес: Fashion Parking — Dubai Mall، Sheikh Mohammed bin Rashid Boulevard."
            },
            {
              "type": "title",
              "options": "Бар 40 Kong "
            },
            {
              "type": "text",
              "options": "Это азиатский бар, расположенный на 40 этаже отеля. С его террасы открывается потрясающий вид на весь город. Цены на коктейли высокие, но отменное качество и виды их компенсируют."
            },
            {
              "type": "text",
              "options": "Адрес: The H Hotel, One Sheikh Zayed Road."
            },
            {
              "type": "title",
              "options": "Бар Neos"
            },
            {
              "type": "text",
              "options": "Бар расположен на 63 этаже, откуда отлично виден весь центр города (в том числе и шоу фонтанов). В баре отличная винная карта и оригинальные коктейли. Столики у окна лучше бронировать заранее."
            },
            {
              "type": "text",
              "options": "Адрес: Sheikh Mohammed Bin Rashid Boulevard."
            }
          ]
        },
        {
          "type": "drop-down",
          "title": "Парк аттракционов \"IMG Worlds of Adventure\"",
          "options": [
            {
              "type": "custom-photos",
              "options": {
                "ids": [
                  "24112626638",
                  "37253941484",
                  "26187906169",
                  "37963480791"
                ],
                "items": [
                  {
                    "id": "37253941484",
                    "owner": "151640904@N03",
                    "secret": "ed4fecdf78",
                    "server": "4466",
                    "farm": 5,
                    "title": "predator-ride-in-the",
                    "ispublic": 1,
                    "isfriend": 0,
                    "isfamily": 0
                  },
                  {
                    "id": "24112626638",
                    "owner": "151640904@N03",
                    "secret": "a93bae2406",
                    "server": "4464",
                    "farm": 5,
                    "title": "IMG-Worlds-of-Adventure-11-1-825x464",
                    "ispublic": 1,
                    "isfriend": 0,
                    "isfamily": 0
                  },
                  {
                    "id": "37963480791",
                    "owner": "151640904@N03",
                    "secret": "ca923757d9",
                    "server": "4468",
                    "farm": 5,
                    "title": "0e96d523-c307-4041-8499-d906906312d5-5367-dubai-seaplane-tour-and-img-world-of-adventures-day-access-abu-dhabi-to-dubai-01-770x481",
                    "ispublic": 1,
                    "isfriend": 0,
                    "isfamily": 0
                  },
                  {
                    "id": "26187906169",
                    "owner": "151640904@N03",
                    "secret": "9713337dde",
                    "server": "4489",
                    "farm": 5,
                    "title": "Adventure-Fortress",
                    "ispublic": 1,
                    "isfriend": 0,
                    "isfamily": 0
                  }
                ],
                "urls": [
                  "https://farm5.staticflickr.com/4466/37253941484_ed4fecdf78.jpg",
                  "https://farm5.staticflickr.com/4464/24112626638_a93bae2406.jpg",
                  "https://farm5.staticflickr.com/4468/37963480791_ca923757d9.jpg",
                  "https://farm5.staticflickr.com/4489/26187906169_9713337dde.jpg"
                ],
                "grid": [
                  1,
                  1,
                  1,
                  1
                ]
              }
            },
            {
              "type": "text",
              "options": "Это крытый тематический парк развлечений с огромным количеством разнообразных аттракционов. Входной билет стоит 245 дирхам, детский (до 1,2 м роста — 225 дирхам, до 1,05 м — бесплатно). Время работы: с 11:00 до 22:00 (Чт, Пт, Сб), с 11:00 до 21:00 (Пн, Вт, Ср, Вс). Подробную информацию о парке можно узнать на <a target='_blank' href=\"http://www.imgworlds.com/en/#\">этом сайте</a>."
            },
            {
              "type": "map",
              "options": {
                "direction": {
                  "origin": "дубай",
                  "destination": " IMG Worlds of Adventure",
                  "waypoints": []
                }
              }
            },
            {
              "type": "text",
              "options": "Адрес: Sheikh Mohammed bin Zayed Road. Добраться сюда удобнее всего на такси от станции метро \"The Dubai Mall\" (воспользуйтесь сервисом Uber). Кроме того, из многих отелей ходят шаттлы прямо до парка. Расписание можно посмотреть на <a target='_blank' href=\"http://www.imgworlds.com/en/hotel-shuttle-service/\">этой странице</a>."
            }
          ]
        },
        {
          "type": "drop-down",
          "title": "Абу-Даби",
          "options": [
            {
              "type": "custom-photos",
              "options": {
                "ids": [
                  "24112456288",
                  "24112455588",
                  "24112455068",
                  "24112454078"
                ],
                "items": [
                  {
                    "id": "24112455588",
                    "owner": "151640904@N03",
                    "secret": "df8c065194",
                    "server": "4454",
                    "farm": 5,
                    "title": "2",
                    "ispublic": 1,
                    "isfriend": 0,
                    "isfamily": 0
                  },
                  {
                    "id": "24112456288",
                    "owner": "151640904@N03",
                    "secret": "f70015822e",
                    "server": "4476",
                    "farm": 5,
                    "title": "51462_620",
                    "ispublic": 1,
                    "isfriend": 0,
                    "isfamily": 0
                  },
                  {
                    "id": "24112455068",
                    "owner": "151640904@N03",
                    "secret": "28ec1b24d2",
                    "server": "4460",
                    "farm": 5,
                    "title": "1aad6f8fd8f64435_abu_dhabi_",
                    "ispublic": 1,
                    "isfriend": 0,
                    "isfamily": 0
                  },
                  {
                    "id": "24112454078",
                    "owner": "151640904@N03",
                    "secret": "65f1677232",
                    "server": "4471",
                    "farm": 5,
                    "title": "140010982",
                    "ispublic": 1,
                    "isfriend": 0,
                    "isfamily": 0
                  }
                ],
                "urls": [
                  "https://farm5.staticflickr.com/4454/24112455588_df8c065194.jpg",
                  "https://farm5.staticflickr.com/4476/24112456288_f70015822e.jpg",
                  "https://farm5.staticflickr.com/4460/24112455068_28ec1b24d2.jpg",
                  "https://farm5.staticflickr.com/4471/24112454078_65f1677232.jpg"
                ],
                "grid": [
                  1,
                  1,
                  1,
                  1
                ]
              }
            },
            {
              "type": "text",
              "options": "Если вы уже осмотрели достопримечательности Дубаи и вам не сидится на месте, отправляйтесь в столицу страны и одноимённого эмирата — Абу-Даби. На поездку стоит выделить целый день."
            },
            {
              "type": "text",
              "options": "Большая часть туристов приезжает в столицу ради крупнейшего в мире крытого тематического парка Ferrari World (работает с 11:00 до 20:00). Подробную информацию о парке можно найти на <a target='_blank' href=\"https://ferrariworldabudhabi.com/park-overview/\">этом сайте</a>. К основным достопримечательностям также относятся падающая башня (Capital Gate), круговой небоскрёб (Aldar HQ), мечеть шейха Зайда, парные небоскрёбы Al Bahar. "
            },
            {
              "type": "map",
              "options": {
                "direction": {
                  "origin": "дубаи",
                  "destination": "абу-даби",
                  "waypoints": []
                }
              }
            },
            {
              "type": "text",
              "options": "Наиболее удобный способ добраться до Абу-Даби — на автобусе E100, который отходит от остановки Dubai Al Ghubaiba. Время в пути — 1 ч 50 мин. Автобусы отходят каждые 10 минут. Точное расписание можно посмотреть на <a target='_blank' href=\"http://dubai-buses.com/\">этом сайте</a>."
            }
          ]
        }
      ]
    },
    {
      "title": "Погода в Дубае",
      "description": [
        {
          "type": "weather",
          "options": {
            "text": "Дубай - Объединенные Арабские Эмираты",
            "lat": 25.2048493,
            "lng": 55.270782800000006
          }
        }
      ]
    }
  ],
  "advices": [
    "Перед тем как ехать в ОАЭ, хотя бы в общих чертах изучите местные порядки, так как даже за незначительное нарушение вам может быть выписан крупный штраф.",
    "Из Дубая выгодно везти ювелирные украшения, сухофрукты, разнообразные специи, восточные сладости, дизайнерскую одежду и обувь, кальян и табак для него, персидские ковры. В качестве сувенира можно привезти и традиционный кинжал.",
    "В Дубае смело пробуйте уличную еду (очень популярны арабские лепешки манакиш с расплавленным сыром, оливками и зеленью). Традиционные блюда: брики (рыба или креветки в тонком тесте), аль мадруба (варёная солёная рыба), разнообразные рыбные кебабы, шаурма, закуски мезе, умм али (хлебный пудинг с сиропом), пахлава.",
    "Местная валюта — дирхам (приблизительно 15,6 ₽)."
  ],
  "afterAdvices": {
    "title": "",
    "text": []
  }
}
