﻿{
  "title": "Тревел-эксперт OneTwoTrip",
  "top": {
    "image": "top/geneva.jpg",
    "topText": [
      "ЖЕНЕВА"
    ],
    "text": "Швейцария",
    "under": ""
  },
  "hideContacts": true,
  "adviceTitle": "Полезная информация",
  "blogFooter": true,
  "about": {
    "hide":true,
    "description": "",
    "price": {
      "cost": "",
      "description": ""
    },
    "map": {
      "point": {
        "location": [
          ""
        ],
        "zoom": "7"
      },
      "poi": {
        "name": "Женева",
        "city_id": 2660646,
        "sight": [
          [
            46.210502,
            6.150585,
            "food",
            "Floor Two"
          ],
          [
            46.203515,
            6.152225,
            "food",
            "5 Lounge"
          ],
          [
            46.210259,
            6.154166,
            "food",
            "La Buvette des Bains des Paquis"
          ],
          [
            46.207366,
            6.142697,
            "food",
            "Manora"
          ],
          [
            46.209105,
            6.150321,
            "food",
            "Le Chat-Botte"
          ],
          [
            46.197418,
            6.143382,
            "food",
            "Aux Merveilleux de Fred"
          ],
          [
            46.204827,
            6.145758,
            "food",
            "Moevenpick Ice Cream Gallery"
          ],
          [
            46.206278,
            6.143377,
            "food",
            "Elsalad"
          ],
          [
            46.201405,
            6.147393,
            "food",
            "Les Armures"
          ],
          [
            46.206472,
            6.130062,
            "food",
            "La Limite"
          ],
          [
            46.221221,
            6.147779,
            "monument",
            "Фабрика Settler"
          ],
          [
            46.233839,
            6.052119,
            "monument",
            "CERN"
          ],
          [
            46.201399,
            6.148565,
            "monument",
            "Международный музей Реформации"
          ],
          [
            46.20019,
            6.144059,
            "children",
            "Парк Бастионов"
          ],
          [
            46.201121,
            6.137866,
            "vine",
            "Le Verre à Monique"
          ],
          [
            46.22682,
            6.13745,
            "museums",
            "Международный музей Красного Креста и Красного Полумесяца"
          ],
          [
            46.20602,
            6.15736,
            "monument",
            "Фонтан Жет д`О"
          ],
          [
            46.204146,
            6.150927,
            "monument",
            "Цветочные часы"
          ],
          [
            46.20131,
            6.14792,
            "monument",
            "Собор Сент-Пьерр"
          ],
          [
            46.20393,
            6.15075,
            "tree",
            "Английский парк"
          ],
          [
            46.19862,
            6.13778,
            "museums",
            "Музей современного искусства (MAMCO)"
          ],
          [
            46.19849,
            6.13797,
            "museums",
            "Музей Patek Philippe"
          ],
          [
            46.22309,
            6.13856,
            "civic",
            "Европейская штаб-квартира ООН"
          ],
          [
            46.23071,
            6.10827,
            "airport",
            "Аэропорт Женева - Куантрен"
          ]
        ],
        "hotels": [],
        "markers": []
      }
    },
    "cities": []
  },
  "og": {
    "title": "Что делать в Женеве",
    "description": "Женева расположена на юго-западной оконечности одноимённого озера, на реке Рона, у подножья Альп и массива Юра, в непосредственной близости от французской границы. Так, Женевский аэропорт используется сразу двумя странами — Швейцарией и соседней Францией. Город является крупным финансовым и научно-исследовательским центром, здесь находятся штаб-квартиры ряда международных организаций (например, Красного Креста)."
  },
  "route": [
    {
      "title": "Что делать в Женеве",
      "description": [
        {
          "type": "text",
          "options": "Женева расположена на юго-западной оконечности одноимённого озера, на реке Рона, у подножья Альп и массива Юра, в непосредственной близости от французской границы. Так, Женевский аэропорт используется сразу двумя странами — Швейцарией и соседней Францией. Город является крупным финансовым и научно-исследовательским центром, здесь находятся штаб-квартиры ряда международных организаций (например, Красного Креста)."
        },
        {
          "type": "custom-photos",
          "options": {
            "ids": [
              "24182165108",
              "37325613564",
              "38003655242",
              "38003770332"
            ],
            "items": [
              {
                "id": "37325613564",
                "owner": "151640904@N03",
                "secret": "3834d1a1f3",
                "server": "4466",
                "farm": 5,
                "title": "VueAerienne©GeneveTourisme_Zellweger-1-1024x681",
                "ispublic": 1,
                "isfriend": 0,
                "isfamily": 0
              },
              {
                "id": "24182165108",
                "owner": "151640904@N03",
                "secret": "ff687e9dcc",
                "server": "4469",
                "farm": 5,
                "title": "4 (1)",
                "ispublic": 1,
                "isfriend": 0,
                "isfamily": 0
              },
              {
                "id": "38003655242",
                "owner": "151640904@N03",
                "secret": "34a196c9ba",
                "server": "4485",
                "farm": 5,
                "title": "179350559",
                "ispublic": 1,
                "isfriend": 0,
                "isfamily": 0
              },
              {
                "id": "38003770332",
                "owner": "151640904@N03",
                "secret": "064c51b166",
                "server": "4483",
                "farm": 5,
                "title": "100208164-Geneva_Switzerland_gettyP.1910x1000",
                "ispublic": 1,
                "isfriend": 0,
                "isfamily": 0
              }
            ],
            "urls": [
              "https://farm5.staticflickr.com/4466/37325613564_3834d1a1f3.jpg",
              "https://farm5.staticflickr.com/4469/24182165108_ff687e9dcc.jpg",
              "https://farm5.staticflickr.com/4485/38003655242_34a196c9ba.jpg",
              "https://farm5.staticflickr.com/4483/38003770332_064c51b166.jpg"
            ],
            "grid": [
              1,
              1,
              1,
              1
            ]
          }
        },
        {
          "type": "drop-down",
          "title": "Как добраться из аэропорта",
          "options": [
            {
              "type": "text",
              "options": "Аэропорт находится в черте города, поэтому до центра Женевы можно добраться очень быстро (расстояние составляет всего 4 км). Как и в любом городе, в качестве транспорта можно использовать такси (обойдется вам приблизительно в 35 франков). Удобнее всего воспользоваться поездом (отходят каждые 12 минут) или автобусом (ходят с интервалами в 20 минут), расписание можно уточнить на месте."
            },
            {
              "type": "text",
              "options": "Добраться из аэропорта до города можно бесплатно, получив по прилёту в зоне выдачи багажа специальный билет, дающий право на проезд в общественном транспорте кантона Женева (действителен 80 минут). Автомат по выдаче билетов нетрудно найти по вывеске Bilet Gratuit. "
            },
            {
              "type": "text",
              "options": "Кроме того, до некоторых отелей осуществляется бесплатный трансфер на автобусе (список можно посмотреть <a target='_blank' href=\"https://www.gva.ch/en/desktopdefault.aspx/tabid-67/\">на сайте</a>)."
            }
          ]
        },
        {
          "type": "drop-down",
          "title": "Geneva Pass",
          "options": [
            {
              "type": "text",
              "options": "Карта представляет собой сити-пасс, который можно приобрести на один (26 франков), два (37 франков) или три дня (45 франков). Geneva Pass дает право на бесплатное посещение достопримечательностей и участие в различных мероприятиях (например, круиз по Женевскому озеру) — всего 41 вариант. Также предусмотрено безлимитное пользование общественным транспортом. "
            },
            {
              "type": "text",
              "options": "Карту легко приобрести онлайн <a target='_blank' href=\"https://www.geneve.com/en/see-do/geneva-pass/\">на сайте</a>."
            }
          ]
        },
        {
          "type": "drop-down",
          "title": "Что смотреть",
          "options": [
            {
              "type": "custom-photos",
              "options": {
                "ids": [
                  "38003179332",
                  "24181651438",
                  "24181651018",
                  "24181650668"
                ],
                "items": [
                  {
                    "id": "38003179332",
                    "owner": "151640904@N03",
                    "secret": "3e8cdc12f4",
                    "server": "4503",
                    "farm": 5,
                    "title": "x-default",
                    "ispublic": 1,
                    "isfriend": 0,
                    "isfamily": 0
                  },
                  {
                    "id": "24181651438",
                    "owner": "151640904@N03",
                    "secret": "95a1ccc155",
                    "server": "4514",
                    "farm": 5,
                    "title": "131110",
                    "ispublic": 1,
                    "isfriend": 0,
                    "isfamily": 0
                  },
                  {
                    "id": "24181651018",
                    "owner": "151640904@N03",
                    "secret": "0ebfaa32c1",
                    "server": "4471",
                    "farm": 5,
                    "title": "Цветочные-часы-1",
                    "ispublic": 1,
                    "isfriend": 0,
                    "isfamily": 0
                  },
                  {
                    "id": "24181650668",
                    "owner": "151640904@N03",
                    "secret": "6c78939694",
                    "server": "4475",
                    "farm": 5,
                    "title": "Reformation-Wall-0934",
                    "ispublic": 1,
                    "isfriend": 0,
                    "isfamily": 0
                  }
                ],
                "urls": [
                  "https://farm5.staticflickr.com/4503/38003179332_3e8cdc12f4.jpg",
                  "https://farm5.staticflickr.com/4514/24181651438_95a1ccc155.jpg",
                  "https://farm5.staticflickr.com/4471/24181651018_0ebfaa32c1.jpg",
                  "https://farm5.staticflickr.com/4475/24181650668_6c78939694.jpg"
                ],
                "grid": [
                  1,
                  1,
                  1,
                  1
                ]
              }
            },
            {
              "type": "title",
              "options": "Женевское озеро и фонтан Jet d`Eau"
            },
            {
              "type": "text",
              "options": "Фонтан является одним из символов города, достигает 140 метров в высоту."
            },
            {
              "type": "title",
              "options": "Дворец Наций"
            },
            {
              "type": "text",
              "options": "Дворец представляет собой комплекс зданий, расположенных в парке Ариана, и является штаб-квартирой европейского отделения ООН. Доступен для посещений в составе экскурсий. "
            },
            {
              "type": "text",
              "options": "На площади Наций в связи с подписанием международной конвенции о запрете противопехотных мин, установлена двенадцатиметровая скульптура стула со сломанной ножкой."
            },
            {
              "type": "text",
              "options": "Время работы Дворца: с сентября по март с 10:30 до 12:00 и с 14:30 до 16:00 только в будние дни, в остальные месяцы Дворец также открыт для посещений и в субботу."
            },
            {
              "type": "text",
              "options": "Адрес: Palace of Nations."
            },
            {
              "type": "title",
              "options": "Цветочные часы"
            },
            {
              "type": "text",
              "options": "Часы расположены в Английском саду - небольшой ландшафтный парк на берегу озера, выполненный в традиционном английском стиле. Они символизируют роль Женевы в мировой часовой промышленности. Часы сформированы из более чем 6 000 живых цветов и несколько раз за лето меняют цветовую гамму циферблата."
            },
            {
              "type": "text",
              "options": "Адрес: Quai du Général-Guisan. 34."
            },
            {
              "type": "title",
              "options": "Парк Бастионов"
            },
            {
              "type": "text",
              "options": "Парк расположен в самом центре города. Здесь находится стена Реформации, городская ратуша и старое университетское здание с библиотекой."
            },
            {
              "type": "text",
              "options": "Адрес: Parc des Bastions - Promenade des Bastions, 1."
            },
            {
              "type": "custom-photos",
              "options": {
                "ids": [
                  "38033752181",
                  "38033752701",
                  "37980430516",
                  "38033753211"
                ],
                "items": [
                  {
                    "id": "38033753211",
                    "owner": "151640904@N03",
                    "secret": "5688bd297a",
                    "server": "4467",
                    "farm": 5,
                    "title": "женевский-собор",
                    "ispublic": 1,
                    "isfriend": 0,
                    "isfamily": 0
                  },
                  {
                    "id": "38033752701",
                    "owner": "151640904@N03",
                    "secret": "969fb331a0",
                    "server": "4513",
                    "farm": 5,
                    "title": "800x600_44412-sitrapcu517015_36880_cernglobe1",
                    "ispublic": 1,
                    "isfriend": 0,
                    "isfamily": 0
                  },
                  {
                    "id": "37980430516",
                    "owner": "151640904@N03",
                    "secret": "6f97fddaba",
                    "server": "4460",
                    "farm": 5,
                    "title": "44fe897acb",
                    "ispublic": 1,
                    "isfriend": 0,
                    "isfamily": 0
                  },
                  {
                    "id": "38033752181",
                    "owner": "151640904@N03",
                    "secret": "62578ddbba",
                    "server": "4490",
                    "farm": 5,
                    "title": "resized_650x365_648550",
                    "ispublic": 1,
                    "isfriend": 0,
                    "isfamily": 0
                  }
                ],
                "urls": [
                  "https://farm5.staticflickr.com/4467/38033753211_5688bd297a.jpg",
                  "https://farm5.staticflickr.com/4513/38033752701_969fb331a0.jpg",
                  "https://farm5.staticflickr.com/4460/37980430516_6f97fddaba.jpg",
                  "https://farm5.staticflickr.com/4490/38033752181_62578ddbba.jpg"
                ],
                "grid": [
                  1,
                  1,
                  1,
                  1
                ]
              }
            },
            {
              "type": "title",
              "options": "Собор Святого Петра"
            },
            {
              "type": "text",
              "options": "Собор был построен в XII веке. С северной башни (на которую можно подняться, преодолев 157 ступеней), вам откроется потрясающий вид на город и Женевское озеро. Вход в собор бесплатный, а подняться на башню стоит 5 франков."
            },
            {
              "type": "text",
              "options": "Время работы: с октября по май: 10:00 — 17:30 (понедельник-суббота), 12:00 — 17:30 (воскресенье), башни открыты до 17:00. В летние месяцы время работы увеличено на час."
            },
            {
              "type": "text",
              "options": "Адрес: Place du Bourg-de-Four, 24."
            },
            {
              "type": "title",
              "options": "CERN"
            },
            {
              "type": "text",
              "options": "Рекомендуем посетить музей науки и инноваций при CERN (Европейский центр ядерных исследований). CERN располагает крупнейшей в мире лабораторией физики высоких энергий. Экскурсионные туры организуются с понедельника по субботу для групп по 12-48 человек. Тур стартует в 09:00 и 14:00, продолжительность составляет около трёх часов. Необходимо предварительное <a target='_blank' href=\"http://microcosm.web.cern.ch/fr\">бронирование</a>. Вход по Geneva Pass бесплатный."
            },
            {
              "type": "text",
              "options": "Адрес: Route de Meyrin, 385."
            },
            {
              "type": "title",
              "options": "Международный музей Красного Креста и Красного Полумесяца"
            },
            {
              "type": "text",
              "options": "Музей посвящен самой большой гуманитарной организации в мире. Экспозиция поделена на тематические разделы, каждый из которых позволяет оценить масштаб деятельности организации. По Geneva Pass вход бесплатный."
            },
            {
              "type": "text",
              "options": "Время работы: 10:00 — 17:00 (ежедневно, кроме понедельника)."
            },
            {
              "type": "text",
              "options": "Адрес: Avenue de la Paix, 17."
            },
            {
              "type": "title",
              "options": "Музей современного искусства"
            },
            {
              "type": "text",
              "options": "MAMCO – самый большой музей современного искусства в Швейцарии. Основу экспозиции составляет коллекция, насчитывающая 4 тысячи экспонатов. Вход по Geneva Pass бесплатный."
            },
            {
              "type": "text",
              "options": "Время работы: 12:00 — 18:00 (вторник-пятница), 11:00 — 18:00 (суббота-воскресенье), понедельник — выходной день."
            },
            {
              "type": "text",
              "options": "Адрес:  Rue des Vieux-Grenadiers, 10."
            },
            {
              "type": "title",
              "options": "Музей часов"
            },
            {
              "type": "text",
              "options": "Посетите музей часового мастерства Patek Philippe. В музее представлены наиболее интересные творения ведущих часовых мастеров, созданные не только в Швейцарии, но и в остальных европейских странах. Также в музее есть богатая библиотека, посвященная часовому делу. Вход по карте Geneva Pass бесплатный."
            },
            {
              "type": "text",
              "options": "Время работы: 14:00 — 18:00 (вторник-пятница), 10:00-18:00 (суббота)."
            },
            {
              "type": "text",
              "options": "Адрес: Rue des Vieux-Grenadiers 7."
            },
            {
              "type": "title",
              "options": "Международный музей Реформации"
            },
            {
              "type": "text",
              "options": "Как следует из самого названия музея, его коллекция предметов искусства рассказывает историю одного из наиболее значимых христианских религиозных движений — движения Реформации. По Geneva Pass вход бесплатный."
            },
            {
              "type": "text",
              "options": "Время работы: 10:00 — 17:00 (вторник-воскресенье)."
            },
            {
              "type": "text",
              "options": "Адрес:  Rue du Cloître, 4."
            },
            {
              "type": "title",
              "options": "Рынок Carouge "
            },
            {
              "type": "text",
              "options": "Это известный фермерский рынок, который работает по средам и субботам (здесь можно купить свежие овощи, фрукты и цветы)."
            },
            {
              "type": "text",
              "options": "Адрес: Place du marché, 14."
            },
            {
              "type": "title",
              "options": "Фабрика Stettler"
            },
            {
              "type": "text",
              "options": "Посетите шоколадную мастерскую Stettler. Там вам не только расскажут об истории производства шоколада, но и покажут сам процесс. Экскурсии проводятся с понедельника по пятницу с 08:00 по 14:00 (с января по ноябрь) по предварительной записи. Цена зависит от количества человек в группе и продолжительности экскурсии, уточнить её можно <a target='_blank' href=\" http://www.chocolaterie-stettler.ch/\">на сайте</a>."
            },
            {
              "type": "text",
              "options": "Адрес: Avenue Blanc, 49."
            },
            {
              "type": "title",
              "options": "Прокат велосипедов"
            },
            {
              "type": "text",
              "options": "Возьмите напрокат велосипед и исследуйте окрестности Женевы (сезон с апреля по конец октября). На 4 часа велосипед можно арендовать совершенно бесплатно, далее плата будет составлять два франка за каждый дополнительный час. Для того чтобы получить велосипед, необходимо предъявить паспорт и оставить депозит в 20 франков. Прокат открыт ежедневно с 07:00 до 21:00. Все подробности и адреса станций можно найти <a target='_blank' href=\" http://www.geneveroule.ch/drupal/en/node/62\">на сайте</a> ."
            }
          ]
        },
        {
          "type": "drop-down",
          "title": "Где поесть",
          "options": [
            {
              "type": "custom-photos",
              "options": {
                "ids": [
                  "24181926468",
                  "37980600696",
                  "37980600346",
                  "38003382852"
                ],
                "items": [
                  {
                    "id": "37980600696",
                    "owner": "151640904@N03",
                    "secret": "839cbc5c47",
                    "server": "4452",
                    "farm": 5,
                    "title": "le-bain-des-paquis",
                    "ispublic": 1,
                    "isfriend": 0,
                    "isfamily": 0
                  },
                  {
                    "id": "37980600346",
                    "owner": "151640904@N03",
                    "secret": "bb92983d03",
                    "server": "4457",
                    "farm": 5,
                    "title": "manora-restaurant-key-visual-1716-21x9",
                    "ispublic": 1,
                    "isfriend": 0,
                    "isfamily": 0
                  },
                  {
                    "id": "38003382852",
                    "owner": "151640904@N03",
                    "secret": "d7c020072c",
                    "server": "4495",
                    "farm": 5,
                    "title": "Merveilleux6",
                    "ispublic": 1,
                    "isfriend": 0,
                    "isfamily": 0
                  },
                  {
                    "id": "24181926468",
                    "owner": "151640904@N03",
                    "secret": "64f63b3c2b",
                    "server": "4495",
                    "farm": 5,
                    "title": "114404_1",
                    "ispublic": 1,
                    "isfriend": 0,
                    "isfamily": 0
                  }
                ],
                "urls": [
                  "https://farm5.staticflickr.com/4452/37980600696_839cbc5c47.jpg",
                  "https://farm5.staticflickr.com/4457/37980600346_bb92983d03.jpg",
                  "https://farm5.staticflickr.com/4495/38003382852_d7c020072c.jpg",
                  "https://farm5.staticflickr.com/4495/24181926468_64f63b3c2b.jpg"
                ],
                "grid": [
                  1,
                  1,
                  1,
                  1
                ]
              }
            },
            {
              "type": "title",
              "options": "La Buvette des Bains des Paquis"
            },
            {
              "type": "text",
              "options": "Ресторан находится в центре города, прямо на пирсе. Его стоит посетить ради фондю и приятного вида на озеро."
            },
            {
              "type": "text",
              "options": "Адрес: Quai du Mont-Blanc, 30."
            },
            {
              "type": "title",
              "options": "Manora"
            },
            {
              "type": "text",
              "options": "Ресторан находится на верхнем этаже торгового центра, работает по принципу буфета. Неплохой вариант поесть вкусно и недорого (что редкость для Швейцарии)."
            },
            {
              "type": "text",
              "options": "Адрес: Centre Commercial Manor, Rue de Cornavin, 6."
            },
            {
              "type": "title",
              "options": "Elsalad"
            },
            {
              "type": "text",
              "options": "Как следует из названия, заведение специализируется на салатах, в меню их огромное количество. А значит, место идеально подходит для вегетарианцев. Для Швейцарии цены невысокие."
            },
            {
              "type": "text",
              "options": "Адрес:  Rue des Etuves, 9."
            },
            {
              "type": "title",
              "options": " La Limite"
            },
            {
              "type": "text",
              "options": "Уютный ресторанчик с большими порциями и доступными ценами. Здесь можно попробовать стейк из конины."
            },
            {
              "type": "text",
              "options": "Адрес: Rue des Charmilles, 11."
            },
            {
              "type": "title",
              "options": "Les Armures"
            },
            {
              "type": "text",
              "options": "По-домашнему уютный ресторан, расположенный в самом центре. Прекрасное место для того, чтобы отведать швейцарские сырные блюда (в первую очередь, фондю). Столик лучше бронировать заранее."
            },
            {
              "type": "text",
              "options": "Адрес:  Rue du Puits-Saint-Pierre, 1."
            },
            {
              "type": "title",
              "options": "Aux Merveilleux de Fred"
            },
            {
              "type": "text",
              "options": "В этой кондитерской вас ждут вкусные десерты."
            },
            {
              "type": "text",
              "options": "Адрес: Rond-Point de Plainpalais, 9."
            },
            {
              "type": "title",
              "options": "Moevenpick Ice Cream Gallery"
            },
            {
              "type": "text",
              "options": "За самым вкусным мороженым в вашей жизни отправляйтесь в это кафе. К слову, родина мороженого Moevenpick — Швейцария."
            },
            {
              "type": "text",
              "options": "Адрес: Rue du Rhône, 19."
            },
            {
              "type": "title",
              "options": "Le Chat-Botte"
            },
            {
              "type": "text",
              "options": "Это ресторан с мишленовской звездой, относится к высокой кухне. Каждое блюдо представляет собой произведение искусства. Столик желательно бронировать заранее, так как без этого внутрь можно просто не попасть."
            },
            {
              "type": "text",
              "options": "Адрес: Quai du Mont-Blanc, 13."
            }
          ]
        },
        {
          "type": "drop-down",
          "title": "Куда сходить вечером",
          "options": [
            {
              "type": "custom-photos",
              "options": {
                "ids": [
                  "26257837889",
                  "24181801438",
                  "24181801018",
                  "38003316742"
                ],
                "items": [
                  {
                    "id": "38003316742",
                    "owner": "151640904@N03",
                    "secret": "d6ae7437cd",
                    "server": "4510",
                    "farm": 5,
                    "title": "floor-two-bar-terrace",
                    "ispublic": 1,
                    "isfriend": 0,
                    "isfamily": 0
                  },
                  {
                    "id": "24181801018",
                    "owner": "151640904@N03",
                    "secret": "337f689ac0",
                    "server": "4492",
                    "farm": 5,
                    "title": "swissotel-6-copy",
                    "ispublic": 1,
                    "isfriend": 0,
                    "isfamily": 0
                  },
                  {
                    "id": "26257837889",
                    "owner": "151640904@N03",
                    "secret": "ed604d1bf9",
                    "server": "4482",
                    "farm": 5,
                    "title": "15df5153fa0b0eb1f6424d7a497cb512--vintage-cocktails-geneva-switzerland",
                    "ispublic": 1,
                    "isfriend": 0,
                    "isfamily": 0
                  },
                  {
                    "id": "24181801438",
                    "owner": "151640904@N03",
                    "secret": "d139f51a38",
                    "server": "4505",
                    "farm": 5,
                    "title": "image",
                    "ispublic": 1,
                    "isfriend": 0,
                    "isfamily": 0
                  }
                ],
                "urls": [
                  "https://farm5.staticflickr.com/4510/38003316742_d6ae7437cd.jpg",
                  "https://farm5.staticflickr.com/4492/24181801018_337f689ac0.jpg",
                  "https://farm5.staticflickr.com/4482/26257837889_ed604d1bf9.jpg",
                  "https://farm5.staticflickr.com/4505/24181801438_d139f51a38.jpg"
                ],
                "grid": [
                  1,
                  1,
                  1,
                  1
                ]
              }
            },
            {
              "type": "title",
              "options": "Floor Two"
            },
            {
              "type": "text",
              "options": "Вечером можно посетить лаунж Floor Two, в котором вас ждёт не только широкий выбор коктейлей, но и панорамный вид на Женевское озеро."
            },
            {
              "type": "text",
              "options": "Адрес: Quai du Mont-Blanc, 19."
            },
            {
              "type": "title",
              "options": "5 Lounge"
            },
            {
              "type": "text",
              "options": "Ещё один лаунж на крыше с потрясающим видом и оригинальными коктейлями — 5 Lounge."
            },
            {
              "type": "text",
              "options": "Адрес: Quai du Général-Guisan, 34."
            },
            {
              "type": "title",
              "options": "Le Verre a Monique"
            },
            {
              "type": "text",
              "options": "Оживлённый бар со своей атмосферой. Столик лучше бронировать заранее."
            },
            {
              "type": "text",
              "options": "Адрес: Rue des Savoises, 19."
            }
          ]
        },
        {
          "type": "drop-down",
          "title": "Окрестности Женевы",
          "options": [
            {
              "type": "title",
              "options": "Гора Салев (Mont-Salève)"
            },
            {
              "type": "custom-photos",
              "options": {
                "ids": [
                  "38003608822",
                  "38003608312",
                  "24182086348",
                  "38003607922"
                ],
                "items": [
                  {
                    "id": "24182086348",
                    "owner": "151640904@N03",
                    "secret": "d30edafb40",
                    "server": "4469",
                    "farm": 5,
                    "title": "view-of-geneva-from-the-saleve",
                    "ispublic": 1,
                    "isfriend": 0,
                    "isfamily": 0
                  },
                  {
                    "id": "38003608822",
                    "owner": "151640904@N03",
                    "secret": "5fd38efac6",
                    "server": "4447",
                    "farm": 5,
                    "title": "30066_web_1280x960",
                    "ispublic": 1,
                    "isfriend": 0,
                    "isfamily": 0
                  },
                  {
                    "id": "38003607922",
                    "owner": "151640904@N03",
                    "secret": "fa90f44093",
                    "server": "4463",
                    "farm": 5,
                    "title": "30345_web_1280x960",
                    "ispublic": 1,
                    "isfriend": 0,
                    "isfamily": 0
                  },
                  {
                    "id": "38003608312",
                    "owner": "151640904@N03",
                    "secret": "3ae5b593d8",
                    "server": "4505",
                    "farm": 5,
                    "title": "img_1104",
                    "ispublic": 1,
                    "isfriend": 0,
                    "isfamily": 0
                  }
                ],
                "urls": [
                  "https://farm5.staticflickr.com/4469/24182086348_d30edafb40.jpg",
                  "https://farm5.staticflickr.com/4447/38003608822_5fd38efac6.jpg",
                  "https://farm5.staticflickr.com/4463/38003607922_fa90f44093.jpg",
                  "https://farm5.staticflickr.com/4505/38003608312_3ae5b593d8.jpg"
                ],
                "grid": [
                  1,
                  1,
                  1,
                  1
                ]
              }
            },
            {
              "type": "text",
              "options": "Гора представляет собой смотровую площадку, с которой просматривается весь город и окрестности. На вершину можно подняться на фуникулёре, который поднимет вас на высоту в 1100 метров за пять минут (работает ежедневно с апреля по октябрь). Достопримечательность расположена в 20 км от Женевы, поездка займет около 40 минут. Удобнее всего добраться на автобусе №8 (отходит от вокзала Gare de Cornavin)."
            },
            {
              "type": "text",
              "options": "Адрес: Mont-Salève — Route des 3 Lacs - 74560 Monnetier-Mornex."
            },
            {
              "type": "title",
              "options": " Шамони — Монблан (Chamonix-Mont-Blanc)"
            },
            {
              "type": "custom-photos",
              "options": {
                "ids": [
                  "37325488454",
                  "37980738016",
                  "38003499022",
                  "38003498782"
                ],
                "items": [
                  {
                    "id": "38003499022",
                    "owner": "151640904@N03",
                    "secret": "d318e16350",
                    "server": "4477",
                    "farm": 5,
                    "title": "chamonix-mont-blanc-31853_w600",
                    "ispublic": 1,
                    "isfriend": 0,
                    "isfamily": 0
                  },
                  {
                    "id": "37325488454",
                    "owner": "151640904@N03",
                    "secret": "89454cc3c0",
                    "server": "4444",
                    "farm": 5,
                    "title": "Brevent-panoramique-terrasse--mt-blanc-m.dalmasso-h",
                    "ispublic": 1,
                    "isfriend": 0,
                    "isfamily": 0
                  },
                  {
                    "id": "37980738016",
                    "owner": "151640904@N03",
                    "secret": "43ccbba8b0",
                    "server": "4502",
                    "farm": 5,
                    "title": "Chamonix-Mont-Blanc",
                    "ispublic": 1,
                    "isfriend": 0,
                    "isfamily": 0
                  },
                  {
                    "id": "38003498782",
                    "owner": "151640904@N03",
                    "secret": "70a8ec1fc3",
                    "server": "4511",
                    "farm": 5,
                    "title": "h1",
                    "ispublic": 1,
                    "isfriend": 0,
                    "isfamily": 0
                  }
                ],
                "urls": [
                  "https://farm5.staticflickr.com/4477/38003499022_d318e16350.jpg",
                  "https://farm5.staticflickr.com/4444/37325488454_89454cc3c0.jpg",
                  "https://farm5.staticflickr.com/4502/37980738016_43ccbba8b0.jpg",
                  "https://farm5.staticflickr.com/4511/38003498782_70a8ec1fc3.jpg"
                ],
                "grid": [
                  1,
                  1,
                  1,
                  1
                ]
              }
            },
            {
              "type": "text",
              "options": "При наличии времени и желания рекомендуем совершить поездку к высочайшей европейской вершине — горе Монблан. Поездка из Женевы до французской деревни Шамони — Монблан займёт около полутора часов. Оттуда можно на фуникулёре подняться к горной вершине. Ориентировочная стоимость экскурсии для взрослого составляет 139 франков, по карте Geneva Pass предусмотрена скидка в 10 %. Забронировать экскурсию можно <a target='_blank' href=\" https://booking.geneve-tourisme.ch/Geneve/offer/detail/TDS00020010420990786?globalReset=1&persistentParameters=1&lang=en\">на сайте</a> ."
            },
            {
              "type": "title",
              "options": "Анси (Annecy)"
            },
            {
              "type": "custom-photos",
              "options": {
                "ids": [
                  "38034009851",
                  "38034009251",
                  "38003452272",
                  "37980701896"
                ],
                "items": [
                  {
                    "id": "38034009251",
                    "owner": "151640904@N03",
                    "secret": "7cc4ba35fd",
                    "server": "4443",
                    "farm": 5,
                    "title": "Annecy-La-vieille-ville-et-le-Thiou-s",
                    "ispublic": 1,
                    "isfriend": 0,
                    "isfamily": 0
                  },
                  {
                    "id": "38034009851",
                    "owner": "151640904@N03",
                    "secret": "4215ffa033",
                    "server": "4505",
                    "farm": 5,
                    "title": "Annecy-12-1",
                    "ispublic": 1,
                    "isfriend": 0,
                    "isfamily": 0
                  },
                  {
                    "id": "38003452272",
                    "owner": "151640904@N03",
                    "secret": "349dc55b76",
                    "server": "4450",
                    "farm": 5,
                    "title": "4ef9715b62b0e",
                    "ispublic": 1,
                    "isfriend": 0,
                    "isfamily": 0
                  },
                  {
                    "id": "37980701896",
                    "owner": "151640904@N03",
                    "secret": "ed93c88191",
                    "server": "4504",
                    "farm": 5,
                    "title": "canals2",
                    "ispublic": 1,
                    "isfriend": 0,
                    "isfamily": 0
                  }
                ],
                "urls": [
                  "https://farm5.staticflickr.com/4443/38034009251_7cc4ba35fd.jpg",
                  "https://farm5.staticflickr.com/4505/38034009851_4215ffa033.jpg",
                  "https://farm5.staticflickr.com/4450/38003452272_349dc55b76.jpg",
                  "https://farm5.staticflickr.com/4504/37980701896_ed93c88191.jpg"
                ],
                "grid": [
                  1,
                  1,
                  1,
                  1
                ]
              }
            },
            {
              "type": "text",
              "options": "Если у вас остаётся время, рекомендуем посетить французский город Анси, который часто называют «Альпийской Венецией». Анси расположен в 40 км от Женевы, наиболее простой способ добраться до него — на автобусе (поездка займет около 50 минут). Забронировать билеты на автобус можно, например, <a target='_blank' href=\"https://shop.flixbus.com/search?uid=direct%3A56762958%3A4208%3A5058&bikes=0&children=0&departureCity=3298&adults=1&currency=EUR&departureStation=4208&arrivalCity=3928&arrivalStation=5058&rideDate=20.09.2017&deep_link_lang=en&utm_medium=affiliate&utm_source=goeuro&wt_mc=paid.com.flixbus.meta.goeuro.goeuro_com.NS.ad#Q0Scom_295bc0db-8657-45d6-9008-276f48746745C734\">здесь</a>. "
            }
          ]
        }
      ]
    },
    {
      "title": "Погода в Женеве",
      "description": [
        {
          "type": "weather",
          "options": {
            "lat": 46.2043907,
            "lng": 6.143157699999961,
            "text": "Женева, Швейцария"
          }
        }
      ]
    }
  ],
  "advices": [
    "Время и дни работы большинства музеев зависят от сезона, поэтому данную информацию лучше заранее уточнять на сайте.",
    "На территории города есть точки с бесплатным Wi-Fi (например, берег Женевского озера). Полный список можно посмотреть <a target='_blank' href=\"http://www.ville-ge.ch/dsic/wifi/carte\">на этой странице</a>.",
    "Отличная идея для сувенира — смесь для фондю (продается в любом продуктовом магазине), шоколад, сыры . Выгоднее всего совершать покупки в магазинах Coop или Migros на французской стороне.",
    "Помимо традиционного фондю попробуйте в Женеве Racklette (местный обжаренный сыр), Tartiflette (деревенская запеканка с сыром реблошон), Rosti (блюдо из тёртого картофеля)."
  ],
  "afterAdvices": {
    "title": "",
    "text": []
  }
}
