﻿{
  "title": "Тревел-эксперт OneTwoTrip",
  "top": {
    "image": "top/malaga.jpg",
    "topText": [
      "Малага"
    ],
    "text": "Испания",
    "under": ""
  },
  "hideContacts": true,
  "adviceTitle": "Полезная информация",
  "blogFooter": true,
  "about": {
    "hide":true,
    "description": "",
    "price": {
      "cost": "",
      "description": ""
    },
    "map": {
      "poi":{
        "sight":[
[36.721146, -4.415875, "castle", "Крепость Алькасаба"],
[36.723320, -4.411669, "castle", "Крепость Хибральфаро"],
[36.720170, -4.419313, "church", "Малагский собор"],
[36.699712, -4.438602, "monument", "Автомобильный музей"],
[36.721680, -4.418455, "monument", "Музей Пикассо"],
[36.721411, -4.422994, "monument", "Музей Кармен Тиссен"],
[36.714498, -4.425538, "monument", "Центр современного искусства"],
[36.718094, -4.424600, "shopping", "Рынок Mercado Central de Atarazanas"],
[36.720527, -4.402384, "children", "Пляж Ла-Малагета"],
[36.718321, -4.422298, "food", "Marisqueria Casa Vicente"],
[36.718910, -4.423252, "food", "Casa Aranda"],
[36.724190, -4.421507, "food", "La Tranca"],
[36.722349, -4.422664, "food", "Dulces Dreams"],
[36.720489, -4.421095, "food", "La Farola de Orellana"],
[36.723637, -4.419353, "fastfood", "BlackLabel Urban Grill"],
[36.719524, -4.421493, "icecream", "Casa Mira"],
[36.717773, -4.423345, "cocktail", "Antigua Casa de Guardia"],
[36.720670, -4.421801, "cocktail", "Terraza de Larios"],
[36.721699, -4.417714, "cocktail", "Bodega Bar El Pimpi"],
[36.722685, -4.421559, "cocktail", "El Cantor de Jazz"]
        ]
      }
    },
    "cities": []
  },
  "og": {
    "title": "Что делать в Малаге",
    "description": "Малага — это крупный портовый город на юге Испании, расположившийся в живописной бухте, окруженной горными хребтами. Малага была основана финикийцами в VIII веке до н.э., что делает её одним из древнейших городов Европы. Здесь вас ждут извилистые улочки отлично сохранившегося исторического центра, современные районы с крупными торговыми центрами, старинные крепости, интересные музеи, а также потрясающая природа, отличные пляжи и вкуснейшая местная кухня. Город известен как родина Пабло Пикассо."
  },
  "route": [
    {
      "title": "Что делать в Малаге",
      "description": [
        {
          "type": "text",
          "options": "Малага — это крупный портовый город на юге Испании, расположившийся в живописной бухте, окруженной горными хребтами. Малага была основана финикийцами в VIII веке до н.э., что делает её одним из древнейших городов Европы. Здесь вас ждут извилистые улочки отлично сохранившегося исторического центра, современные районы с крупными торговыми центрами, старинные крепости, интересные музеи, а также потрясающая природа, отличные пляжи и вкуснейшая местная кухня. Город известен как родина Пабло Пикассо."
        },
        {
          "type": "custom-photos",
          "options": {
            "ids": [
              "27276985239",
              "27276957589",
              "27276956699",
              "27277072599"
            ],
            "items": [
              {
                "id": "27276985239",
                "owner": "151640904@N03",
                "secret": "b6d232c1b6",
                "server": "4551",
                "farm": 5,
                "title": "Malaga-Church-2050x1200_1",
                "ispublic": 1,
                "isfriend": 0,
                "isfamily": 0
              },
              {
                "id": "27276957589",
                "owner": "151640904@N03",
                "secret": "89a4cbcc5a",
                "server": "4596",
                "farm": 5,
                "title": "Calle-larios-malaga-christmas-shopping",
                "ispublic": 1,
                "isfriend": 0,
                "isfamily": 0
              },
              {
                "id": "27277072599",
                "owner": "151640904@N03",
                "secret": "2c01ffdb0a",
                "server": "4528",
                "farm": 5,
                "title": "Treten-einen-Fußball-auf-Playa-de-dem-la-Malagueta-in-Málaga-iStock_62821768_XLARGE-EDITORIAL-ONLY-Joel-Carillet-2-707x472",
                "ispublic": 1,
                "isfriend": 0,
                "isfamily": 0
              },
              {
                "id": "27276956699",
                "owner": "151640904@N03",
                "secret": "4646fe911d",
                "server": "4688",
                "farm": 5,
                "title": "1491593019338",
                "ispublic": 1,
                "isfriend": 0,
                "isfamily": 0
              }
            ],
            "urls": [
              "https://farm5.staticflickr.com/4551/27276985239_b6d232c1b6.jpg",
              "https://farm5.staticflickr.com/4596/27276957589_89a4cbcc5a.jpg",
              "https://farm5.staticflickr.com/4528/27277072599_2c01ffdb0a.jpg",
              "https://farm5.staticflickr.com/4688/27276956699_4646fe911d.jpg"
            ],
            "grid": [
              1,
              1,
              1,
              1
            ]
          }
        },
        {
          "type": "drop-down",
          "title": "Как добраться из аэропорта",
          "options": [
            {
              "type": "text",
              "options": "Аэропорт расположен всего в 8 км от Малаги, поэтому до города вы доберётесь достаточно быстро. Удобнее всего доехать на пригородном поезде С1, остановка которого находится в терминале № 3. Ориентируйтесь на указатели с надписью RENFE, это компания-оператор всех поездов в Испании. Поезда отправляются каждые 20 минут, а время в пути составит всего 12 минут. Билет можно купить в одном из автоматов при входе на станцию (автоматы принимают наличные и карты). Стоимость билета на поезд зависит от количества зон, которые вы проедете."
            },
            {
              "type": "text",
              "options": "Также до Малаги можно добраться на автобусе. Поездка на экспресс-автобусе линии А займёт около 15 минут, стоимость билета — около 3 евро. Киоск по продаже билетов расположен сразу у выхода из зоны прилёта; билет также можно купить непосредственно у водителя. Автобусы отправляются каждые 20-25 минут с 07:00 до 00:00."
            },
            {
              "type": "text",
              "options": "Конечно, комфортнее всего добраться до отеля, воспользовавшись услугами такси. Поездка до центра города обойдется вам в среднем в 20 евро."
            }
          ]
        },
        {
          "type": "drop-down",
          "title": "Что смотреть",
          "options": [
            {
              "type": "custom-photos",
              "options": {
                "ids": [
                  "39021800182",
                  "25186405008",
                  "39053308011",
                  "38172080425"
                ],
                "items": [
                  {
                    "id": "39021800182",
                    "owner": "151640904@N03",
                    "secret": "417da03146",
                    "server": "4594",
                    "farm": 5,
                    "title": "arc_1211_g",
                    "ispublic": 1,
                    "isfriend": 0,
                    "isfamily": 0
                  },
                  {
                    "id": "25186405008",
                    "owner": "151640904@N03",
                    "secret": "c83b6842ee",
                    "server": "4738",
                    "farm": 5,
                    "title": "Крепость_Хибральфаро,_проход_между_двух_стен",
                    "ispublic": 1,
                    "isfriend": 0,
                    "isfamily": 0
                  },
                  {
                    "id": "39053308011",
                    "owner": "151640904@N03",
                    "secret": "4e12a6f029",
                    "server": "4643",
                    "farm": 5,
                    "title": "07-d0bcd0b0d0bbd0b0d0b3d181d0bad0b8d0b9-d181d0bed0b1d0bed180-d18dd0bdd0bad0b0d180d0bdd0b0d181d18cd0bed0bd",
                    "ispublic": 1,
                    "isfriend": 0,
                    "isfamily": 0
                  },
                  {
                    "id": "38172080425",
                    "owner": "151640904@N03",
                    "secret": "a19b092984",
                    "server": "4733",
                    "farm": 5,
                    "title": "53d0990e5388c",
                    "ispublic": 1,
                    "isfriend": 0,
                    "isfamily": 0
                  }
                ],
                "urls": [
                  "https://farm5.staticflickr.com/4594/39021800182_417da03146.jpg",
                  "https://farm5.staticflickr.com/4738/25186405008_c83b6842ee.jpg",
                  "https://farm5.staticflickr.com/4643/39053308011_4e12a6f029.jpg",
                  "https://farm5.staticflickr.com/4733/38172080425_a19b092984.jpg"
                ],
                "grid": [
                  1,
                  1,
                  1,
                  1
                ]
              }
            },
            {
              "type": "title",
              "options": "Крепость Алькасаба"
            },
            {
              "type": "text",
              "options": "Дворец-крепость мавританских королей Алькасаба возвышается над центром Малаги и является её главной достопримечательностью. Строительство было начато в XI веке на месте римского бастиона. Рядом со входом в крепость находятся руины древнеримского театра, датируемого II веком. Не поленитесь подняться на самый верх — оттуда открывается отличный панорамный вид на город."
            },
            {
              "type": "text",
              "options": "Адрес: Calle Alcazabilla, 2."
            },
            {
              "type": "title",
              "options": "Крепость Хибральфаро"
            },
            {
              "type": "text",
              "options": "Крепость находится на одноимённой горе и соединена с Алькасабой длинным проходом между двумя стенами, именно поэтому посещение двух крепостей удобно совместить. Крепость была построена кордовским халифом Абд ар-Рахманом III в 929 г. Отсюда открывается панорамный вид на Малагу и арену для корриды. В центре крепости находится выставка доспехов, мечей и других предметов, имеющих историческую значимость."
            },
            {
              "type": "text",
              "options": "Текст: Camino Gibralfaro, 11."
            },
            {
              "type": "title",
              "options": "Малагский собор"
            },
            {
              "type": "text",
              "options": "Кафедральный собор расположен в исторической части города и является одной из самых красивых достопримечательностей.  Проектом предусматривалось здание с двумя башнями, но из-за нехватки средств была возведена только одна. Поэтому Малагский собор носит в народе название «Ла Манкита», что в переводе с испанского означает «однорукая»."
            },
            {
              "type": "text",
              "options": "Адрес: Calle Molina Lario, 9."
            },
            {
              "type": "title",
              "options": "Автомобильный музей"
            },
            {
              "type": "text",
              "options": "В этом музее представлена коллекция раритетных автомобилей (их здесь более 100), начиная с первых самоходных колясок и заканчивая престижными винтажными моделями конца шестидесятых годов. Здесь также имеются как подлинники, так и копии автомобилей, принадлежащих ранее известным деятелям политики, культуры и искусства. Интересны не только экспонаты, но и само место: музей расположен в здании старинной табачной фабрики. Входной билет стоит 8,5 евро. Время работы: 10:00 - 19:00 (Вт-Вс), понедельник — выходной."
            },
            {
              "type": "text",
              "options": "Адрес: Avenida Sor Teresa Prat, 15.\n"
            },
            {
              "type": "custom-photos",
              "options": {
                "ids": [
                  "25185835078",
                  "38342322524",
                  "38343454034",
                  "38172325755"
                ],
                "items": [
                  {
                    "id": "25185835078",
                    "owner": "151640904@N03",
                    "secret": "6f302e294c",
                    "server": "4728",
                    "farm": 5,
                    "title": "Picasso-Museum-Malaga-57242",
                    "ispublic": 1,
                    "isfriend": 0,
                    "isfamily": 0
                  },
                  {
                    "id": "38342322524",
                    "owner": "151640904@N03",
                    "secret": "e26bbab0ab",
                    "server": "4529",
                    "farm": 5,
                    "title": "MalagaMuseumCarmenThyssen",
                    "ispublic": 1,
                    "isfriend": 0,
                    "isfamily": 0
                  },
                  {
                    "id": "38343454034",
                    "owner": "151640904@N03",
                    "secret": "62ab484e1e",
                    "server": "4572",
                    "farm": 5,
                    "title": "map82-10",
                    "ispublic": 1,
                    "isfriend": 0,
                    "isfamily": 0
                  },
                  {
                    "id": "38172325755",
                    "owner": "151640904@N03",
                    "secret": "1a78c5def7",
                    "server": "4552",
                    "farm": 5,
                    "title": "16571",
                    "ispublic": 1,
                    "isfriend": 0,
                    "isfamily": 0
                  }
                ],
                "urls": [
                  "https://farm5.staticflickr.com/4728/25185835078_6f302e294c.jpg",
                  "https://farm5.staticflickr.com/4529/38342322524_e26bbab0ab.jpg",
                  "https://farm5.staticflickr.com/4572/38343454034_62ab484e1e.jpg",
                  "https://farm5.staticflickr.com/4552/38172325755_1a78c5def7.jpg"
                ],
                "grid": [
                  1,
                  1,
                  1,
                  1
                ]
              }
            },
            {
              "type": "title",
              "options": "Музей Пикассо"
            },
            {
              "type": "text",
              "options": "Музей расположен во дворце Буэнависта XVI века и посвящён творчеству знаменитого испанского художника Пабло Пикассо, который, как известно, родом из Малаги. Коллекция музея содержит 285 картин Пикассо, подаренных семьёй художника. Входной билет стоит 7 евро, в стоимость включен аудиогид (доступен в том числе и на русском языке). Часы работы: ежедневно с 10:00 до 18:00 (ноябрь-февраль), 10:00 - 20:00 (июль, август), 10:00 - 19:00 (остальное время года)."
            },
            {
              "type": "text",
              "options": "Адрес: Calle San Agustín, 8."
            },
            {
              "type": "title",
              "options": "Музей Кармен Тиссен"
            },
            {
              "type": "text",
              "options": "Это художественный музей, в коллекции которого преобладают работы испанских и в особенности андалусских художников XIX века из собственной коллекции вдовы барона Ганса Генриха Тиссена. Входной билет стоит 6 евро. Посетить музей бесплатно можно каждое воскресенье с 17:00. Время работы: 10:00 - 20:00 (Вт-Вс), понедельник — выходной. "
            },
            {
              "type": "text",
              "options": "Адрес: Calle Compañía, 10."
            },
            {
              "type": "title",
              "options": "Центр современного искусства"
            },
            {
              "type": "text",
              "options": "Это музей современного искусства, специализирующийся на собрании скульптурных и визуальных работ, созданных в период с последней трети XX в. по настоящее время. Актуальную информацию о текущих выставках можно узнать на <a target='_blank' href=\"http://cacmalaga.eu/\">официальном сайте</a>. Что приятно, вход в музей бесплатный."
            },
            {
              "type": "text",
              "options": "Адрес: Calle Alemania, S/N."
            },
            {
              "type": "title",
              "options": "Рынок Mercado Central de Atarazanas"
            },
            {
              "type": "text",
              "options": "Центральный рынок — одно из самых посещаемых мест в городе. Очень советуем заглянуть сюда и вам — по невысоким ценам здесь можно купить свежие фрукты, овощи, местные колбасы, сыры, и многое другое. Кроме того, прямо на рынке можно перекусить в одном из тапас-баров, в которых вам подадут традиционные испанские блюда, приготовленные из свежайших продуктов."
            },
            {
              "type": "text",
              "options": "Адрес: Calle Atarazanas, 10."
            },
            {
              "type": "title",
              "options": "Пляж Ла-Малагета (Playa de La Malagueta)"
            },
            {
              "type": "text",
              "options": "Пожалуй, это самый популярный городской пляж. Он очень длинный и широкий, с чистым песком и удобным входом в воду. В одном из многочисленных кафе на набережной обязательно попробуйте паэлью."
            }
          ]
        },
        {
          "type": "drop-down",
          "title": "Где поесть",
          "options": [
            {
              "type": "custom-photos",
              "options": {
                "ids": [
                  "39020675592",
                  "38170204815",
                  "38340432294",
                  "39019410212"
                ],
                "items": [
                  {
                    "id": "39020675592",
                    "owner": "151640904@N03",
                    "secret": "87132d1434",
                    "server": "4586",
                    "farm": 5,
                    "title": "malaga_gastro_muss_2812664b",
                    "ispublic": 1,
                    "isfriend": 0,
                    "isfamily": 0
                  },
                  {
                    "id": "39019410212",
                    "owner": "151640904@N03",
                    "secret": "495e6f0648",
                    "server": "4519",
                    "farm": 5,
                    "title": "DSC06343",
                    "ispublic": 1,
                    "isfriend": 0,
                    "isfamily": 0
                  },
                  {
                    "id": "38340432294",
                    "owner": "151640904@N03",
                    "secret": "eec2c466ec",
                    "server": "4729",
                    "farm": 5,
                    "title": "photo0jpg",
                    "ispublic": 1,
                    "isfriend": 0,
                    "isfamily": 0
                  },
                  {
                    "id": "38170204815",
                    "owner": "151640904@N03",
                    "secret": "c50b0bdcff",
                    "server": "4574",
                    "farm": 5,
                    "title": "20160706-154150-largejpg",
                    "ispublic": 1,
                    "isfriend": 0,
                    "isfamily": 0
                  }
                ],
                "urls": [
                  "https://farm5.staticflickr.com/4586/39020675592_87132d1434.jpg",
                  "https://farm5.staticflickr.com/4519/39019410212_495e6f0648.jpg",
                  "https://farm5.staticflickr.com/4729/38340432294_eec2c466ec.jpg",
                  "https://farm5.staticflickr.com/4574/38170204815_c50b0bdcff.jpg"
                ],
                "grid": [
                  1,
                  1,
                  1,
                  1
                ]
              }
            },
            {
              "type": "title",
              "options": "Marisquería Casa Vicente"
            },
            {
              "type": "text",
              "options": "В этом небольшом ресторанчике вам подадут потрясающе вкусные и свежие морепродукты. Порции большие, цены невысокие."
            },
            {
              "type": "text",
              "options": "Адрес: Calle Comisario, 2."
            },
            {
              "type": "title",
              "options": "Casa Aranda"
            },
            {
              "type": "text",
              "options": "Одно из самых классических мест в городе, где можно попробовать чуррос - традиционный испанский десерт из заварного теста. Обязательно заказывайте чуррос с горячим шоколадом. Цены невысокие."
            },
            {
              "type": "text",
              "options": "Адрес: Herrería del Rey, 3."
            },
            {
              "type": "title",
              "options": "La Tranca"
            },
            {
              "type": "text",
              "options": "Оживлённый и очень атмосферный тапас-бар, в котором можно отведать местные закуски. Здесь вкусно абсолютно всё, но особенно рекомендуем попробовать блинчики с мясом. Цены невысокие."
            },
            {
              "type": "text",
              "options": "Адрес: Calle Carreteria, 93."
            },
            {
              "type": "title",
              "options": "Dulces Dreams"
            },
            {
              "type": "text",
              "options": "Это уютное кафе с вкуснейшей домашней выпечкой отлично подходит для завтрака. Здесь готовят чизкейки, маффины, морковный торт, разнообразные печенья."
            },
            {
              "type": "text",
              "options": "Адрес: Plaza Martires, 6."
            },
            {
              "type": "title",
              "options": "La Farola de Orellana"
            },
            {
              "type": "text",
              "options": "В этом аутентичном ресторанчике можно очень вкусно и недорого перекусить. Здесь превосходно готовят и мясо, и морепродукты, и разнообразные традиционные закуски."
            },
            {
              "type": "text",
              "options": "Адрес: Calle Moreno Monroy, 5."
            },
            {
              "type": "title",
              "options": "BlackLabel Urban Grill"
            },
            {
              "type": "text",
              "options": "Если вы жить не можете без мяса — вам сюда. Стейки и бургеры здесь готовят очень вкусно. Цены средние."
            },
            {
              "type": "text",
              "options": "Адрес: Calle Alamos, 22."
            },
            {
              "type": "title",
              "options": "Casa Mira"
            },
            {
              "type": "text",
              "options": "В этом старинном кафе, расположенном в самом центре, представлен большой выбор отменного мороженого."
            },
            {
              "type": "text",
              "options": "Адрес: Calle Marqués de Larios, 5."
            }
          ]
        },
        {
          "type": "drop-down",
          "title": "Куда сходить вечером",
          "options": [
            {
              "type": "custom-photos",
              "options": {
                "ids": [
                  "38355178694",
                  "39065399141",
                  "39034691022",
                  "38184272725"
                ],
                "items": [
                  {
                    "id": "38355178694",
                    "owner": "151640904@N03",
                    "secret": "60c7a7193f",
                    "server": "4590",
                    "farm": 5,
                    "title": "Feria-Malaga-Antigua-Casa-de-Guardia05",
                    "ispublic": 1,
                    "isfriend": 0,
                    "isfamily": 0
                  },
                  {
                    "id": "39065399141",
                    "owner": "151640904@N03",
                    "secret": "626594fbc7",
                    "server": "4545",
                    "farm": 5,
                    "title": "loffit-5-terrazas-para-disfrutar-de-la-noche-malaguena-03-900x600",
                    "ispublic": 1,
                    "isfriend": 0,
                    "isfamily": 0
                  },
                  {
                    "id": "39034691022",
                    "owner": "151640904@N03",
                    "secret": "80fc8cb16f",
                    "server": "4683",
                    "farm": 5,
                    "title": "pimpi-gastronomia-malaga-comer-malaga-restaurantes-malaga",
                    "ispublic": 1,
                    "isfriend": 0,
                    "isfamily": 0
                  },
                  {
                    "id": "38184272725",
                    "owner": "151640904@N03",
                    "secret": "795b94e9de",
                    "server": "4590",
                    "farm": 5,
                    "title": "56-3707124-1437087426182f4025b4aa4597a8ee3fbd6a0dc1ab",
                    "ispublic": 1,
                    "isfriend": 0,
                    "isfamily": 0
                  }
                ],
                "urls": [
                  "https://farm5.staticflickr.com/4590/38355178694_60c7a7193f.jpg",
                  "https://farm5.staticflickr.com/4545/39065399141_626594fbc7.jpg",
                  "https://farm5.staticflickr.com/4683/39034691022_80fc8cb16f.jpg",
                  "https://farm5.staticflickr.com/4590/38184272725_795b94e9de.jpg"
                ],
                "grid": [
                  1,
                  1,
                  1,
                  1
                ]
              }
            },
            {
              "type": "title",
              "options": "Antigua Casa de Guardia"
            },
            {
              "type": "text",
              "options": "Одновременно винный погреб и бар, который считается одним из лучших в городе. Заведение открылось ещё в 1840 г., винтажный интерьер придает ему особый шарм. Здесь можно попробовать разнообразные региональные вина по демократичным ценам."
            },
            {
              "type": "text",
              "options": "Адрес: Alameda Principal, 18."
            },
            {
              "type": "title",
              "options": "Terraza de Larios"
            },
            {
              "type": "text",
              "options": "Из этого кафе, расположенного на крыше отеля Mate Larios, открываются отличные виды на город. Бар открыт до поздней ночи. Есть ди-джей. Коктейли очень вкусные, но стоят несколько дороже, чем в среднем по Малаге. Однако атмосфера того стоит!"
            },
            {
              "type": "text",
              "options": "Адрес: Calle Marqués de Larios, 2."
            },
            {
              "type": "title",
              "options": "Bodega Bar El Pimpi"
            },
            {
              "type": "text",
              "options": "Это один из самых известных баров города, поэтому очень рекомендуем заглянуть сюда и вам. Вдоль стен здесь стоят тёмные деревянные бочки, подписанные самыми известными посетителями бара. Помимо напитков здесь можно заказать разнообразные закуски и традиционные блюда местной кухни. "
            },
            {
              "type": "text",
              "options": "Адрес: Calle Granada, 62."
            },
            {
              "type": "title",
              "options": "El Cantor de Jazz"
            },
            {
              "type": "text",
              "options": "В этот уютный бар с непринужденной атмосферой стоит заглянуть всем почитателям живой музыки — здесь проходят многочисленные джазовые концерты. Цены на коктейли достаточно демократичны."
            },
            {
              "type": "text",
              "options": "Адрес: Calle Lazcano, 7."
            }
          ]
        }
      ]
    },
    {
      "title": "Погода в Малаге",
      "description": [
        {
          "type": "weather",
          "options": {
            "lat": 36.7212737,
            "lng": -4.42139880000002,
            "text": "Малага, Испания"
          }
        }
      ]
    }
  ],
  "advices": [
    "Основу местной кухни составляют разнообразные морепродукты, овощи и фрукты. Обязательно попробуйте жареные сардины (одно из самых знаменитых блюд), тапас (местные закуски), салат Ensalada Malagueña, торт Bienmesabe Antequerano (основные ингредиенты: миндаль и мармелад из тыквы), гаспачо, холодный суп ахобланко (основные ингредиенты: молотый миндаль, хлеб, чеснок, оливковое масло), а также местные вина, сангрию и херес (крепкое белое вино).",
    "В качестве сувенира из Малаги стоит везти местное вино, оливковое масло, специи, хамон (вяленый окорок), традиционные сладости, аксессуары (например, сумки из натуральной кожи).",
    "Главным видом общественного транспорта в Малаге является автобус, все основные маршруты курсируют по городу с 7 часов утра до 23:00. В ночное время общественный транспорт представлен четырьмя маршрутами автобусов, которые курсируют по главным улицам. Стоимость проезда составляет порядка 1 евро."
  ],
  "afterAdvices": {
    "title": "",
    "text": []
  }
}
