﻿{
  "title": "Тревел-эксперт OneTwoTrip",
  "top": {
    "image": "top/milano.jpg",
    "topText": [
      "МИЛАН"
    ],
    "text": "Италия",
    "under": ""
  },
  "hideContacts": true,
  "adviceTitle": "Полезная информация",

  "blogFooter": true,
  "about": {
    "hide":true,
    "description": "",
    "price": {
      "cost": "",
      "description": ""
    },
    "map": {
      "point": {
        "location": [
          ""
        ],
        "zoom": "7"
      },
      "poi": {
        "name": "милан",
        "city_id": 3173435,
        "sight": [
          [45.464180, 9.191690,"church","Миланский собор"],
[45.465986, 9.170898, "church", "Санта-Мария делле Грацие"],
[45.457630, 9.170279, "shopping", "Рынок Папиниано"],
[45.451714, 9.165431, "theater", "Teatro Armani"],
[45.472390, 9.173892, "monument", "Музей дизайна"],
[45.463503, 9.190245, "food", "Giacomo Arengario"],
[45.466346, 9.188841, "icecream", "Джелатерия Grom"],
[45.457448, 9.181076, "icecream", "Джелатерия Grom"],
[45.467283, 9.164849, "icecream", "Джелатерия Grom"],
[45.456351, 9.195736, "icecream", "Джелатерия Grom"],
[45.462361, 9.208613, "icecream", "Джелатерия Grom"],
[45.483009, 9.191201, "icecream", "Джелатерия Grom"],
[45.477470, 9.207681, "icecream", "Джелатерия Grom"],
[45.465835, 9.191544, "food", "Пирожки Luini"],
[45.478688, 9.205636, "vine", "Бар b:free"],
          [
            45.472881,
            9.20033,
            "museums",
            "Галерея современного искусства"
          ],
          [
            45.453865,
            9.180493,
            "monument",
            "Базилика Св. Эусторджио"
          ],
          [
            45.469238,
            9.195924,
            "shopping",
            "Виа Монтенаполео́не, квартал моды"
          ],
          [
            45.474258,
            9.20482,
            "monument",
            "Венецианские ворота"
          ],
          [
            45.47364,
            9.18118,
            "icecream",
            "Океанариум Acquario Civico"
          ],
          [
            45.456059,
            9.18197,
            "tree",
            "Парк Собора"
          ],
          [
            45.48465,
            9.20189,
            "monument",
            "Башня Пирелли"
          ],
          [
            45.478329,
            9.19665,
            "sign",
            "Площадь Республики"
          ],
          [
            45.471451,
            9.17793,
            "tree",
            "Парк Семпионе"
          ]
        ],
        "hotels": [],
        "markers": []
      }
    },
    "cities": []
  },
  "og": {
    "title": "Что делать в Милане",
    "description": "Несмотря на то, что сегодня внешний облик Милана определяется прежде всего современной архитектурой, в этом городе можно найти большое количество исторических мест и достопримечательностей. При поверхностном знакомстве часто складывается достаточно одностороннее мнение о Милане. На самом деле, этот город нечто гораздо большее, чем просто промышленная метрополия: чем ближе приближаешься к центру, тем чаще встречаешь прекрасные старинные дома, церкви и площади."
  },
  "route": [
    {
      "title": "Что делать в Милане",
      "description": [
        {
          "type": "text",
          "options": "Несмотря на то, что сегодня внешний облик Милана определяется прежде всего современной архитектурой, в этом городе можно найти большое количество исторических мест и достопримечательностей. При поверхностном знакомстве часто складывается достаточно одностороннее мнение о Милане. На самом деле, этот город нечто гораздо большее, чем просто промышленная метрополия: чем ближе приближаешься к центру, тем чаще встречаешь прекрасные старинные дома, церкви и площади. "
        },
        {
          "type": "custom-photos",
          "options": {
            "ids": [
              "24389077278",
              "24389076658",
              "24389076308",
              "24389076058"
            ],
            "items": [
              {
                "id": "24389077278",
                "owner": "151640904@N03",
                "secret": "5cbc2198a8",
                "server": "4552",
                "farm": 5,
                "title": "stock-photo-milano-66092441",
                "ispublic": 1,
                "isfriend": 0,
                "isfamily": 0
              },
              {
                "id": "24389076658",
                "owner": "151640904@N03",
                "secret": "f846f59376",
                "server": "4566",
                "farm": 5,
                "title": "1",
                "ispublic": 1,
                "isfriend": 0,
                "isfamily": 0
              },
              {
                "id": "24389076308",
                "owner": "151640904@N03",
                "secret": "376f51e5eb",
                "server": "4530",
                "farm": 5,
                "title": "CiaoMilano_Milano_Stazione_Centrale_20170612",
                "ispublic": 1,
                "isfriend": 0,
                "isfamily": 0
              },
              {
                "id": "24389076058",
                "owner": "151640904@N03",
                "secret": "1363e2047e",
                "server": "4530",
                "farm": 5,
                "title": "milano-promo-dining",
                "ispublic": 1,
                "isfriend": 0,
                "isfamily": 0
              }
            ],
            "urls": [
              "https://farm5.staticflickr.com/4552/24389077278_5cbc2198a8.jpg",
              "https://farm5.staticflickr.com/4566/24389076658_f846f59376.jpg",
              "https://farm5.staticflickr.com/4530/24389076308_376f51e5eb.jpg",
              "https://farm5.staticflickr.com/4530/24389076058_1363e2047e.jpg"
            ],
            "grid": [
              1,
              1,
              1,
              1
            ]
          }
        },
        {
          "type": "drop-down",
          "title": "Как добраться из аэропорта",
          "options": [
            {
              "type": "text",
              "options": "Из аэропорта Мальпенса в город можно добраться на поезде, автобусе и, конечно же, такси.\n"
            },
            {
              "type": "title",
              "options": "На поезде:"
            },
            {
              "type": "text",
              "options": "Аэропорт с Миланом соединяет железная дорога, выйти к которой можно прямо из Terminal 1. Вам понадобится пригородный поезд Malpensa Express. Билеты можно приобрести в железнодорожных кассах или специальных автоматах. Дорога до города займет около 40 минут, в зависимости от конечной станции, коих может быть две. Первая – Milano Cadorna, находящаяся рядом с миланской достопримечательностью Замком Сфорца. Билет в одну сторону обойдется в 11 евро. Вторая – Milano Centrale – главная железнодорожная станция Милана. Проезд обойдется в 7 евро.\n"
            },
            {
              "type": "text",
              "options": "Важно: перед тем, как сесть на поезд, обязательно закомпостируйте билет.\n"
            },
            {
              "type": "title",
              "options": "На автобусе:"
            },
            {
              "type": "text",
              "options": "Автобусы Malpensa Shuttle отходят от Terminal 1 примерно раз в 30 минут. Проезд обойдется в 7,50 евро. Время в пути – примерно 1 час.\n"
            },
            {
              "type": "title",
              "options": "На такси:"
            },
            {
              "type": "text",
              "options": "Этот вариант будет комфортнее и быстрее всего. Такси всегда стоят прям у выхода из аэропорта. Оплата производится по счетчику. Цена поездки до центра города составит 80-120 евро.\n"
            },
            {
              "type": "text",
              "options": "Немного дешевле обойдутся услуги такси, заказанного через приложение Uber: 50-90 евро.\n"
            }
          ]
        },
        {
          "type": "drop-down",
          "title": "Milano Card",
          "options": [
            {
              "type": "text",
              "options": "Очень рекомендуем купить Milano Card - туристическую карту. Она дает владельцу возможность бесплатно пользоваться общественным транспортом (метро, трамвай, автобус, городская электричка), бесплатно (либо с существенной скидкой) посещать около 20 городских музеев, а также право на специальные цены и предложения примерно в 500 заведениях, включая рестораны, магазины, выставочные и спортивные площадки, концертные залы, велнесс-клубы и т. д. Наиболее распространенные типы MilanoCard — на 24 часа (стоимость — 7 EUR) и на 3 дня (19 EUR)."
            },
            {
              "type": "text",
              "options": "Карту можно приобрести заранее <a target=\"_blank\" href='http://www.milanocard.it/buy-milanocard-now'>на сайте</a>, оплатив банковской карточкой или через PayPal, и забрать в аэропорту, на вокзале или в своем отеле. MilanoCard оформляется на конкретное лицо, и ее нельзя передавать другим. "
            }
          ]
        },
        {
          "type": "drop-down",
          "title": "Что посмотреть",
          "options": [
            {
              "type": "text",
              "options": "Почти все, что нужно туристу, находится во внутреннем кольце, в самом центре которого стоят Дуомо и галерея Витторио Эммануэле II. В северной части круга находятся Ла Скала, квартал Брера (арт-галереи и магазины), Монте-Наполеоне (еще один модный квартал), вокзалы Милан Центральный и Порта Гарибальди. В южной — Университет, Торре Веласка, Сан-Лоренцо, старые каналы «новильи» с многочисленными барами. В западной — Научный музей в Сант-Амброджио, Санта-Мария-делле-Грацие с «Тайной вечерей» да Винчи и замком Кастелло на северо-западе. И чуть за пределами внутреннего кольца — район Триеннале с парком «Семпионе» на северо-востоке, район Джиардини с садами и Вилла Реале на северо-западе."
            },
            {
              "type": "custom-photos",
              "options": {
                "ids": [
                  "24389144788",
                  "24389144648",
                  "38260221961",
                  "24389144978"
                ],
                "items": [
                  {
                    "id": "24389144648",
                    "owner": "151640904@N03",
                    "secret": "49101e1bbd",
                    "server": "4528",
                    "farm": 5,
                    "title": "aa52_77447_dd2",
                    "ispublic": 1,
                    "isfriend": 0,
                    "isfamily": 0
                  },
                  {
                    "id": "24389144788",
                    "owner": "151640904@N03",
                    "secret": "e19bc695f5",
                    "server": "4578",
                    "farm": 5,
                    "title": "Santa_Maria_delle_Grazie_Milano",
                    "ispublic": 1,
                    "isfriend": 0,
                    "isfamily": 0
                  },
                  {
                    "id": "38260221961",
                    "owner": "151640904@N03",
                    "secret": "4fe9cee517",
                    "server": "4561",
                    "farm": 5,
                    "title": "viale-papiniano-market",
                    "ispublic": 1,
                    "isfriend": 0,
                    "isfamily": 0
                  },
                  {
                    "id": "24389144978",
                    "owner": "151640904@N03",
                    "secret": "e3fde65c1e",
                    "server": "4558",
                    "farm": 5,
                    "title": "Armani+Teatro+4",
                    "ispublic": 1,
                    "isfriend": 0,
                    "isfamily": 0
                  }
                ],
                "urls": [
                  "https://farm5.staticflickr.com/4528/24389144648_49101e1bbd.jpg",
                  "https://farm5.staticflickr.com/4578/24389144788_e19bc695f5.jpg",
                  "https://farm5.staticflickr.com/4561/38260221961_4fe9cee517.jpg",
                  "https://farm5.staticflickr.com/4558/24389144978_e3fde65c1e.jpg"
                ],
                "grid": [
                  1,
                  1,
                  1,
                  1
                ]
              }
            },
            {
              "type": "title",
              "options": "Крыша собора Дуомо"
            },
            {
              "type": "text",
              "options": "Посетить возвышающийся над городом готический собор ­Дуомо обязаны даже скептики, избегаю­щие традиционных туристичес­ких маршрутов. Главная досто­примечательность Милана по­ра­жает не только масштабом (это третья по величине европейская готичес­кая базилика после собора Святого Петра в Ватикане и кафедрального собора в Севи­лье), историей (ее строили более пяти столетий), декором (­здание украшают три с половиной тысячи скульптур и 350 шпилей) и местоположением на центральной площади города. На крыше собора открыли смотровую площадку, где днем можно полюбоваться шикарным видом (подняться ту­да можно с 9:00 до 21:00 по лестнице за €7, на лифте за €12)."
            },
            {
              "type": "title",
              "options": "Галерея Виктора Эммануила II"
            },
            {
              "type": "text",
              "options": "Еще одна важная достопримечательность Милана – галерея Виктора Эммануила II, соеди­няющая Дуомскую площадь с Ла Скала. Она представляет собой настоя­щее произведение архитектурного искусства – вы­­полненный в форме креста пассаж укрыт ку­полом из стекла и железа и украшен мозаиками и барельефами. Галерея, которую местные жите­ли называют «Миланской гости­ной», была торжественно откры­та в 1867 го­ду королем Виктором Эммануилом II и с тех пор при­нимает под своим кровом не только кофейни, остерии, анти­кварные лавки, книжные магазины и модные бутики вроде Prada, Gucci, Louis Vuitton, но и регулярные демонст­рации недовольных властью граждан. "
            },
            {
              "type": "title",
              "options": "Санта-Мария делле Грацие"
            },
            {
              "type": "text",
              "options": "Знаменитая фреска, написанная Леонардо да Винчи в конце XV века, украшает стену трапезной церкви Санта-Мария делле Грацие. Эта краснокаменная церквушка находится всего в километре к северу от площади Дуомо. Букировать свой визит следует заранее, поскольку лицезреть шедевр Леонардо людей допускают группами не более 25 человек.\n28 Via Brera, вторник-воскресенье, 8:15–19:00, €10."
            },
            {
              "type": "text",
              "options": "Адрес: 28 Via Brera, вторник-воскресенье, 8:15–19:00, €10."
            },
            {
              "type": "title",
              "options": "Рынок Папиниано "
            },
            {
              "type": "text",
              "options": "Обзавестись качественной одеждой в Милане можно не только в именитых бутиках. Каждые вторник и субботу ломбард­ские торговки привозят на рынок Папиниано плоды труда своих фабричных подельниц – костю­мы брючные и с юбками, сдер­жанные платья и легкомысленные сарафаны, лодочки и ботиль­оны. Отыскать текстильных фей легко по табличкам, возвы­шаю­щимся над рядами: Tutta merce Italiana – «Сделано в Италии». \nИтальянки неспроста противопоставляют свою продукцию китайскому ширпотребу: предлагае­мые ими вещи дейст­вительно отличаются высочайшим качеством. \n"
            },
            {
              "type": "text",
              "options": "Например: кашемировый свитер – €10"
            },
            {
              "type": "text",
              "options": "Адрес: Viale Papiniano. Вторник 7:30–13:00, суббота до 17:00."
            },
            {
              "type": "title",
              "options": "Teatro Armani "
            },
            {
              "type": "text",
              "options": "Teatro Armani – самый амбициозный проект мэт­ра итальянской моды. В 2001 году синьор Армани решил расширить свои владения, открыв новую площадку для по­казов и пресс-конференций. Так бывший завод Nestlé на юге-западе Милана, неда­леко от пульсирующей энергией улицы Тортона, был перестроен в здание, ставшее, по мнению кри­­тиков, выдающейся постройкой современности. К сотрудничеству Армани привлек знаменитого японского архитектора Тадао Андо, чье творчест­во во многом схоже с философией дизайнера – чистота форм, цвета и линий. Плодом их работы стало cеро-белое сооружение площадью 3 400 м2 из бетона и стекла с концептуальным освещением. \n"
            },
            {
              "type": "text",
              "options": "Адрес: 59 Via Bergognone."
            },
            {
              "type": "title",
              "options": "Квадрат моды"
            },
            {
              "type": "text",
              "options": "Это квартал модных бутиков, очерченный четырьмя улицами: Монте­наполеоне, Манзони, делла Спига и Венеция. Пер­вая из них – самая известная, элитная и любимая местными жителями, которые ласково зовут ее Монтенапо. Здесь расположены флагманские магазины китов итальянской моды – Gucci, Prada, Versace, Giorgio Armani, Valentino, Roberto Cavalli... Если вас не интересуют лучшие новинки нового сезона, заглянуть на эту ярмарку тщеславия все же стоит – красивая улица, красивые люди, красивые вещи."
            },
            {
              "type": "title",
              "options": "Музей дизайна"
            },
            {
              "type": "text",
              "options": "В 2007-м в центре Милана открылся Музей дизайна, где регулярно проходят международные выставки живописи, фотографии, графического дизайна и предметов интерьера. Интересно, что свои двери музей распахнул на улице, прилегаю­щей к самому большому общест­венному парку города – Семпио­не. Обогатившись интеллектуально на выставке и под­крепившись панини и капучино в симпатичном музейном кафе, отдохните душой и телом в парке. Поляны, пруды, сосны, ели, дубы, бесплатный Wi-Fi и шикарный вид еще на две миланские достопри­мечательнос­ти – замок Сфорца и арку Мира. \n"
            },
            {
              "type": "text",
              "options": "Адрес: Design Museum, 6 Viale Alemagna, вторник-воскресенье, 10:00–20:30, четверг до 23:00, €8 за одну экспозицию."
            }
          ]
        },
        {
          "type": "drop-down",
          "title": "Где поесть",
          "options": [
            {
              "type": "text",
              "options": "Несмотря на свой современный ритм, Милан остается одним из наиболее стойких бастионов традиционной итальянской кухни, в которой по-прежнему очень ценятся домашние продукты и блюда. Типичные для города кушанья — тушеная телячья голяшка «оссо буко» и ризотто-алла-миланезе (с куриной грудкой и шафраном). Еще одно знаменитое миланское блюдо — котолетта-алла-миланезе, то есть, котлетка из нежной телячьей вырезки."
            },
            {
              "type": "text",
              "options": "Трудно в Милане не найти подходящего места, чтобы поесть. Тем не менее, постарайтесь избегать ресторанов вокруг Дуомо: качество еды там оставляет желать лучшего, цены завышены, плюс в большинстве из них практикуется «сервисный сбор», который добавляют к сумме счета. Последнее касается и ресторанов у Центрального вокзала.\n\n"
            },
            {
              "type": "text",
              "options": "Милан — не самое «пиццевое» место в стране, но пиццерий здесь достаточно, и очень хороших в том числе. Лучшими по пиццериям считаются районы улицы Маргера, авеню Верчелли, Навильи, Брера. В северо-восточной части города хорошие маленькие пиццерии есть на улице Фульвио Тести в районе Греко. Цены здесь вполне разумны: порция пиццы с пивом может обойтись где-то в 10 EUR на человека."
            },
            {
              "type": "custom-photos",
              "options": {
                "ids": [
                  "24389168168",
                  "24389168128",
                  "24389168248",
                  "38228585622"
                ],
                "items": [
                  {
                    "id": "24389168168",
                    "owner": "151640904@N03",
                    "secret": "22d1fab4a3",
                    "server": "4542",
                    "farm": 5,
                    "title": "osso-buco-alamy-xlarge1_500_306_5_100",
                    "ispublic": 1,
                    "isfriend": 0,
                    "isfamily": 0
                  },
                  {
                    "id": "24389168128",
                    "owner": "151640904@N03",
                    "secret": "d9d0e1d079",
                    "server": "4517",
                    "farm": 5,
                    "title": "Arengario-vista-duomo",
                    "ispublic": 1,
                    "isfriend": 0,
                    "isfamily": 0
                  },
                  {
                    "id": "38228585622",
                    "owner": "151640904@N03",
                    "secret": "0b4a211354",
                    "server": "4549",
                    "farm": 5,
                    "title": "luini-forno",
                    "ispublic": 1,
                    "isfriend": 0,
                    "isfamily": 0
                  },
                  {
                    "id": "24389168248",
                    "owner": "151640904@N03",
                    "secret": "6ac2c8300c",
                    "server": "4521",
                    "farm": 5,
                    "title": "b-free",
                    "ispublic": 1,
                    "isfriend": 0,
                    "isfamily": 0
                  }
                ],
                "urls": [
                  "https://farm5.staticflickr.com/4542/24389168168_22d1fab4a3.jpg",
                  "https://farm5.staticflickr.com/4517/24389168128_d9d0e1d079.jpg",
                  "https://farm5.staticflickr.com/4549/38228585622_0b4a211354.jpg",
                  "https://farm5.staticflickr.com/4521/24389168248_6ac2c8300c.jpg"
                ],
                "grid": [
                  1,
                  1,
                  1,
                  1
                ]
              }
            },
            {
              "type": "title",
              "options": "Ресторан Giacomo Arengario"
            },
            {
              "type": "text",
              "options": "Ресторан Giacomo Arengario, открывшийся два года назад в Музее двадцатого века на площади Дуомо, оценят адепты морской кухни (в меню одинаково хороши карпаччо из дорады, филе трески и обжаренные в кляре королевские креветки) и философии «себя показать – на людей посмотреть»: здесь нередко можно встретить первых лиц миланского фэшн-сообщества. Совет – резервируйте стол заранее, чтобы вас посадили на террасу с видом на собор. "
            },
            {
              "type": "text",
              "options": "Ужин на троих без вина обойдется в 80-100€ "
            },
            {
              "type": "text",
              "options": "Адрес: 1 Via Guglielmo Marconi, +39 02 7209 3814. "
            },
            {
              "type": "title",
              "options": "Джелатерия Grom"
            },
            {
              "type": "text",
              "options": "Какое приключение иностранцев в Италии возмож­но без дегустации мороженого? Лучше всего сде­лать это в джелатерии Grom, где представлено более 30 видов мороженого и сорбе. Их готовят только из нату­ральных продуктов, закупаемых напрямую у про­изводите­ля. Каждый месяц кондитеры придумывают спе­циальное меню с новыми вкусами, которые хоть и расходятся на ура, но отнять пальму первенства у знаменитого на весь город Bacio (в переводе с итальянского «поцелуй») – шоколадного мороженого с кусочками обжаренного фундука – все равно не могут.\n"
            },
            {
              "type": "text",
              "options": "Мороженое от €2,50."
            },
            {
              "type": "text",
              "options": "Адрес: Grom, 13 Corso Buenos Aires, +39 02 2052 0104, "
            },
            {
              "type": "title",
              "options": " Пирожки Luini "
            },
            {
              "type": "text",
              "options": " Пирожки Luini считаются настоящим миланским специалитетом, поэ­тому не пожалейте времени – оно того стоит. Их история началась в 1949-м, когда Джузеппина Луини приехала из Апулии в Милан и открыла бу­лочную. Наряду с хлебом она выпекала традиционные апулийские пирожки с начинкой из моцареллы и томатов, наделавшие шумихи во всей округе. Храня рецепт теста в строжайшей тайне, внуки Джузеппины расширили ассортимент начинок, среди которых теперь есть ветчина, творожный сыр, шпинат, баклажаны... "
            },
            {
              "type": "text",
              "options": "Пирожок от €2."
            },
            {
              "type": "text",
              "options": "Адрес: 16 Via Santa Radegonda, +39 02 8646 1917"
            },
            {
              "type": "title",
              "options": "Счастливые часы"
            },
            {
              "type": "text",
              "options": "В последние годы в Милане все большее распространение получают «счастливые часы», которые устраивают в барах примерно с 19:00 до 21:00. При том, что миланцы в целом скорее малопьющие, эти часы — возможность не столько экономично напиться, сколько с удовольствием посидеть и пообщаться в большой компании. «Счастливые часы» подразумевают фиксированную цену на все напитки (примерно 5—10 EUR) и бесплатную буфетную закуску к ним: оливки, салями, зеленый салат, рис, хлеб. В качестве аперитива в Милане обычно употребляют просекко либо кампари с содовой."
            },
            {
              "type": "text",
              "options": "Если в самых модных барах при гостиницах Four Seasons и Straf ассортимент предлагаемых закусок невелик и сюда люди приходят действительно разогреть аппетит перед ужином, то в некоторых заведениях можно использовать миланский happy hour на все сто. Например, купив за €8 в баре b:free добротный Apple Martini, вы сможете съесть столько блюд из буфета, сколько захочется."
            },
            {
              "type": "text",
              "options": "Адрес: b:free, 22 Via Lecco, +39 02 3670 7971"
            }
          ]
        }
      ]
    },
    {
      "title": "Погода в Милане",
      "description": [
        {
          "type": "weather",
          "options": {
            "lat": 45.4642035,
            "lng": 9.189981999999986,
            "text": "Милан, Италия"
          }
        }
      ]
    }
  ],
  "advices": [
    "Будьте осторожны в районе вокзала в темное время суток, а так же всегда будьте начеку в самых туристических местах города. Милан - один из рекордсменов по уличным кражам в Италии. ",
    "Советуем установить на телефон приложение ATM Milano: <a target=\"_blank\" href='https://play.google.com/store/apps/details?id=it.atm.appmobile&hl=en'>Google Play</a> или <a target=\"_blank\" href='https://itunes.apple.com/us/app/atm-milano-official-app/id415637297?mt=8'>AppStore</a>. Оно сильно поможет вам сориентироваться в общественном транспорте Милана.",
    "Если Дуомо – лицо Милана, то трамваи – его символ. В городе 17 функционирующих трамвайных линий, самые примечательные – № 1 и № 5. В отличие от ос­тальных по этим маршрутам (проходящим по ис­торическому центру) курсируют миниатюрные вагончики в ретростиле, словно сошедшие с фотографий начала прошлого века. ",
    "Интересное наблюдение: в Милане пиццу часто едят вилкой и ножом, хотя никто не запрещает вам пользоваться и руками, а многие делают и то, и другое одновременно. \n"
  ],
  "afterAdvices": {
    "title": "",
    "text": [
      ""
    ]
  }
}
