﻿{
  "title": "OneTwoTrip. Тревел-эксперт. ",
  "top": {
    "text": "выходные в Париже",
    "under": "22 - 25 июля"
  },
  "about": false,
  "route": [
    {
      "title": "22-25 июля, Париж",
      "description": [
        {
          "type": "text",
          "options": "Мы бы рекомендовали вам выбрать отель в районах 1 или 2 округов: так все достопримечательности будут у вас под рукой! Мы подобрали для вас нестандартные отели с выгодными предложениями на эти даты и показали их на карте города:"
        },
        {
          "type": "cards",
          "options": [
            {
              "type": "hotel",
              "image": {
                "title": "Boutique Hôtel Konfidentiel",
                "description": "отель 4 звезды",
                "src": "https://img.twiket.com.ua/i/?p=S0dkSv6UfPIF9z9d/7P7slXrkOy6PfsJCmzJEsOe72O5bP/TjgQZ+MGmiildQO6U+jcCyq5fdcqyVtUXL7Oa1DQ8NfRGvm1H0kYosSEMLjdj3lOairrFxty6rnA2BErb"
              },
              "price": {
                "title": [
                  "делюкс",
                  "без питания"
                ],
                "btn": {
                  "href": "https://www.onetwotrip.com/ru/hotels/hotel/boutique-hotel-konfidentiel-346829?date_start=2017-07-22&date_end=2017-07-25&adults=2&children=0&id=2988507&type=geo&country_code=FR&to=%25D0%259F%25D0%25B0%25D1%2580%25D0%25B8%25D0%25B6&s=true&countryName=france&cityName=paris&sc=2988507",
                  "title": "57 568 %rub%"
                }
              }
            },
            {
              "type": "hotel",
              "image": {
                "title": "Le 123 Sébastopol - Astotel",
                "description": "отель 4 звезды",
                "src": "https://img.twiket.com.ua/i/?p=S0dkSv6UfPIF9z9d/7P7slXrkOy6PfsJCmzJEsOe72PQbdWapvD+rpp9n+cEVx60YE5t/TL3k51Jg2D2megNpLc8xFHLg4SA8A9BJbrhdKRj3lOairrFxty6rnA2BErb"
              },
              "price": {
                "title": [
                  "стандартный",
                  "без питания"
                ],
                "btn": {
                  "href": "https://www.onetwotrip.com/ru/hotels/hotel/le-123-sebastopol-astotel-1830397?date_start=2017-07-22&date_end=2017-07-25&adults=2&children=0&id=2988507&type=geo&country_code=FR&to=%25D0%259F%25D0%25B0%25D1%2580%25D0%25B8%25D0%25B6&s=true&countryName=france&cityName=paris&sc=2988507",
                  "title": "35 235 %rub%"
                }
              }
            },
            {
              "type": "hotel",
              "image": {
                "title": "Hôtel Thérèse",
                "description": "отель 4 звезды",
                "src": "https://img.twiket.com.ua/i/?p=S0dkSv6UfPIF9z9d/7P7slXrkOy6PfsJCmzJEsOe72N5TKFAWvYhHhkKMDgpM4FaTESnjQy1qx6ojoeipDuSvIH+5TzbS2w6S4WsoWJVA1U="
              },
              "price": {
                "title": [
                  "стандартный",
                  "без питания"
                ],
                "btn": {
                  "href": "https://www.onetwotrip.com/ru/hotels/hotel/hotel-therese-330221?date_start=2017-07-22&date_end=2017-07-25&adults=2&children=0&id=2988507&type=geo&country_code=FR&to=%25D0%259F%25D0%25B0%25D1%2580%25D0%25B8%25D0%25B6&s=true&countryName=france&cityName=paris&sc=2988507",
                  "title": "26 877 %rub%"
                }
              }
            },
            {
              "type": "hotel",
              "image": {
                "title": "Hôtel Original Paris",
                "description": "отель 4 звезды",
                "src": "https://img.twiket.com.ua/i/?p=S0dkSv6UfPIF9z9d/7P7slXrkOy6PfsJCmzJEsOe72Nz3MKnEhUjJ9C/KFB+x8qTU49NFZ44Mw5vHvGAIfDqqE1J46oeyHBWuknZU1yXf5c="
              },
              "price": {
                "title": [
                  "стандартный",
                  "без питания"
                ],
                "btn": {
                  "href": "https://www.onetwotrip.com/ru/hotels/hotel/hotel-original-paris-371140?date_start=2017-07-22&date_end=2017-07-25&adults=2&children=0&id=2988507&type=geo&country_code=FR&to=%25D0%259F%25D0%25B0%25D1%2580%25D0%25B8%25D0%25B6&s=true&countryName=france&cityName=paris&sc=2988507",
                  "title": "25 541 %rub%"
                }
              }
            }
          ]
        },
        {
          "type": "map",
          "options": {
            "point": {
              "location": [
                ""
              ],
              "zoom": "7"
            },
            "poi": {
              "name": "париж",
              "city_id": 2988507,
              "sight": [
                [
                  48.861115,
                  2.335437,
                  "museums",
                  "Лувр"
                ],
                [
                  48.859968,
                  2.362053,
                  "museums",
                  "Музей Пикассо"
                ],
                [
                  48.853301,
                  2.348987,
                  "monument",
                  "Собор Нотр-Дам"
                ],
                [
                  48.857896,
                  2.294898,
                  "place",
                  "Эйфелева башня"
                ],
                [
                  48.854677,
                  2.312461,
                  "monument",
                  "Дом инвалидов"
                ],
                [
                  48.866726,
                  2.311689,
                  "monument",
                  "Grand Palais (дворец)"
                ],
                [
                  48.862506,
                  2.318995,
                  "monument",
                  "Бурбонский дворец"
                ],
                [
                  48.884065,
                  2.332213,
                  "theater",
                  "Мулен Руж (кабаре)"
                ],
                [
                  48.873688,
                  2.295257,
                  "monument",
                  "Триумфальная арка"
                ],
                [
                  48.834138,
                  2.332653,
                  "historic",
                  "Парижские катакомбы"
                ],
                [
                  48.892106,
                  2.393303,
                  "tree",
                  "Parc de la Villette (парк)"
                ],
                [
                  48.840243,
                  2.275715,
                  "tree",
                  "Парк Андре Ситроена"
                ],
                [
                  48.861415,
                  2.297594,
                  "museums",
                  "Музей на набережной Бранли"
                ],
                [
                  48.842053,
                  2.355763,
                  "tree",
                  "Jardin des Plantes (Ботанический сад)"
                ],
                [
                  48.892317,
                  2.236769,
                  "monument",
                  "Большая арка Дефанс"
                ],
                [
                  48.831367,
                  2.378928,
                  "children",
                  "Лофт «Холодильники»"
                ],
                [
                  48.876742,
                  2.307778,
                  "monument",
                  "Китайская пагода"
                ],
                [
                  48.824156,
                  2.365169,
                  "shopping",
                  "Чайна-таун в Олимпиадах"
                ],
                [
                  48.853716,
                  2.361553,
                  "children",
                  "Деревня Сен-Поль"
                ],
                [
                  48.849393,
                  2.371471,
                  "children",
                  "Заброшенная железная дорога"
                ],
                [
                  48.852156,
                  2.346624,
                  "theater",
                  "Кабаре Aux Trois Mailletz"
                ]
              ],
              "hotels": [
                {
                  "id": 346829,
                  "type": 14,
                  "city": "Paris",
                  "city_iata": "PAR",
                  "translated_city": "Париж",
                  "city_name_translated": "Париж",
                  "translated_name": "Boutique Hôtel Konfidentiel",
                  "city_id": 2988507,
                  "img": "https://e86451daaa32c758810f-3b644443a64c96357705f8f2be9c2e51.ssl.cf3.rackcdn.com/290117/346829_b.jpg",
                  "img_s": "https://e86451daaa32c758810f-3b644443a64c96357705f8f2be9c2e51.ssl.cf3.rackcdn.com/290117/346829_b.jpg",
                  "img_size": "343x148",
                  "name": "Boutique Hôtel Konfidentiel",
                  "address": "64, Rue de l'Arbre Sec",
                  "zip": "75001",
                  "country_code": "FR",
                  "stars": 4,
                  "district_id": 800090,
                  "lat": 48.86135483,
                  "lng": 2.34256434,
                  "construction": 2010,
                  "renovated": 2012,
                  "total_rooms": 6,
                  "num_floors": 6,
                  "facilities": [
                    1,
                    2,
                    5,
                    10,
                    18,
                    19,
                    30,
                    40,
                    44,
                    46,
                    50,
                    65,
                    68,
                    70,
                    72,
                    74,
                    80,
                    81,
                    87,
                    97,
                    105,
                    115,
                    142,
                    143,
                    145,
                    163
                  ],
                  "facilitiesByRating": {
                    "top": [
                      [
                        1,
                        0
                      ],
                      [
                        2,
                        0
                      ],
                      [
                        3,
                        0
                      ],
                      [
                        5,
                        0
                      ],
                      [
                        10,
                        0
                      ],
                      [
                        18,
                        0
                      ],
                      [
                        19,
                        0
                      ],
                      [
                        30,
                        0
                      ],
                      [
                        40,
                        0
                      ]
                    ],
                    "all": [
                      [
                        1,
                        0
                      ],
                      [
                        2,
                        0
                      ],
                      [
                        3,
                        0
                      ],
                      [
                        5,
                        0
                      ],
                      [
                        10,
                        0
                      ],
                      [
                        18,
                        0
                      ],
                      [
                        19,
                        0
                      ],
                      [
                        30,
                        0
                      ],
                      [
                        40,
                        0
                      ],
                      [
                        44,
                        0
                      ],
                      [
                        46,
                        0
                      ],
                      [
                        50,
                        0
                      ],
                      [
                        65,
                        0
                      ],
                      [
                        68,
                        0
                      ],
                      [
                        70,
                        0
                      ],
                      [
                        72,
                        0
                      ],
                      [
                        74,
                        0
                      ],
                      [
                        80,
                        0
                      ],
                      [
                        81,
                        0
                      ],
                      [
                        87,
                        0
                      ],
                      [
                        97,
                        0
                      ],
                      [
                        105,
                        0
                      ],
                      [
                        115,
                        0
                      ],
                      [
                        142,
                        0
                      ],
                      [
                        143,
                        0
                      ],
                      [
                        145,
                        0
                      ],
                      [
                        163,
                        0
                      ]
                    ]
                  },
                  "facility": {
                    "weight": 616,
                    "top": [
                      74,
                      50,
                      145,
                      115
                    ]
                  },
                  "amenities": {},
                  "is_recommend": 0,
                  "checkin": "14:00",
                  "checkout": "12:00",
                  "roomtypes": [
                    "Deluxe",
                    "Standard room",
                    "Suite"
                  ],
                  "chains": [],
                  "themes": [
                    5,
                    8,
                    9,
                    14,
                    15
                  ],
                  "tags": [
                    "vvp"
                  ],
                  "ott_rank": 0.014286,
                  "ott_rating": 360,
                  "ta_rating": 4.5,
                  "ta_reviews": 191,
                  "ta": [
                    4.5,
                    191
                  ],
                  "ty_reviews": 151,
                  "ty_sources": 12,
                  "ty_rating": 90,
                  "ty": [
                    151,
                    12,
                    90,
                    "Excellent"
                  ],
                  "url": "https://www.onetwotrip.com/ru/hotels/hotel/boutique-hotel-konfidentiel-346829?date_start=2017-05-22&date_end=2017-06-21&adults=1&children=0&children_ages=&s=true&to=Paris&persons=1",
                  "min_price": null
                },
                {
                  "id": 1830397,
                  "type": 14,
                  "city": "Paris",
                  "city_iata": "PAR",
                  "translated_city": "Париж",
                  "city_name_translated": "Париж",
                  "translated_name": "Le 123 Sébastopol - Astotel",
                  "city_id": 2988507,
                  "img": "https://e86451daaa32c758810f-3b644443a64c96357705f8f2be9c2e51.ssl.cf3.rackcdn.com/290117/1830397_b.jpg",
                  "img_s": "https://e86451daaa32c758810f-3b644443a64c96357705f8f2be9c2e51.ssl.cf3.rackcdn.com/290117/1830397_b.jpg",
                  "img_size": "343x148",
                  "name": "Le 123 Sébastopol - Astotel",
                  "address": "123, boulevard Sébastopol",
                  "zip": "75002",
                  "country_code": "FR",
                  "stars": 4,
                  "district_id": null,
                  "lat": 48.86761856,
                  "lng": 2.35307646,
                  "construction": null,
                  "renovated": null,
                  "total_rooms": null,
                  "num_floors": null,
                  "facilities": [
                    1,
                    2,
                    5,
                    9,
                    10,
                    18,
                    19,
                    21,
                    30,
                    32,
                    40,
                    44,
                    46,
                    48,
                    68,
                    70,
                    72,
                    74,
                    80,
                    81,
                    87,
                    97,
                    105,
                    112,
                    115,
                    136,
                    143,
                    163
                  ],
                  "facilitiesByRating": {
                    "top": [
                      [
                        1,
                        0
                      ],
                      [
                        2,
                        0
                      ],
                      [
                        5,
                        0
                      ],
                      [
                        9,
                        0
                      ],
                      [
                        10,
                        0
                      ],
                      [
                        18,
                        0
                      ],
                      [
                        19,
                        0
                      ],
                      [
                        21,
                        0
                      ],
                      [
                        30,
                        0
                      ]
                    ],
                    "all": [
                      [
                        1,
                        0
                      ],
                      [
                        2,
                        0
                      ],
                      [
                        5,
                        0
                      ],
                      [
                        9,
                        0
                      ],
                      [
                        10,
                        0
                      ],
                      [
                        18,
                        0
                      ],
                      [
                        19,
                        0
                      ],
                      [
                        21,
                        0
                      ],
                      [
                        30,
                        0
                      ],
                      [
                        32,
                        0
                      ],
                      [
                        40,
                        0
                      ],
                      [
                        44,
                        0
                      ],
                      [
                        46,
                        0
                      ],
                      [
                        48,
                        0
                      ],
                      [
                        50,
                        0
                      ],
                      [
                        65,
                        0
                      ],
                      [
                        68,
                        0
                      ],
                      [
                        70,
                        0
                      ],
                      [
                        72,
                        0
                      ],
                      [
                        74,
                        0
                      ],
                      [
                        80,
                        0
                      ],
                      [
                        81,
                        0
                      ],
                      [
                        87,
                        0
                      ],
                      [
                        97,
                        0
                      ],
                      [
                        105,
                        0
                      ],
                      [
                        112,
                        0
                      ],
                      [
                        115,
                        0
                      ],
                      [
                        136,
                        0
                      ],
                      [
                        143,
                        0
                      ],
                      [
                        145,
                        0
                      ],
                      [
                        163,
                        0
                      ]
                    ]
                  },
                  "facility": {
                    "weight": 517,
                    "top": [
                      74,
                      115,
                      48,
                      143
                    ]
                  },
                  "amenities": {},
                  "is_recommend": 0,
                  "checkin": "14:00",
                  "checkout": "12:00",
                  "roomtypes": [],
                  "chains": [],
                  "themes": [
                    5,
                    8,
                    9
                  ],
                  "tags": [
                    "vvp"
                  ],
                  "ott_rank": null,
                  "ott_rating": 400,
                  "ta_rating": 5,
                  "ta_reviews": 1552,
                  "ta": [
                    5,
                    1552
                  ],
                  "ty_reviews": 1552,
                  "ty_sources": 1,
                  "ty_rating": 100,
                  "ty": [
                    1552,
                    1,
                    100,
                    "Excellent"
                  ],
                  "url": "https://www.onetwotrip.com/ru/hotels/hotel/le-123-sebastopol-astotel-1830397?date_start=2017-05-22&date_end=2017-06-21&adults=1&children=0&children_ages=&s=true&to=Paris&persons=1",
                  "min_price": null
                },
                {
                  "id": 330221,
                  "type": 14,
                  "city": "Paris",
                  "city_iata": "PAR",
                  "translated_city": "Париж",
                  "city_name_translated": "Париж",
                  "translated_name": "Hôtel Thérèse",
                  "city_id": 2988507,
                  "img": "https://e86451daaa32c758810f-3b644443a64c96357705f8f2be9c2e51.ssl.cf3.rackcdn.com/290117/330221_b.jpg",
                  "img_s": "https://e86451daaa32c758810f-3b644443a64c96357705f8f2be9c2e51.ssl.cf3.rackcdn.com/290117/330221_b.jpg",
                  "img_size": "343x148",
                  "name": "Hôtel Thérèse",
                  "address": "5-7 Rue Thérèse",
                  "zip": "75001",
                  "country_code": "FR",
                  "stars": 4,
                  "district_id": 800090,
                  "lat": 48.86575317,
                  "lng": 2.33607268,
                  "construction": 1870,
                  "renovated": 2012,
                  "total_rooms": 43,
                  "num_floors": 5,
                  "facilities": [
                    1,
                    2,
                    5,
                    8,
                    9,
                    10,
                    18,
                    19,
                    23,
                    30,
                    40,
                    44,
                    46,
                    50,
                    65,
                    68,
                    70,
                    72,
                    80,
                    81,
                    83,
                    97,
                    145,
                    163
                  ],
                  "facilitiesByRating": {
                    "top": [
                      [
                        1,
                        0
                      ],
                      [
                        2,
                        0
                      ],
                      [
                        3,
                        0
                      ],
                      [
                        5,
                        0
                      ],
                      [
                        8,
                        0
                      ],
                      [
                        9,
                        0
                      ],
                      [
                        10,
                        0
                      ],
                      [
                        18,
                        0
                      ],
                      [
                        19,
                        0
                      ]
                    ],
                    "all": [
                      [
                        1,
                        0
                      ],
                      [
                        2,
                        0
                      ],
                      [
                        3,
                        0
                      ],
                      [
                        5,
                        0
                      ],
                      [
                        8,
                        0
                      ],
                      [
                        9,
                        0
                      ],
                      [
                        10,
                        0
                      ],
                      [
                        18,
                        0
                      ],
                      [
                        19,
                        0
                      ],
                      [
                        23,
                        0
                      ],
                      [
                        30,
                        0
                      ],
                      [
                        40,
                        0
                      ],
                      [
                        44,
                        0
                      ],
                      [
                        46,
                        0
                      ],
                      [
                        50,
                        0
                      ],
                      [
                        65,
                        0
                      ],
                      [
                        68,
                        0
                      ],
                      [
                        70,
                        0
                      ],
                      [
                        72,
                        0
                      ],
                      [
                        80,
                        0
                      ],
                      [
                        81,
                        0
                      ],
                      [
                        83,
                        0
                      ],
                      [
                        97,
                        0
                      ],
                      [
                        145,
                        0
                      ],
                      [
                        163,
                        0
                      ]
                    ]
                  },
                  "facility": {
                    "weight": 364,
                    "top": [
                      50,
                      145,
                      83,
                      65
                    ]
                  },
                  "amenities": {},
                  "is_recommend": 1,
                  "checkin": "14:00",
                  "checkout": "12:00",
                  "roomtypes": [
                    "Club",
                    "Deluxe",
                    "Executive room",
                    "Standard room"
                  ],
                  "chains": [],
                  "themes": [
                    5,
                    8,
                    9,
                    14,
                    15
                  ],
                  "tags": [],
                  "ott_rank": null,
                  "ott_rating": 360,
                  "ta_rating": 4.5,
                  "ta_reviews": 461,
                  "ta": [
                    4.5,
                    461
                  ],
                  "ty_reviews": 650,
                  "ty_sources": 17,
                  "ty_rating": 90,
                  "ty": [
                    650,
                    17,
                    90,
                    "Excellent"
                  ],
                  "url": "https://www.onetwotrip.com/ru/hotels/hotel/hotel-therese-330221?date_start=2017-05-22&date_end=2017-06-21&adults=1&children=0&children_ages=&s=true&to=Paris&persons=1",
                  "min_price": null
                },
                {
                  "id": 371140,
                  "type": 14,
                  "city": "Paris",
                  "city_iata": "PAR",
                  "translated_city": "Париж",
                  "city_name_translated": "Париж",
                  "translated_name": "Hôtel Original Paris",
                  "city_id": 2988507,
                  "img": "https://e86451daaa32c758810f-3b644443a64c96357705f8f2be9c2e51.ssl.cf3.rackcdn.com/290117/371140_b.jpg",
                  "img_s": "https://e86451daaa32c758810f-3b644443a64c96357705f8f2be9c2e51.ssl.cf3.rackcdn.com/290117/371140_b.jpg",
                  "img_size": "343x148",
                  "name": "Hôtel Original Paris",
                  "address": "8, Boulevard Beaumarchais",
                  "zip": "75011",
                  "country_code": "FR",
                  "stars": 4,
                  "district_id": 800091,
                  "lat": 48.85482407,
                  "lng": 2.36902213,
                  "construction": 1920,
                  "renovated": 2011,
                  "total_rooms": 40,
                  "num_floors": 6,
                  "facilities": [
                    1,
                    2,
                    5,
                    10,
                    18,
                    19,
                    30,
                    50,
                    65,
                    68,
                    70,
                    72,
                    80,
                    81,
                    97,
                    98,
                    105,
                    112,
                    115,
                    145,
                    163
                  ],
                  "facilitiesByRating": {
                    "top": [
                      [
                        1,
                        0
                      ],
                      [
                        2,
                        0
                      ],
                      [
                        3,
                        0
                      ],
                      [
                        5,
                        0
                      ],
                      [
                        10,
                        0
                      ],
                      [
                        18,
                        0
                      ],
                      [
                        19,
                        0
                      ],
                      [
                        30,
                        0
                      ],
                      [
                        50,
                        0
                      ]
                    ],
                    "all": [
                      [
                        1,
                        0
                      ],
                      [
                        2,
                        0
                      ],
                      [
                        3,
                        0
                      ],
                      [
                        5,
                        0
                      ],
                      [
                        10,
                        0
                      ],
                      [
                        18,
                        0
                      ],
                      [
                        19,
                        0
                      ],
                      [
                        30,
                        0
                      ],
                      [
                        50,
                        0
                      ],
                      [
                        65,
                        0
                      ],
                      [
                        68,
                        0
                      ],
                      [
                        70,
                        0
                      ],
                      [
                        72,
                        0
                      ],
                      [
                        80,
                        0
                      ],
                      [
                        81,
                        0
                      ],
                      [
                        97,
                        0
                      ],
                      [
                        98,
                        0
                      ],
                      [
                        105,
                        0
                      ],
                      [
                        112,
                        0
                      ],
                      [
                        115,
                        0
                      ],
                      [
                        145,
                        0
                      ],
                      [
                        163,
                        0
                      ]
                    ]
                  },
                  "facility": {
                    "weight": 363,
                    "top": [
                      50,
                      145,
                      115,
                      65
                    ]
                  },
                  "amenities": {},
                  "is_recommend": 0,
                  "checkin": "14:00",
                  "checkout": "12:00",
                  "roomtypes": [
                    "Executive room",
                    "Standard room"
                  ],
                  "chains": [],
                  "themes": [
                    5,
                    8,
                    9
                  ],
                  "tags": [
                    "vvp"
                  ],
                  "ott_rank": 0.028571,
                  "ott_rating": 360,
                  "ta_rating": 4.5,
                  "ta_reviews": 817,
                  "ta": [
                    4.5,
                    817
                  ],
                  "ty_reviews": 546,
                  "ty_sources": 15,
                  "ty_rating": 90,
                  "ty": [
                    546,
                    15,
                    90,
                    "Excellent"
                  ],
                  "url": "https://www.onetwotrip.com/ru/hotels/hotel/hotel-original-paris-371140?date_start=2017-05-22&date_end=2017-06-21&adults=1&children=0&children_ages=&s=true&to=Paris&persons=1",
                  "min_price": null
                }
              ],
              "markers": []
            }
          }
        },
        {
          "type": "drop-down",
          "title": "Карта Paris Visite",
          "options": [
            {
              "type": "text",
              "options": "Paris Visite - это туристический проездной билет, который позволяет неограниченно использовать любой общественный транспорт Парижа в течении лимитированного времени и в ограниченном радиусе. Есть два варианта Paris Visite: обычный, который позволяет ездить по 1-3 зоне парижского общественного транспорта, и расширенный, который позволяет ездить по всему региону (1-5 зоны),  а также доехать до аэропортов Шарль-де-Голль или Орли. Paris Visite на 1-5 зону даже позволяет использовать легкорельсное метро Орливаль - ни один из прочих абонементов не включает проезд на этом мини-метро! Помимо радиуса действия, вы можете также выбрать срок действия проездного билета Пари Визит: на 1 сутки, на 2 дня, на 3 дня или на 5 суток.\n\n"
            },
            {
              "type": "text",
              "options": "Карта на 1 день стоит 12.85 евро, 2 дня - 21 евро, 3 дня - 28.50 евро. Купить карту можно в автоматах на любой станции метро, в киосках. Paris Visite также продается во многих отелях и турагенствах. Можно также <a target='_blank' href='https://booking.parisinfo.com/il4-offer_i149-paris-visite-pass-pass-transport.aspx'>заказать через интернет</a> (высылают на почту письмам, так что принимайте во внимание риски, связанные с российской почтой).\n\n"
            }
          ]
        },
        {
          "type": "drop-down",
          "title": "Paris Pass",
          "options": [
            {
              "type": "text",
              "options": "Paris Pass — это транспортная карта Paris Visite, туристические автобусы компании Big Bus Paris, музейный абонемент Museum Pass и экскурсия по Сене от компании Bateaux parisiens в одном флаконе. В качестве бонуса — путеводитель по городу на 120 страниц. Карта на 2 дня обойдется взрослому покупателю в 135 EUR. Есть также варианты на 3, 4 и 6 дней. Карту можно забрать уже в Париже, либо заказать доставку по почте, но в любом случае, нужно сначала купить ее <a target='_blank' href='https://www.parispass.com/paris-pass-prices.php'>на сайте</a>."
            },
            {
              "type": "text",
              "options": "Забрать карту Paris Pass можно по адресу Big Bus Ticket Shop, 11 Avenue de L'Opera, 75001 Paris (станция метро Pyramides) в любой день с 9:30 до 18:30.  "
            }
          ]
        },
        {
          "type": "drop-down",
          "title": "Лувр",
          "options": [
            {
              "type": "text",
              "options": "Лувр - это самый известный и самый посещаемый музей не только в Париже, но и в мире. К сожалению, его популярность означают почти неизбежные очереди на вход. В них можно простоять несколько часов! \n"
            },
            {
              "type": "text",
              "options": "Мы настоятельно рекомендуем вам купить билет в Лувр <a target='_blank' href='https://www.ticketlouvre.fr//louvre/b2c/index.cfm/home'>заранее на сайте музея</a>. Тогда вы сможете пройти в музей быстро: там имеется отдельная очередь для обладателей карты Paris Visit или лиц, имеющих входные билеты. Так же билет в Лувр входит в Paris Pass.\n"
            },
            {
              "type": "text",
              "options": "Всем известная Пирамида не является единственным входом в музей. Это самый известный вход и самый запоминающийся для туриста, но не единственный. Помимо пирамиды, вы можете попасть в  Лувр через  торговый центр Carrousel du Louvre, который находится на том же уровне, что и кассы музея.\n"
            },
            {
              "type": "text",
              "options": "Часы работы: 9:00-18:00 (ср, пт - до 22:00, вт - закрыт)"
            }
          ]
        },
        {
          "type": "drop-down",
          "title": "Круизы по Сене",
          "options": [
            {
              "type": "text",
              "options": "В настоящее время множество компаний предлагает круизы на речных трамвайчиках по Сене. Для обзорной прогулки мы рекомендуем выбрать BatoBus. Цена дневного билета - 17 евро. Купить билет можно <a target='_blank' href='http://www.batobus.com/en/point-of-sales.html'>в одной из точек продаж</a> по всему городу. Билет действителен 24 часа (есть так же билеты на 2 дня)."
            },
            {
              "type": "text",
              "options": "Если вы хотите на просто увидеть Париж с воды, но и поесть на кораблике, наблюдая на проходящие за бортом достопримечательности французской столицы, лучше всего для этой цели подойдут кораблики компании Green River. <a target='_blank' href='http://www.greenriver-paris.fr/en/croisiere/breakfast-on-the-seine-river'>Завтрак на Сене</a> обойдется всего в 34 евро с человека (нужно заполнить форму на сайте заранее). Вечерние прогулки обойдутся значительно дороже. Кораблики отправляются с причала по адресу 34 Quai d’Austerlitz."
            }
          ]
        },
        {
          "type": "drop-down",
          "title": "Что еще посмотреть?",
          "options": [
            {
              "type": "title",
              "options": "Большая Арка в квартале Дефанс"
            },
            {
              "type": "text",
              "options": "Дефа́нс (La Défense) — это суперсовременный квартал в ближнем пригороде Парижа, который считается самым большим деловым центром Европы и даже получил прозвище «парижский Манхэттен». Длина пешеходной зоны здесь составляет 1,2 км, а ширина — 250 м. Автодороги, наряду с железной дорогой и метро, спрятаны в подземных туннелях.\n"
            },
            {
              "type": "text",
              "options": "\nБольшая Арка Дефанс (La Grande Arche de la Défense) — это современный вариант известнейшей Триумфальной арки — представляет собой куб правильной формы с проходом внутри. Под ней располагаются станции RER (пригородного экспресс-метро) и метро. Боковые «колонны» занимают правительственные и коммерческие офисы. На верхних этажах работает Музей информатики, ресторан и смотровая площадка с великолепным видом на город и «историческую ось» Парижа, протянувшуюся от Большой Арки Дефанс до Лувра. На данный момент смотровая площадка закрыта, но власти Парижа обещали открыть ее в мае 2017 года.\n\n"
            },
            {
              "type": "text",
              "options": "Адрес: 1 Parvis de la Defense\n"
            },
            {
              "type": "title",
              "options": "Катакомбы Парижа"
            },
            {
              "type": "text",
              "options": "Огромная сеть извилистых подземных туннелей и пещер искусственного типа, разросшихся в самом чреве Парижа. Общая протяжённость — от 187 до 300 километров. Происхождение ходов связано с добычей известняка, находящегося под большой толщей грунта. Средняя глубина выработок составляет около 25 метров.\n\n"
            },
            {
              "type": "text",
              "options": "С конца XVIII века в связи с перенасыщением Парижских кладбищ (порой под одной могилой могли покоиться десяток человек на различных уровнях) в катакомбы перезахоронили останки почти 6 миллионов человек. Знаменитый оссусарий представляет собой галереи уложенных вдоль стен костей и черепов."
            },
            {
              "type": "text",
              "options": "Адрес: 1 Avenue du Colonel Henri Rol-Tanguy. Часы работы: 10:00-20:00 (пн - закрыт)\n"
            },
            {
              "type": "title",
              "options": "Лофт «Холодильники» (Les Frigos)"
            },
            {
              "type": "text",
              "options": "В прошлом — это гигантский склад-холодильник при товарной станции. Сейчас переоборудованное дизайнерами и архитекторами индустриальное пространство заселяют артисты и художники. Из наиболее известных обитателей «Холодильников» можно отметить: фотографов Гийёма Жирандо и Франка Бишона, композитора Симона Клоке-Ляфолли; ассоциацию «New music association», «Союз музыкантов джаза», радиостанцию «Пари-джаз».\nВсего здесь около 80-ти мастерских и квартир художников, а также 17 клубов и ассоциаций.\n\nLes Frigos — это типичный пример лофта, существующего в формате культурного центра, в котором часть помещений сдаётся под галереи, танцевальные студии, шоу-румы, кафе, ателье и тому подобное.\n\n"
            },
            {
              "type": "text",
              "options": "Адрес: 19 Rue des Frigos\n"
            },
            {
              "type": "title",
              "options": "Китайская пагода (La Pagode)"
            },
            {
              "type": "text",
              "options": "По мнению местных жителей, La Pagode — это архитектурная феерия Парижа. Это экзотическое здание совсем не ожидаешь увидеть в тихом районе, где нормой являются дома в османском стиле.\n\nАнтичная японская пагода была построена в 1896 году монсеньором Морином (владельцем магазина промтоваров Le Bon Marché) в подарок своей жене. Затем он был спасен от сноса в 1970 году, а позже превратился в кинотеатр.\n\n"
            },
            {
              "type": "text",
              "options": "La Pagode является одним из немногих храмов независимого кино в Париже, где можно посмотреть фильмы в оригинальной режиссерской версии таких мастеров как Кустурица, Мануэль де Оливейра или Кена Лоуча.\nЕсли вы запланировали посещение этого культового места, настоятельно рекомендуем приехать пораньше и насладиться чашечкой чая в крошечном восточном саду.\n\n"
            },
            {
              "type": "text",
              "options": "Адрес: 48 Rue de Courcelles"
            },
            {
              "type": "title",
              "options": "Парк Андре Ситроен"
            },
            {
              "type": "text",
              "options": "В парке Андре Ситроен, что находится на юго-западе города, парижане — стандартно — бегают по утрам, а также проводят мастер-классы по капоэйре, танцуют, устраивают пикники и снимают кино . Но что самое любопытное — там есть настоящий воздушный шар! На нем вы на 10-15 минут можете подняться в небо над Парижем, сделать несколько фотографий и полюбоваться на отличный вид. Стоит это удовольствие всего 20 евро и в солнечную погоду очень радует. Кстати, если станет слишком жарко — в этом же парке есть возможность побегать по бьющим из земли «танцующим» фонтанам ."
            },
            {
              "type": "text",
              "options": "Адрес: 2 Rue Cauchy"
            },
            {
              "type": "title",
              "options": "Деревня Сен-Поль "
            },
            {
              "type": "text",
              "options": "Деревушка Сен-Поль — место чуть в стороне от основных туристических маршрутов квартала Маре. За церковью Святого Павла и Святого Людовика находится череда потайных дворов, внутри которых — мастерские, галереи, кафе, магазинчики антиквариата, и всё работает каждый день."
            },
            {
              "type": "text",
              "options": "Адрес: Rue Saint-Paul"
            },
            {
              "type": "title",
              "options": "Парк Ла-Виллет"
            },
            {
              "type": "text",
              "options": "Парк Ла-Виллет — культурная доминанта всего XIX округа. Раньше тут были скотобойни, потом их закрыли, и в течение 1980-х всё тот же Бернар Чуми создал масштабную общественную зону с самым большим в Европе научным музеем и концертными площадками. Кто-то из местных жителей катается в парке на роликах, кто-то отдыхает у канала Урк, а кто-то идёт в IMAX-кинотеатр «Жеод», он выглядит как большая серебристая сфера."
            },
            {
              "type": "text",
              "options": "Адрес: 211 Avenue Jean Jaurès"
            },
            {
              "type": "title",
              "options": "Чайна-таун в Олимпиадах"
            },
            {
              "type": "text",
              "options": "Самый известный чайна-таун Парижа, кажется, находится в Бельвиле — многонациональном районе, который собрал мигрантов из Азии и Африки. Но за вкусными супами и лапшой лучше отправиться не туда, а в Олимпиады на юго-востоке города. Олимпиады — это местный Гонконг или Новый Арбат: в 1960-е годы прогрессивные французские архитекторы предложили снести не соответствующий столичному статусу XIII округ и застроить его 50-этажными небоскрёбами. Но проект провалился и был свёрнут раньше времени. Белые воротнички не захотели жить в авангардном районе, и несколько десятков многоэтажек заняли беженцы из Юго-Восточной Азии. По иронии судьбы, исторические части округа сохранили свой провинциальный дух. Например, находящийся в пятнадцати минутах ходьбы от Олимпиад квартал Бют-о-Кай — тихое место с невысокими домиками, где обожают гулять парижане."
            },
            {
              "type": "text",
              "options": "Адрес: 60 Avenue d'Ivry"
            },
            {
              "type": "title",
              "options": "Музей на набережной Бранли"
            },
            {
              "type": "text",
              "options": "Музей на набережной Бранли, посвящённый примитивному искусству народов Африки, Азии и Океании, расположен всего в паре минут ходьбы от Эйфелевой башни и при этом производит едва ли не большее впечатление. Даже не коллекцией, а своим внешним видом. Представьте, что посреди европейского города сперва вырос тропический лес, а потом в него приземлился космический корабль. Сад музея, закрытый от набережной огромной витриной, — одно из лучших и самых спокойных мест для отдыха в городе. Если же вас интересует азиатское искусство само по себе, лучше отправиться в любимый парижанами музей Гиме — он прямо через реку, и рядом с ним тоже есть потайной сад."
            },
            {
              "type": "text",
              "options": "Адрес: 37 Quai Branly. Часы работы: 11:00-19:00 (выходные до 21:00, пн - закрыт)"
            },
            {
              "type": "title",
              "options": "Заброшенная железная дорога"
            },
            {
              "type": "text",
              "options": "Променад-Планте начинается недалеко от площади Бастилии и идёт на восток вдоль улицы Домениль. Под эстакадой бывшей железнодорожной ветки разместились мастерские, галереи и магазинчики. Наверху же — окружённая разнообразными деревьями и кустами городская аллея, которую парижане любят использовать для прогулок с детьми или для утренних пробежек."
            },
            {
              "type": "text",
              "options": "Лучше всего начинать прогулку с адреса 1 Coulée verte René-Dumont и двигаться по Avenue Daumesnil до дома №290, за которым начинается большой парк."
            },
            {
              "type": "title",
              "options": "Кабаре Aux Trois Mailletz"
            },
            {
              "type": "text",
              "options": "Мы рекомендуем не тратить 300-500 евро в кабаре \"Мулен Руж\" (только за вход нужно отдать не мнее 100 евро, ужин - от 150 евро), а провести аутентичный Парижский вечер в более обаятельном кабаре Aux Trois Mailletz."
            },
            {
              "type": "text",
              "options": "Кабаре “Aux Trois Mailletz” — это живая музыка и доброжелательная атмосфера. Здесь поют и танцуют до утра! Поют даже официанты, а гости танцуют даже на столах:) Вход платный, но зрелище стоит того. Если вы хотите весело провести ночь в Париже, то знайте, что здесь всегда есть пианист, артисты, готовые вас развлечь, и доброжелательная французская публика, не так сильно разбавленная туристами."
            },
            {
              "type": "text",
              "options": "Вход стоит 20-30 евро, блюда по меню 20-40 евро. Общий счет за ночь на двоих человек составит около 200 евро."
            },
            {
              "type": "text",
              "options": "Адрес: 58 Rue Galande. Часы работы: 18:00 - 05:00"
            }
          ]
        },
        {
          "type": "drop-down",
          "title": "Рестораны, рынки, кофейни, вино и сыр",
          "options": [
            {
              "type": "map",
              "title": "",
              "options": {
                "poi": {
                  "sight": [
                    [
                      48.873498,
                      2.364795,
                      "coffeeshop",
                      "Ten Belles"
                    ],
                    [
                      48.865701,
                      2.361497,
                      "coffeeshop",
                      "Fondation Cafe"
                    ],
                    [
                      48.865553,
                      2.337229,
                      "coffeeshop",
                      "Café Kitsuné Paris at Palais Royal"
                    ],
                    [
                      48.85444,
                      2.355742,
                      "coffeeshop",
                      "La Caféothèque"
                    ],
                    [
                      48.857972,
                      2.367391,
                      "coffeeshop",
                      "Fragments"
                    ],
                    [
                      48.849058,
                      2.377687,
                      "shopping",
                      "Marche d’Aligre"
                    ],
                    [
                      48.863055,
                      2.362042,
                      "shopping",
                      "Le Marche des Enfants Rouges"
                    ],
                    [
                      48.86477,
                      2.346814,
                      "shopping",
                      "Rue Cler Market Street"
                    ],
                    [
                      48.864924,
                      2.297017,
                      "shopping",
                      "Marché Président Wilson"
                    ],
                    [
                      48.854678,
                      2.369791,
                      "shopping",
                      "Marché Bastille"
                    ],
                    [
                      48.869486,
                      2.37184,
                      "shopping",
                      "Сырный магазин Fromagerie Goncourt"
                    ],
                    [
                      48.869647,
                      2.327388,
                      "vine",
                      "Энотека Lavinia"
                    ],
                    [
                      48.864281,
                      2.344177,
                      "vine",
                      "Винный бар O’Chateau"
                    ],
                    [
                      48.858121,
                      2.294515,
                      "food",
                      "Ресторан Le Jules Verne"
                    ],
                    [
                      48.849912,
                      2.355027,
                      "food",
                      "La Tour d’Argent"
                    ],
                    [
                      48.865582,
                      2.30304,
                      "food",
                      "Maison Blanche"
                    ],
                    [
                      48.843052,
                      2.322856,
                      "food",
                      "Le Ciel de Paris"
                    ],
                    [
                      48.86367,
                      2.363117,
                      "food",
                      "Café Pinson"
                    ],
                    [
                      48.865452,
                      2.382026,
                      "food",
                      "Le Perchoir"
                    ],
                    [
                      48.863951,
                      2.343516,
                      "food",
                      "The Beef Club"
                    ],
                    [
                      48.85668,
                      2.367209,
                      "food",
                      "Брассерия Chez Janou"
                    ],
                    [
                      48.864736,
                      2.363353,
                      "food",
                      "Бистро l’Ilot"
                    ]
                  ]
                }
              }
            },
            {
              "type": "title",
              "options": "Лучшие кофейни центра Парижа"
            },
            {
              "type": "text",
              "options": "Это места, которые идеально подойдут для завтрака или чашечки кофе с десертом во время осмотра достопримечательностей:"
            },
            {
              "type": "text",
              "options": "Ten Belles (10 Rue De La Grange Aux Belles), Fondation Cafe (16 Rue Dupetit Thouars), Café Kitsuné Paris at Palais Royal (51 Galerie Montpensier), La Caféothèque (52 rue de l’Hôtel-de-Ville), Fragments (76 rue de Tournelles)."
            },
            {
              "type": "title",
              "options": "Парижские рынки"
            },
            {
              "type": "text",
              "options": "Продуктовые рынки Парижа прекрасны все без исключения. Даже если вы не хотите готовить дома, сходить на рынок нужно в любом случае: поболтать с продавцами, поглазеть на парижан и проникнуться той самой настоящей французской атмосферой. Но вряд ли вам удастся удержаться и не купить хотя бы корзинку голубики. Вот список рынков Парижа: "
            },
            {
              "type": "text",
              "options": "Marche d’Aligre (12-й округ, метро Ledru-Rollin), Le Marche des Enfants Rouges (3-й округ,метро Filles du Calvaire), Marché Montorgueil\n(7-ой округ, метро Ecole Militaire), Marché Président Wilson (16-ый округ, метро Iéna или Alma-Marceau), Marché Bastille (11-ый округ, метро Ledru-Rollin). Последний отлично подходит для поиска деликатесов и морепродуктов. "
            },
            {
              "type": "title",
              "options": "Сырный магазин Fromagerie Goncourt."
            },
            {
              "type": "text",
              "options": "В Париже великое множество сырных магазинов. Мы можем с уверенностью порекомендовать сырный бутик Fromagerie Goncourt.\nХозяин Fromagerie Goncourt перед открытием собственной молочной лавки объехал на велосипеде всю Францию, чтобы найти лучших сыроделов, так что в качестве продуктов можно быть уверенным.\n"
            },
            {
              "type": "text",
              "options": "Обязательно купите кремовый Реблошон из Савойи — выбирайте фермерский, с зеленой казеиновой пастилкой, лучше всего от аффинера Paccard. Также попробуйте Кроттэн де Шавиньоль (лучший из козьих сыров) и Рокфор (с благородной плесенью)."
            },
            {
              "type": "text",
              "options": "Адрес: 1 rue Abel Rabaud"
            },
            {
              "type": "text",
              "options": "<a target='_blank' href='https://www.facebook.com/lafromageriegoncourt'>Страница магазина в Facebook</a>"
            },
            {
              "type": "title",
              "options": "Энотека Lavinia"
            },
            {
              "type": "text",
              "options": "Lavinia – главная энотека Парижа, если не всей Франции, и с площадью 1500 кв.м. больше напоминает винный городок, чем магазин. В Lavinia можно найти практически любое вино из 40 стран мира, за бутылку берут от скромных 3 евро до практически бесконечности, но в любом случае покупка обойдется в разы дешевле, чем в Москве."
            },
            {
              "type": "text",
              "options": "Любое понравившееся вино можно попробовать в дегустационном зале. Если проголодаетесь после алкогольных экспериментов, поужинать можно на первом этаже в одноименном ресторане. Свежекупленную бутылку из Lavinia позволят открыть и распить тут же, безо всякой наценки."
            },
            {
              "type": "text",
              "options": "Адрес: 3-5 Boulevard De La Madeleine\n"
            },
            {
              "type": "title",
              "options": "Винный бар O’Chateau"
            },
            {
              "type": "text",
              "options": "Если вы являетесь счастливым обладателем Paris Pass, то кроме бесплатного передвижения по городу и проходов в музеи вас ожидает и <a target='_blank' href=' http://o-chateau.com/paris-pass-wine-tasting-experience-paris/'>бесплатный вход на винную дегустацию</a> в винном баре O’Chateau. Во время экскурсии вам расскажут о разных видах вина и способах их создания, а так же дадут на пробу некоторые вина."
            },
            {
              "type": "text",
              "options": "Адрес: 52 Rue de l'Arbre Sec"
            },
            {
              "type": "title",
              "options": "Ресторан Le Jules Verne"
            },
            {
              "type": "text",
              "options": "Le Jules Verne – тот самый знаменитый ресторан на Эйфелевой башне. Ресторан примечателен не только тем, что занял место на главной башне страны, но и своими уютными залами, внимательным сервисом, а также роскошным меню из 5 блюд. Столик необходимо <a target='_blank' href='https://www.lejulesverne-paris.com/en'>бронировать заранее</a>."
            },
            {
              "type": "text",
              "options": "Адрес: 9 Avenue Gustave Eiffel\n"
            },
            {
              "type": "title",
              "options": "Ресторан La Tour d’Argent"
            },
            {
              "type": "text",
              "options": "Этим рестораном, удостоенном звезды Мишлен, уже третье поколение подряд владеет семья Террай. Именно это место вдохновило студию Pixar на создание мультфильма «Рататуй»."
            },
            {
              "type": "text",
              "options": "Адрес: 15 Quai De La Tournelle\n"
            },
            {
              "type": "title",
              "options": "Ресторан Maison Blanche"
            },
            {
              "type": "text",
              "options": "Ресторан расположился на крыше Theatre des Champs Elysees и может похвастаться великолепными видами на Эйфелеву башню, Дом инвалидов и Сену."
            },
            {
              "type": "text",
              "options": "Адрес: 15 Avenue Montaigne\n"
            },
            {
              "type": "title",
              "options": "Ресторан Le Ciel de Paris"
            },
            {
              "type": "text",
              "options": "Название – «Небо Парижа» — говорит само за себя: ресторан расположился на 56-м этаже башни Montparnasse, откуда открывается изумительный вид на весь город. Изюминка этого места – бар сладких вин, а также сладкий бар, в котором обязательно нужно попробовать десерт мильфей."
            },
            {
              "type": "text",
              "options": "Адрес: 33 Avenue de Maine\n"
            },
            {
              "type": "title",
              "options": "Café Pinson"
            },
            {
              "type": "text",
              "options": "Очень стильное и уютное кафе с большим выбором органической и фермерской еды. Очень много опций для вегетарианцев, нестандартные блюда. Цены ниже среднего, поэтому кафе очень популярно у местных жителей."
            },
            {
              "type": "text",
              "options": "Адрес: 58, rue du Faubourg Poissonnière"
            },
            {
              "type": "title",
              "options": "Кафе на крыше Le Perchoir"
            },
            {
              "type": "text",
              "options": "Ресторан и бар с прекрасной верандой на крыше, откуда открывается вид на весь город. В ресторане подают изысканные блюда от шеф-повара, меню меняется каждый день, надо заранее <a target='_blank' href='http://www.leperchoir.tv/reservation.php'>бронировать столик</a>. В бар можно попасть без брони, однако мы советуем приходить не позднее 17:30, с 18:30 вход на верхний этаж закрывается до 22:00."
            },
            {
              "type": "text",
              "options": "Адрес: 14, rue Crespin du Gast"
            },
            {
              "type": "title",
              "options": "Грилль-бар Beef Club"
            },
            {
              "type": "text",
              "options": "Стейки добрались до Парижа. Это место очень полюбилось местным жителям, несмотря на то, что основные блюда меню никак не вяжутся с французской кухней. Рекомендуем попробовать антрекот за 39 евро. В меню только блюда из мяса и гарниры. Столик лучше <a target='_blank' href='http://www.eccbeefclub.com/en/reservations'>бронировать заранее</a>. "
            },
            {
              "type": "text",
              "options": "Адрес: 58, rue Jean-Jacques Rousseau"
            },
            {
              "type": "title",
              "options": "Брассерия Chez Janou"
            },
            {
              "type": "text",
              "options": "Если хотите попробовать аутентичную еду юга Франции, но в городской молодежной обстановке, вам непременно надо заглянуть сюда! Chez Janou знаменит большим выбором аперитивов и безлимитным шоколадным муссом для каждого посетителя. Столик нужно <a target='_blank' href=' http://chezjanou.com/contact'>бронировать заранее по телефону</a>. На сайте также показаны другие заведения этих же владельцев. Они не менее интересны, обратите на них внимание. "
            },
            {
              "type": "text",
              "options": "Адрес: 2, rue Roger Verlomme"
            },
            {
              "type": "title",
              "options": "Бистро l’Ilot "
            },
            {
              "type": "text",
              "options": "В бистро l’Ilot (в переводе «Островок») можно отведать свежих ракообразных, устриц, морепродуктов и моллюсков не заказывая стандартное ассорти (а это не менее 70 евро, как правило). Здесь нет богатого интерьера, но белый паркет, утонченная плитка, большая карманная стойка, терраса, огромные окна, школьные доски и ардуаз создают впечатление мягкого и уверенного шарма. Устрицы тут стоят от 18 до 30 евро за дюжину, а по будням дням есть комплексный обед."
            },
            {
              "type": "text",
              "options": "Адрес: 4 rue de la Corderie (пн, вс - закрыт)"
            }
          ]
        },
        {
          "type": "drop-down",
          "title": "Шоппинг",
          "options": [
            {
              "type": "map",
              "options": {
                "point": {
                  "location": [
                    ""
                  ],
                  "zoom": "7"
                },
                "poi": {
                  "name": "париж",
                  "city_id": 2988507,
                  "sight": [
                    [
                      48.873076,
                      2.333067,
                      "shopping",
                      "Галерея Лафайет (Galeries Lafayette)"
                    ],
                    [
                      48.869522,
                      2.308304,
                      "shopping",
                      "Елисейские Поля (Champs Elysées)"
                    ],
                    [
                      48.860579,
                      2.341931,
                      "shopping",
                      "Улица Риволи (Rue de Rivoli)"
                    ],
                    [
                      48.874062,
                      2.328214,
                      "shopping",
                      "Прентам (Printemps)"
                    ],
                    [
                      48.890692,
                      2.237832,
                      "shopping",
                      "Les 4 Temps"
                    ],
                    [
                      48.8333,
                      2.386017,
                      "shopping",
                      "Деревня Берси (Bercy Village)"
                    ],
                    [
                      48.902204,
                      2.341736,
                      "shopping",
                      "Блошиный рынок Сен-Уан (Saint-Ouen)"
                    ]
                  ],
                  "hotels": [],
                  "markers": []
                }
              }
            },
            {
              "type": "text",
              "options": "Шоппинг в Париже - любимое развлечение для многих туристов. Этот небольшой путеводитель поможет проложить маршрут для шоппинга. Обратите внимание, что многие магазины в Париже не работают по воскресеньям. Для воскресного шоппинга лучше всего подойдут Галерея Лафайет и тороговый центр Les 4 Temps, а так же блошиный рынок.\n"
            },
            {
              "type": "title",
              "options": "Елисейские Поля (Champs Elysées)"
            },
            {
              "type": "text",
              "options": "\n\nЕлисейские Поля знамениты не только как одна из главных достопримечательностей Парижа, но и как один из самых лучших районов для шоппинга как в Париже, так и во всей Европе. Елисейские Поля берут начало от Площади Согласия и тянутся до Триумфальной Арки. Здесь вы найдете роскошные бутики Cartier, Christian Dior, Gucci, Fendi, Hugo Boss, Louis Vuitton и многие другие. Даже если вы не планируете ничего покупать, сюда стоит заглянуть, чтобы посмотреть на последние новинки моды. \n\n\n"
            },
            {
              "type": "title",
              "options": "Улица Риволи (Rue de Rivoli)"
            },
            {
              "type": "text",
              "options": "Улица Риволи является одним из самых известных и популярных мест для шоппинга в Париже. Она начинается возле Площади Согласия и продолжается на восток до церкви Сен-Поль – Сен-Луи. На участке улицы Риволи между Площадью Согласия и Лувром находится множество магазинов, где можно купить очаровательные парижские сувениры, а далее следуют модные бутики местных и международных брендов, таких как Zara, H&M, Yves Rocher, Gap и многие другие. \n\n"
            },
            {
              "type": "title",
              "options": "Галерея Лафайет (Galeries Lafayette) "
            },
            {
              "type": "text",
              "options": "Галерею Лафайет можно без преувеличения назвать символом французского стиля жизни, ведь здесь гармонично соседствуют мода и вкусная еда. На огромной территории магазина, состоящего из трех зданий, расположились отделы с самыми знаменитыми модными брендами со всего мира. Ассортимент в Галерее Лафайет постоянно обновляется, чтобы у покупателей была возможность приобрести лучшее из работ французских и международных дизайнеров: модную одежду, обувь и аксессуары для всей семьи. После интенсивного шоппинга можно расслабиться в одном из многочисленных ресторанов Галереи Лафайет, где предлагается великолепная французская кухня. \n"
            },
            {
              "type": "title",
              "options": "Прентам (Printemps)"
            },
            {
              "type": "text",
              "options": "В Галлерее Прентам вы найдете большинство марок, представленных в соседней Галерее Лафайет, но людей здесь немного меньше. Прентам предлагает вам возможность окунуться в глубину парижского шоппинга и познакомиться с самыми последними коллекциями одежды, ювелирных изделий и товаров для дома. Напротив основного здания универмага расположился еще один отдел Прентам Citadium для любителей оригинальной городской моды. \n\n"
            },
            {
              "type": "title",
              "options": "Les 4 Temps"
            },
            {
              "type": "text",
              "options": "Les 4 Temps – это огромный торговый центр, расположенный в деловом районе Парижа La Défense. На его территории расположилось более 200 магазинов, так что Les 4 Temps не зря считается самым большим торговым центром Европы. Среди представленных брендов есть и масс-маркет, и люксовые марки, здесь вы без труда найдете все, начиная от футболок American Apparel и заканчивая роскошными сумками Michael Kors. Огромное преимущество Les 4 Temps по сравнению с другими парижскими магазинами – он работает всю неделю, включая воскресенье. \n\n"
            },
            {
              "type": "title",
              "options": "Деревня Берси (Bercy Village) "
            },
            {
              "type": "text",
              "options": "Деревня Берси, находящаяся в 12 округе Парижа, считается самым красивым торговым центром города. Это милое местечко с неповторимой атмосферой, присущей французской провинции, а магазины здесь расположены в бывших винных складах, ведь когда-то в Берси располагался самый крупный рынок вина. Если вы ищете что-то оригинальное и хотели бы приобрести настоящие французские вещи, то добро пожаловать в Берси, где вы сможете посетить маленькие бутики и купить одежду, товары для дома и косметику, произведенные во Франции. \n\n"
            },
            {
              "type": "title",
              "options": "Блошиный рынок Сен-Уан (Saint-Ouen) "
            },
            {
              "type": "text",
              "options": "Если для вас хороший шоппинг – это не только торговые центры и фирменные бутики, но и необычные места, где можно приобрести редкие и оригинальные вещи, то вам обязательно нужно съездить на самый большой блошиный рынок в мире - Сен-Уан. Сен-Уан состоит из 15 рынков, на каждом из которых вы можете найти немало интересного: антикварные вещицы, винтажную одежду, старинную мебель, уникальные дизайнерские аксессуары для дома и многое другое. Это настоящая сокровищница удивительных редкостей особенно для тех, кто имеет достаточный запас терпения и выносливости, чтобы обойти бесконечные торговые ряды и выторговать лучшую цену.\n\n"
            },
            {
              "type": "text",
              "options": "Ищите улицу Rue des Rosiers. Ближайшее метро Garibaldi."
            }
          ]
        }
      ]
    }
  ],
  "advices": [
    "Во Франции вам всегда принесут графин воды к завтраку/обеду/ужину. Можете попросить его, даже есть просто пьете чашку капучино. За это с вас не возьмут денег. НО! Внимание – возьмут обязательно, если вы не попросите конкретно «Carafe d'eau, s'il vous plait» [караф до, силь ву пле] – «Графин воды, пожалуйста». Если сказать именно так, вас поймут и принесут воду из-под крана, обычную Если же не уточнить этот момент – получите стеклянную бутылку какой-нибудь Perrier или Badoit, и придется платить за нее 6-8 евро.",
    "Скачайте <a target='_blank' href='https://itunes.apple.com/us/app/metro-paris-subway/id297404959?mt=8'>бесплатное приложение Metro 01</a>.  Оно работает оффлайн, и будет крайне полезно при планировании перемещений по французской столице. \n",
    "В Париже достаточно дорогое такси, но работает привычный нам сервис Uber. Цены на 20-50% ниже, чем у официальных такси. Проблема может возникнуть только с поиском Wi-Fi, который в Париже преимущественно платный и требует местный номер телефона для идентификации, так что обязательно учитывайте этот момент. "
  ],
  "afterAdvices": {
    "title": "",
    "text": [
      ""
    ]
  }
}