﻿{
  "adviceTitle": "Полезная информация",
  "route": [
    {
      "title": "Что делать в Санкт-Петербурге",
      "description": [
        {
          "type": "text",
          "options": "Город разводных мостов, многочисленных каналов и великолепной архитектуры. На страницах путеводителей Санкт-Петербург часто предстаёт сдержанным, возвышенным и интеллигентным. Но в действительности это удивительно весёлый и современный город с множеством атмосферных ресторанов, уютных кофеен и оригинальных достопримечательностей, которые не входят в шорт-лист основных туристических маршрутов. \n"
        },
        {
          "type": "custom-photos",
          "options": {
            "ids": [
              "44065599281",
              "30203566648",
              "30203566498",
              "43164994615"
            ],
            "items": [
              {
                "server": "1778",
                "isfriend": 0,
                "isfamily": 0,
                "secret": "8dda282dc3",
                "ispublic": 1,
                "owner": "151640904@N03",
                "farm": 2,
                "title": "saint-isaac-cathedral-across",
                "id": "30203566648"
              },
              {
                "server": "1775",
                "isfriend": 0,
                "isfamily": 0,
                "secret": "aee40e3415",
                "ispublic": 1,
                "owner": "151640904@N03",
                "farm": 2,
                "title": "6f22b7e73d034217863afd53397e6ea0",
                "id": "44065599281"
              },
              {
                "server": "1813",
                "isfriend": 0,
                "isfamily": 0,
                "secret": "1fcc8d4be9",
                "ispublic": 1,
                "owner": "151640904@N03",
                "farm": 2,
                "title": "7dUcta61ggs",
                "id": "30203566498"
              },
              {
                "server": "1834",
                "isfriend": 0,
                "isfamily": 0,
                "secret": "d842cf01b2",
                "ispublic": 1,
                "owner": "151640904@N03",
                "farm": 2,
                "title": "Санкт-Петербург",
                "id": "43164994615"
              }
            ],
            "urls": [
              "https://farm2.staticflickr.com/1778/30203566648_8dda282dc3.jpg",
              "https://farm2.staticflickr.com/1775/44065599281_aee40e3415.jpg",
              "https://farm2.staticflickr.com/1813/30203566498_1fcc8d4be9.jpg",
              "https://farm2.staticflickr.com/1834/43164994615_d842cf01b2.jpg"
            ],
            "grid": [
              1,
              1,
              1,
              1
            ]
          }
        },
        {
          "type": "drop-down",
          "title": "Как добраться из аэропорта",
          "options": [
            {
              "type": "text",
              "options": "Из аэропорта Пулково до станции метро Московская можно добраться на автобусе № 39 (ходит с 05:30 до 01:30 с интервалами 12-20 минут, время в пути — 30-35 минут) или экспрессе № 39э  (ходит с 05:25 до 00:20 без промежуточных остановок с интервалами 25-30 минут, время в пути — 20 минут). Остановка расположена напротив выхода из зала прибытия. Также до города можно доехать на маршрутном такси (№ К39), их остановки расположены там же, где останавливаются обычные автобусы."
            },
            {
              "type": "text",
              "options": "В случае если вы решите воспользоваться услугами такси, дешевле всего обойдутся машины, заказанные через сервисы Uber или Яндекс Такси."
            }
          ]
        },
        {
          "type": "drop-down",
          "title": "Что смотреть",
          "options": [
            {
              "type": "text",
              "options": "В Санкт-Петербурге вы, конечно же, не сможете пропустить самые главные достопримечательности: Эрмитаж  и Александровскую колонну на Дворцовой площади, Кунсткамеру, Исаакиевский и Казанский соборы, Спас на крови, Петропавловскую крепость.\nО них вы сможете прочесть в любом путеводителе. Мы же расскажем вам о других интересных местах, которые стоит посетить, когда основные маршруты уже пройдены, а самые известные объекты увидены.\n\n"
            },
            {
              "type": "custom-photos",
              "options": {
                "ids": [
                  "44013634751",
                  "43294877984",
                  "43965185852",
                  "42204538290"
                ],
                "items": [
                  {
                    "server": "929",
                    "isfriend": 0,
                    "isfamily": 0,
                    "secret": "f43078430d",
                    "ispublic": 1,
                    "owner": "151640904@N03",
                    "farm": 1,
                    "title": "147439809714119830",
                    "id": "43965185852"
                  },
                  {
                    "server": "1836",
                    "isfriend": 0,
                    "isfamily": 0,
                    "secret": "2308abd686",
                    "ispublic": 1,
                    "owner": "151640904@N03",
                    "farm": 2,
                    "title": "fragment-of-national-museum",
                    "id": "43294877984"
                  },
                  {
                    "server": "932",
                    "isfriend": 0,
                    "isfamily": 0,
                    "secret": "018b61cab2",
                    "ispublic": 1,
                    "owner": "151640904@N03",
                    "farm": 1,
                    "title": "b51b296s-960",
                    "id": "42204538290"
                  },
                  {
                    "server": "1811",
                    "isfriend": 0,
                    "isfamily": 0,
                    "secret": "e0d78814c0",
                    "ispublic": 1,
                    "owner": "151640904@N03",
                    "farm": 2,
                    "title": "5990c9573d2e0",
                    "id": "44013634751"
                  }
                ],
                "urls": [
                  "https://farm1.staticflickr.com/929/43965185852_f43078430d.jpg",
                  "https://farm2.staticflickr.com/1836/43294877984_2308abd686.jpg",
                  "https://farm1.staticflickr.com/932/42204538290_018b61cab2.jpg",
                  "https://farm2.staticflickr.com/1811/44013634751_e0d78814c0.jpg"
                ],
                "grid": [
                  1,
                  1,
                  1,
                  1
                ]
              }
            },
            {
              "type": "title",
              "options": "Остров Новая Голландия"
            },
            {
              "type": "text",
              "options": "Современное арт-пространство города, место проведения различных культурных мероприятий и фестивалей, а также популярная зона отдыха местных жителей и туристов. Здесь можно полюбоваться на интересные арт-объекты, посетить концерты и кинопоказы, заняться йогой, посидеть в уютных кафе, а в солнечные дни просто полежать на травке или в шезлонге."
            },
            {
              "type": "text",
              "options": "Время работы: пн–чт с 09:00 до 22:00, пт–вс с 9:00 до 23:00. Вход свободный."
            },
            {
              "type": "text",
              "options": "Адрес: Набережная Адмиралтейского канала, 2. "
            },
            {
              "type": "title",
              "options": "Парк 300-летия Санкт-Петербурга"
            },
            {
              "type": "text",
              "options": "Обширное пространство на берегу Финского залива с просторным пляжем и живописными аллеями. Главной доминантой служит колонна из гранита, стилизованная под маяк. Открыт круглосуточно, вход свободный."
            },
            {
              "type": "text",
              "options": "Адрес: Приморский проспект, 74."
            },
            {
              "type": "title",
              "options": "Музей \"Гранд Макет Россия\""
            },
            {
              "type": "text",
              "options": "На огромном макете собраны известнейшие достопримечательности России, выполненные с ювелирной точностью. А искусственно созданные день и ночь погружают миниатюрную страну в темноту, подсвеченную сотнями ярких огней, а затем озаряют дневным светом. Взрослый билет обойдётся в 480 рублей. Время работы музея: ежедневно с 10:00 до 20:00. "
            },
            {
              "type": "text",
              "options": "Адрес: ул. Цветочная, 16."
            },
            {
              "type": "title",
              "options": "Туристский центр Мини-город"
            },
            {
              "type": "text",
              "options": "Здесь можно увидеть уменьшенные копии самых главных достопримечательностей Северной столицы, выполненные из гранита и металла: Эрмитаж, Исаакиевский собор, Александровскую колонну, Адмиралтейство, Спас на Крови, Казанский собор, Дворцовую площадь и многие другие.\n"
            },
            {
              "type": "text",
              "options": "Адрес: Александровский парк."
            },
            {
              "type": "custom-photos",
              "options": {
                "ids": [
                  "42220426290",
                  "42220426050",
                  "30161264618",
                  "42220425860"
                ],
                "items": [
                  {
                    "server": "1796",
                    "isfriend": 0,
                    "isfamily": 0,
                    "secret": "285778dfeb",
                    "ispublic": 1,
                    "owner": "151640904@N03",
                    "farm": 2,
                    "title": "avstriiskaia-ploshadi-min-e1457090568356",
                    "id": "42220426290"
                  },
                  {
                    "server": "1812",
                    "isfriend": 0,
                    "isfamily": 0,
                    "secret": "df4158d920",
                    "ispublic": 1,
                    "owner": "151640904@N03",
                    "farm": 2,
                    "title": "3dc862a2f3b4c3b8fdfb4eaa748c1143",
                    "id": "42220426050"
                  },
                  {
                    "server": "1797",
                    "isfriend": 0,
                    "isfamily": 0,
                    "secret": "40221d108c",
                    "ispublic": 1,
                    "owner": "151640904@N03",
                    "farm": 2,
                    "title": "dvorci-kolodci",
                    "id": "30161264618"
                  },
                  {
                    "server": "1772",
                    "isfriend": 0,
                    "isfamily": 0,
                    "secret": "1a7bd88d43",
                    "ispublic": 1,
                    "owner": "151640904@N03",
                    "farm": 2,
                    "title": "cae198b2f85ba78dda6935297189290a",
                    "id": "42220425860"
                  }
                ],
                "urls": [
                  "https://farm2.staticflickr.com/1796/42220426290_285778dfeb.jpg",
                  "https://farm2.staticflickr.com/1812/42220426050_df4158d920.jpg",
                  "https://farm2.staticflickr.com/1797/30161264618_40221d108c.jpg",
                  "https://farm2.staticflickr.com/1772/42220425860_1a7bd88d43.jpg"
                ],
                "grid": [
                  1,
                  1,
                  1,
                  1
                ]
              }
            },
            {
              "type": "title",
              "options": "Австрийская площадь"
            },
            {
              "type": "text",
              "options": "Санкт-Петербург небезосновательно считается одним из самых европейских городов России. И именно на Австрийской площади европейский дух чувствуется сильнее всего. Архитектурный стиль этого уголка города напоминает далёкую Вену. В прошлом в зданиях вокруг площади жили известные живописцы, архитекторы и писатели.\n\n"
            },
            {
              "type": "text",
              "options": "Адрес: пересечение Каменноостровского проспекта с улицей Мира."
            },
            {
              "type": "title",
              "options": "Улица Джона Леннона"
            },
            {
              "type": "text",
              "options": "Эта улица станет настоящей Меккой для любителей The Beatles. Здесь есть и жёлтая подводная лодка, и барельефы участников легендарной группы, и разнообразные детали, связанные с творчеством коллектива, а также записки и послания фанатов.\nНа карте города найти это место не получится, но попасть сюда можно через арку в доме №53 Лиговского проспекта."
            },
            {
              "type": "text",
              "options": "Адрес: ул. Пушкинская,10."
            },
            {
              "type": "title",
              "options": "Мозаичный двор"
            },
            {
              "type": "text",
              "options": "Уютное место во дворе Малой Академии искусств, все скамейки, поребрики, стены и скульптуры которого украшены разноцветным стеклом. Кому-то дворик напоминает творчество легендарного каталонского архитектора Гауди, другие видят здесь влияние австрийца Хундертвассера, знаменитого своим виртуозным и радужным стилем.\n\n"
            },
            {
              "type": "text",
              "options": "Адрес: ул. Чайковского, 2."
            },
            {
              "type": "title",
              "options": "Дворы-колодцы"
            },
            {
              "type": "text",
              "options": "Дворы-колодцы — уникальная архитектурная особенность Санкт-Петербурга. Со всех сторон они окружены стенами дома и обычно имеют проход в виде арки. Такая плотная застройка началась ещё в Петровскую эпоху, в результате чего появилось множество малоосвещённых двориков, скрытых за парадными фасадами. Сегодня такие места становятся чем-то вроде музеев под открытым небом. Попасть туда порой бывает не так-то просто — во многие дворы имеют доступ только жители самого дома.\n"
            },
            {
              "type": "text",
              "options": "Адреса некоторых дворов-колодцев: Невский проспект, 3; набережная Мойки, 20; набережная Фонтанки, 92; ул. Рубинштейна,15-17;  ул. Караванная, 14; ул. Кирочная, 24; ул. 9-я Советская, 10/12; Большой проспект В.О., 5; 4-я линия В.О., 5; 7-я линия В.О., 16; Малый проспект В.О., 40; Малый проспект Петроградской стороны, 1Б; набережная Карповки, 18."
            },
            {
              "type": "custom-photos",
              "options": {
                "ids": [
                  "30162945878",
                  "30162946368",
                  "43982830642",
                  "43982860502"
                ],
                "items": [
                  {
                    "server": "1840",
                    "isfriend": 0,
                    "isfamily": 0,
                    "secret": "ebec9271b4",
                    "ispublic": 1,
                    "owner": "151640904@N03",
                    "farm": 2,
                    "title": "piter14042016-17",
                    "id": "30162945878"
                  },
                  {
                    "server": "1840",
                    "isfriend": 0,
                    "isfamily": 0,
                    "secret": "8558ae992a",
                    "ispublic": 1,
                    "owner": "151640904@N03",
                    "farm": 2,
                    "title": "simple_big_81309",
                    "id": "43982830642"
                  },
                  {
                    "server": "1815",
                    "isfriend": 0,
                    "isfamily": 0,
                    "secret": "1b443023cc",
                    "ispublic": 1,
                    "owner": "151640904@N03",
                    "farm": 2,
                    "title": "12246",
                    "id": "30162946368"
                  },
                  {
                    "server": "1799",
                    "isfriend": 0,
                    "isfamily": 0,
                    "secret": "d9702a4bf6",
                    "ispublic": 1,
                    "owner": "151640904@N03",
                    "farm": 2,
                    "title": "122e351b0f6ada69970023bc949acd09",
                    "id": "43982860502"
                  }
                ],
                "urls": [
                  "https://farm2.staticflickr.com/1840/30162945878_ebec9271b4.jpg",
                  "https://farm2.staticflickr.com/1840/43982830642_8558ae992a.jpg",
                  "https://farm2.staticflickr.com/1815/30162946368_1b443023cc.jpg",
                  "https://farm2.staticflickr.com/1799/43982860502_d9702a4bf6.jpg"
                ],
                "grid": [
                  1,
                  1,
                  1,
                  1
                ]
              }
            },
            {
              "type": "title",
              "options": "Музей современного искусства Эрарта"
            },
            {
              "type": "text",
              "options": "Самый крупный частный музей современного искусства в России. В его постоянной коллекции собрано более 2800 работ, среди которых живопись, графика, скульптуры, инсталляции, видео-арт. Название музея образовано из двух слов — era и arta, что означает \"время искусства\".\n."
            },
            {
              "type": "text",
              "options": "Время работы: с 10:00 до 22:00 ежедневно, кроме вторника. Взрослый билет обойдётся в 500 рублей.\n"
            },
            {
              "type": "text",
              "options": "Адрес: 29-я линия Васильевского острова, 2.\n"
            },
            {
              "type": "title",
              "options": "Лофт-проект \"Этажи\""
            },
            {
              "type": "text",
              "options": "Многофункциональное арт-пространство, расположившееся на пяти этажах на месте бывшего хлебозавода. Здесь можно посетить различные выставки и мастер-классы, посидеть в одном из уютных кафе или просто прогуляться по крыше, любуясь на город. Крыша открыта круглосуточно! Билет туда обойдётся в 100 рублей. Посмотреть афишу мероприятий и цены на билеты можно на <a target='_blank' href=\"http://loftprojectetagi.ru/visitors/mesta-vystavok-i-festivaley/\">этом сайте</a>. \n\n\n"
            },
            {
              "type": "text",
              "options": "Адрес: Лиговский проспект, 74."
            },
            {
              "type": "title",
              "options": "Музей уличного искусства"
            },
            {
              "type": "text",
              "options": "Огромное арт-пространство города, проповедующее культуру улиц. Территория музея делится на две части: зона с постоянной экспозицией, где представлено более 20 муралов российских стрит-арт художников, и публичная площадка, где проходят временные выставки, массовые мероприятия, лекции и творческие встречи. \n\n\n"
            },
            {
              "type": "text",
              "options": "Музей открыт ежедневно с 12:00 до 20:00 (кроме дней, когда в музее проходят специальные мероприятия). "
            },
            {
              "type": "text",
              "options": "Адрес: шоссе Революции, 84."
            },
            {
              "type": "title",
              "options": "Дацан Гунзэчойнэй"
            },
            {
              "type": "text",
              "options": "Дацан Гунзэчойнэй, построенный в самом начале XX в., до недавнего времени являлся самым северным буддийским храмом в мире. Здесь вы сможете познакомиться с учением Будды и проникнуться философией буддизма. \nВремя работы: с 10:00 до 19.00 каждый день, кроме среды. Вход свободный."
            },
            {
              "type": "text",
              "options": "Адрес: Приморский проспект, 91."
            }
          ]
        },
        {
          "type": "drop-down",
          "title": "Где поесть",
          "options": [
            {
              "type": "custom-photos",
              "options": {
                "ids": [
                  "43140681415",
                  "43140681715",
                  "43140681095",
                  "43328335524"
                ],
                "items": [
                  {
                    "server": "1795",
                    "isfriend": 0,
                    "isfamily": 0,
                    "secret": "541ff8e8c2",
                    "ispublic": 1,
                    "owner": "151640904@N03",
                    "farm": 2,
                    "title": "lRPAZULbdEaLhGu3A8JUfA-article",
                    "id": "43140681415"
                  },
                  {
                    "server": "1813",
                    "isfriend": 0,
                    "isfamily": 0,
                    "secret": "e527a4a28d",
                    "ispublic": 1,
                    "owner": "151640904@N03",
                    "farm": 2,
                    "title": "lGrRuBQMKQzesZXDtIXTrg-default",
                    "id": "43140681715"
                  },
                  {
                    "server": "1839",
                    "isfriend": 0,
                    "isfamily": 0,
                    "secret": "a6cd6c2d20",
                    "ispublic": 1,
                    "owner": "151640904@N03",
                    "farm": 2,
                    "title": "300199a1a04c53f738370fe318a7b654",
                    "id": "43140681095"
                  },
                  {
                    "server": "1840",
                    "isfriend": 0,
                    "isfamily": 0,
                    "secret": "3b51e587dc",
                    "ispublic": 1,
                    "owner": "151640904@N03",
                    "farm": 2,
                    "title": "a05b5f2f66f5f07f5fa93c6e085bf992",
                    "id": "43328335524"
                  }
                ],
                "urls": [
                  "https://farm2.staticflickr.com/1795/43140681415_541ff8e8c2.jpg",
                  "https://farm2.staticflickr.com/1813/43140681715_e527a4a28d.jpg",
                  "https://farm2.staticflickr.com/1839/43140681095_a6cd6c2d20.jpg",
                  "https://farm2.staticflickr.com/1840/43328335524_3b51e587dc.jpg"
                ],
                "grid": [
                  1,
                  1,
                  1,
                  1
                ]
              }
            },
            {
              "type": "title",
              "options": "Пицца 22 сантиметра"
            },
            {
              "type": "text",
              "options": "В этом небольшом ресторанчике вас порадует огромный выбор пиццы, уютный зал, выполненный в минималистичном стиле, вежливый и расторопный персонал и умеренные цены."
            },
            {
              "type": "text",
              "options": "Адрес: ул. Жуковского, 45."
            },
            {
              "type": "title",
              "options": "Simple Noodles"
            },
            {
              "type": "text",
              "options": "Недорогое паназиатское стрит-фуд кафе. В меню — разнообразные блюда китайской, вьетнамской и тайской кухни. Вас ждут не только большие и вкусные порции, но и красивая подача блюд, а также интересный интерьер."
            },
            {
              "type": "text",
              "options": "Адрес: ул. Коломенская, 11."
            },
            {
              "type": "title",
              "options": "La Perla Seafood Bar"
            },
            {
              "type": "text",
              "options": "Отличное место для любителей рыбы и морепродуктов. Главные акцент здесь сделан на устрицы, которые подают живыми. Интерьер ресторана напоминает небольшую рыболовецкую деревушку. Цены достаточно высокие, но вкусные блюда и изумительная атмосфера места того стоят."
            },
            {
              "type": "text",
              "options": "Адрес: ул. Рубинштейна, 9.\n\n"
            },
            {
              "type": "title",
              "options": "Subzero"
            },
            {
              "type": "text",
              "options": "Насладиться вкусными роллами и другими блюдами японской кухни отправляйтесь в это место. Цены невысокие, но ресторан достаточно маленький, так что лучше забронировать столик заранее."
            },
            {
              "type": "text",
              "options": "Адрес: ул. Рубинштейна, 38."
            },
            {
              "type": "title",
              "options": "Мясонская Ложа"
            },
            {
              "type": "text",
              "options": "В этом недорогом ресторане с ироничным названием вас ждут вкуснейшие бургеры, стейки и множество других мясных блюд."
            },
            {
              "type": "text",
              "options": "Адрес: ул. Рылеева, 23."
            },
            {
              "type": "custom-photos",
              "options": {
                "ids": [
                  "43328633844",
                  "29110454027",
                  "44047507461",
                  "43328765484"
                ],
                "items": [
                  {
                    "server": "1835",
                    "isfriend": 0,
                    "isfamily": 0,
                    "secret": "fa1c4c6b2d",
                    "ispublic": 1,
                    "owner": "151640904@N03",
                    "farm": 2,
                    "title": "kafe-jungle-dzhungli-na-naberezhnoy-kanala-griboedova_c3c0f_full-98178",
                    "id": "43328633844"
                  },
                  {
                    "server": "1792",
                    "isfriend": 0,
                    "isfamily": 0,
                    "secret": "94817794fd",
                    "ispublic": 1,
                    "owner": "151640904@N03",
                    "farm": 2,
                    "title": "d58ed9096c8ce96cc4b924b8258b54fd",
                    "id": "29110454027"
                  },
                  {
                    "server": "1794",
                    "isfriend": 0,
                    "isfamily": 0,
                    "secret": "03dd5e8f7f",
                    "ispublic": 1,
                    "owner": "151640904@N03",
                    "farm": 2,
                    "title": "VcLsI-Rl1HobSIKl1c1GVA-article",
                    "id": "43328765484"
                  },
                  {
                    "server": "1775",
                    "isfriend": 0,
                    "isfamily": 0,
                    "secret": "9a03d8ca7c",
                    "ispublic": 1,
                    "owner": "151640904@N03",
                    "farm": 2,
                    "title": "Panoramnaya-terrasa-VINO-i-VODA-otel-INDIGO-Sankt-Peterburg",
                    "id": "44047507461"
                  }
                ],
                "urls": [
                  "https://farm2.staticflickr.com/1835/43328633844_fa1c4c6b2d.jpg",
                  "https://farm2.staticflickr.com/1792/29110454027_94817794fd.jpg",
                  "https://farm2.staticflickr.com/1794/43328765484_03dd5e8f7f.jpg",
                  "https://farm2.staticflickr.com/1775/44047507461_9a03d8ca7c.jpg"
                ],
                "grid": [
                  1,
                  1,
                  1,
                  1
                ]
              }
            },
            {
              "type": "title",
              "options": "Jungle"
            },
            {
              "type": "text",
              "options": "Атмосферное место с невероятным интерьером. Посидеть в окружении зелени можно как за столиком в зале, так и на открытой террасе. Место пользуется большой популярностью, поэтому столик лучше заказать заранее."
            },
            {
              "type": "text",
              "options": "Адрес: набережная канала Грибоедова, 18-20."
            },
            {
              "type": "title",
              "options": "Daily Delicatessen"
            },
            {
              "type": "text",
              "options": "Идеальное место для завтрака — здесь можно попробовать панкейки, маффины, бэйглы и вкусные каши. Все блюда очень красиво поданы, а сам ресторан выглядит очень уютно и атмосферно. Цены умеренные."
            },
            {
              "type": "text",
              "options": "Адрес: Литейный проспект, 64-78."
            },
            {
              "type": "title",
              "options": "Пышечная"
            },
            {
              "type": "text",
              "options": "Легендарное место, ставшее ещё одной петербургской достопримечательностью. Сюда приходят за традиционными пышками с сахарной пудрой все — от коренных петербуржцев до иностранцев. Пышечная открыта с 1958 г. и до сих пор здесь царит атмосфера советского времени. "
            },
            {
              "type": "text",
              "options": "Адрес: ул. Большая Конюшенная, 25."
            },
            {
              "type": "title",
              "options": "Вино & Вода"
            },
            {
              "type": "text",
              "options": "Недорогой ресторан с панорамной верандой, откуда открывается великолепный вид на центр города. Вас ждёт романтичная атмосфера, отличное обслуживание и разнообразное меню."
            },
            {
              "type": "text",
              "options": "Адрес: ул. Ефимова, 2."
            },
            {
              "type": "title",
              "options": "Мы же на ты"
            },
            {
              "type": "text",
              "options": "Уютный и романтичный ресторан для любителей вкусной авторской кухни."
            },
            {
              "type": "text",
              "options": "Адрес: ул. Марата, 10."
            }
          ]
        },
        {
          "type": "drop-down",
          "title": "Кофейни ",
          "options": [
            {
              "type": "custom-photos",
              "options": {
                "ids": [
                  "43999240202",
                  "44019508432",
                  "44019612812",
                  "44019559102"
                ],
                "items": [
                  {
                    "server": "1792",
                    "isfriend": 0,
                    "isfamily": 0,
                    "secret": "25dc95db27",
                    "ispublic": 1,
                    "owner": "151640904@N03",
                    "farm": 2,
                    "title": "628e6c541339fb73d63c60e5a41b282a",
                    "id": "43999240202"
                  },
                  {
                    "server": "1814",
                    "isfriend": 0,
                    "isfamily": 0,
                    "secret": "3bd499c6ef",
                    "ispublic": 1,
                    "owner": "151640904@N03",
                    "farm": 2,
                    "title": "b40e35ed68d45dc60562b135f29fa670",
                    "id": "44019612812"
                  },
                  {
                    "server": "1816",
                    "isfriend": 0,
                    "isfamily": 0,
                    "secret": "cdea6d8086",
                    "ispublic": 1,
                    "owner": "151640904@N03",
                    "farm": 2,
                    "title": "945528dde815a502cf52ebf9193c814a",
                    "id": "44019508432"
                  },
                  {
                    "server": "1776",
                    "isfriend": 0,
                    "isfamily": 0,
                    "secret": "29c3826799",
                    "ispublic": 1,
                    "owner": "151640904@N03",
                    "farm": 2,
                    "title": "394184e8e8c729d80a7a36c927863464",
                    "id": "44019559102"
                  }
                ],
                "urls": [
                  "https://farm2.staticflickr.com/1792/43999240202_25dc95db27.jpg",
                  "https://farm2.staticflickr.com/1814/44019612812_3bd499c6ef.jpg",
                  "https://farm2.staticflickr.com/1816/44019508432_cdea6d8086.jpg",
                  "https://farm2.staticflickr.com/1776/44019559102_29c3826799.jpg"
                ],
                "grid": [
                  1,
                  1,
                  1,
                  1
                ]
              }
            },
            {
              "type": "title",
              "options": "Lavanda Eclair"
            },
            {
              "type": "text",
              "options": "Уютная кофейня, интерьер которой выполнен в стиле Kinfolk. Здесь подают вкуснейшие эклеры с разнообразными начинками и авторский кофе.\n\n"
            },
            {
              "type": "text",
              "options": "Адрес: ул. Жуковского, 57."
            },
            {
              "type": "title",
              "options": "Займемся кофе"
            },
            {
              "type": "text",
              "options": "Стильная и очень атмосферная кофейня с отличным кофе, вкусными десертами и красивым интерьером."
            },
            {
              "type": "text",
              "options": "Адрес: ул. Большая Пушкарская, 28."
            },
            {
              "type": "title",
              "options": "Знакомьтесь, Джо"
            },
            {
              "type": "text",
              "options": "Отличная кофейня, расположившаяся в модном книжном магазине \"Подписные издания\". "
            },
            {
              "type": "text",
              "options": "Адрес: Литейный проспект, 57."
            },
            {
              "type": "title",
              "options": "Ray Cafe"
            },
            {
              "type": "text",
              "options": "Симпатичная кофейня, оформленная в розовых тонах. Главная особенность этого места  — конфеты ручной работы с разнообразными начинками.\n"
            },
            {
              "type": "text",
              "options": "Адрес: Литейный проспект, 43."
            },
            {
              "type": "title",
              "options": "Характер Кофе"
            },
            {
              "type": "text",
              "options": "Приятная кофейня с вкуснейшими десертами и полезными смузи."
            },
            {
              "type": "text",
              "options": "Адрес:  набережная Фонтанки, 109."
            },
            {
              "type": "title",
              "options": "Babe's Bakery"
            },
            {
              "type": "text",
              "options": "Ещё одна очень уютная кофейня с собственной пекарней."
            },
            {
              "type": "text",
              "options": "Адрес: ул. Марата, 30."
            }
          ]
        },
        {
          "type": "drop-down",
          "title": "Куда сходить вечером",
          "options": [
            {
              "type": "custom-photos",
              "options": {
                "ids": [
                  "42241172830",
                  "44001899662",
                  "44001837012",
                  "42238582770"
                ],
                "items": [
                  {
                    "server": "1840",
                    "isfriend": 0,
                    "isfamily": 0,
                    "secret": "cd51c2e7ff",
                    "ispublic": 1,
                    "owner": "151640904@N03",
                    "farm": 2,
                    "title": "Zl5-42DaBKTXwXycgNVPCw-article",
                    "id": "42238582770"
                  },
                  {
                    "server": "1817",
                    "isfriend": 0,
                    "isfamily": 0,
                    "secret": "7129da4fba",
                    "ispublic": 1,
                    "owner": "151640904@N03",
                    "farm": 2,
                    "title": "75dd1aab00f544bf962bea5f92174c08",
                    "id": "44001837012"
                  },
                  {
                    "server": "1773",
                    "isfriend": 0,
                    "isfamily": 0,
                    "secret": "0fd2e3ff8d",
                    "ispublic": 1,
                    "owner": "151640904@N03",
                    "farm": 2,
                    "title": "cf655fab04c4e29f8e4869b2954c05d2",
                    "id": "44001899662"
                  },
                  {
                    "server": "1799",
                    "isfriend": 0,
                    "isfamily": 0,
                    "secret": "e38a2ea27f",
                    "ispublic": 1,
                    "owner": "151640904@N03",
                    "farm": 2,
                    "title": "KjCUEQX9zAgoomc8eHO0kA-wide",
                    "id": "42241172830"
                  }
                ],
                "urls": [
                  "https://farm2.staticflickr.com/1840/42238582770_cd51c2e7ff.jpg",
                  "https://farm2.staticflickr.com/1817/44001837012_7129da4fba.jpg",
                  "https://farm2.staticflickr.com/1773/44001899662_0fd2e3ff8d.jpg",
                  "https://farm2.staticflickr.com/1799/42241172830_e38a2ea27f.jpg"
                ],
                "grid": [
                  1,
                  1,
                  1,
                  1
                ]
              }
            },
            {
              "type": "title",
              "options": "Clouds Gastrobar"
            },
            {
              "type": "text",
              "options": "Главный акцент в гастробаре сделан на авторские коктейли с экзотическими ингредиентами. В меню — большое количество закусок преимущественно европейской кухни. Отдельного внимания заслуживает интерьер места: потолок с необычной инсталляцией поддерживают статуи атлантов, а часть стен обита золотыми панелями."
            },
            {
              "type": "text",
              "options": "Адрес: Лиговский проспект, 39/1."
            },
            {
              "type": "title",
              "options": "Fitzgerald bar"
            },
            {
              "type": "text",
              "options": "Элегантный бар в старинном универмаге \"Пассаж\". Здесь представлена обширная винная карта и несколько авторских коктейлей. Живая музыка — в баре проходят джазовые концерты — и приятная атмосфера сделают ваш вечер незабываемым.\n"
            },
            {
              "type": "text",
              "options": "Адрес: Невский проспект, 48, вход с ул. Итальянская."
            },
            {
              "type": "title",
              "options": "Greneta Wine Bar"
            },
            {
              "type": "text",
              "options": "Винный бар во французском стиле. Здесь представлено более 30 видов вин, в том числе эксклюзивные. А винотеку дополняют изысканные блюда французской кухни."
            },
            {
              "type": "text",
              "options": "Адрес: ул. Радищева, 34."
            },
            {
              "type": "title",
              "options": "Сидрерия "
            },
            {
              "type": "text",
              "options": "Отличное место для любителей сидра — здесь представлено порядка 150 сортов напитка. Кроме того, в Сидрерии можно перекусить вкусными блюдами авторской кухни."
            },
            {
              "type": "text",
              "options": "Адрес: ул. Моховая, 30."
            },
            {
              "type": "custom-photos",
              "options": {
                "ids": [
                  "42241898010",
                  "42241898590",
                  "43146153055",
                  "43146153405"
                ],
                "items": [
                  {
                    "server": "1773",
                    "isfriend": 0,
                    "isfamily": 0,
                    "secret": "ef835f2579",
                    "ispublic": 1,
                    "owner": "151640904@N03",
                    "farm": 2,
                    "title": "87315996b6670bc7a071c638f3480257",
                    "id": "42241898010"
                  },
                  {
                    "server": "1778",
                    "isfriend": 0,
                    "isfamily": 0,
                    "secret": "c5873e6620",
                    "ispublic": 1,
                    "owner": "151640904@N03",
                    "farm": 2,
                    "title": "full_9xIIHbF6",
                    "id": "42241898590"
                  },
                  {
                    "server": "1797",
                    "isfriend": 0,
                    "isfamily": 0,
                    "secret": "25bfcefe04",
                    "ispublic": 1,
                    "owner": "151640904@N03",
                    "farm": 2,
                    "title": "regnum_picture_1472736970409821_normal-1000x666",
                    "id": "43146153055"
                  },
                  {
                    "server": "1800",
                    "isfriend": 0,
                    "isfamily": 0,
                    "secret": "0e48c08ee9",
                    "ispublic": 1,
                    "owner": "151640904@N03",
                    "farm": 2,
                    "title": "36b304d723c03f80cd422887c53623d2",
                    "id": "43146153405"
                  }
                ],
                "urls": [
                  "https://farm2.staticflickr.com/1773/42241898010_ef835f2579.jpg",
                  "https://farm2.staticflickr.com/1778/42241898590_c5873e6620.jpg",
                  "https://farm2.staticflickr.com/1797/43146153055_25bfcefe04.jpg",
                  "https://farm2.staticflickr.com/1800/43146153405_0e48c08ee9.jpg"
                ],
                "grid": [
                  1,
                  1,
                  1,
                  1
                ]
              }
            },
            {
              "type": "title",
              "options": "Лаборатория 31"
            },
            {
              "type": "text",
              "options": "Оригинальный бар, в котором коктейли подают в колбах и пробирках, а интерьер напоминает химическую лабораторию."
            },
            {
              "type": "text",
              "options": "Адрес: ул. Гороховая, 31."
            },
            {
              "type": "title",
              "options": "Думская улица"
            },
            {
              "type": "text",
              "options": "Главная барная улица и средоточие ночной жизни Петербурга. Здесь находится больше десятка всевозможных баров и клубов. Одно из самых популярных местечек — бар Белград. Думская улица отлично подойдёт для того, чтобы устроить барный тур.\n\n"
            },
            {
              "type": "title",
              "options": "Roof Cinema"
            },
            {
              "type": "text",
              "options": "Организация, устраивающая ночные кинопоказы под открытым небом. Кино можно посмотреть на 8 площадках в разных частях города. Ознакомиться с афишей и купить билеты можно на <a target='_blank' href=\"https://roofcinema.com/events/\">этом сайте</a>.\n"
            },
            {
              "type": "title",
              "options": "Парк развлечений MazaPark"
            },
            {
              "type": "text",
              "options": "Парк развлечений с множеством аттракционов (боулинг, бильярд, автодром) и игровых автоматов, работающий всю ночь. Билет даёт право на безлимитное пользование всеми развлечениями (стоит 400 рублей). Время работы: с 10:00 до 06:00. С подробной информацией можно познакомиться на <a target='_blank' href=\"https://mazapark.ru/bhr/fun/\">этом сайте</a>.\n"
            },
            {
              "type": "text",
              "options": "Адрес: ул. Бухарестская, 30/32."
            }
          ]
        },
        {
          "type": "drop-down",
          "title": "Окрестности Санкт-Петербурга",
          "options": [
            {
              "type": "custom-photos",
              "options": {
                "ids": [
                  "29132543577",
                  "44069208981",
                  "29132543507",
                  "29132730027"
                ],
                "items": [
                  {
                    "server": "1811",
                    "isfriend": 0,
                    "isfamily": 0,
                    "secret": "5bde14dec9",
                    "ispublic": 1,
                    "owner": "151640904@N03",
                    "farm": 2,
                    "title": "126a2171-c3ab-4455-bd99-403b7864599e",
                    "id": "29132543577"
                  },
                  {
                    "server": "1813",
                    "isfriend": 0,
                    "isfamily": 0,
                    "secret": "88a4b2cc02",
                    "ispublic": 1,
                    "owner": "151640904@N03",
                    "farm": 2,
                    "title": "sablinskie-peshchery-2",
                    "id": "29132543507"
                  },
                  {
                    "server": "1797",
                    "isfriend": 0,
                    "isfamily": 0,
                    "secret": "b97bc5f15e",
                    "ispublic": 1,
                    "owner": "151640904@N03",
                    "farm": 2,
                    "title": "Tosna-waterfall-",
                    "id": "44069208981"
                  },
                  {
                    "server": "1776",
                    "isfriend": 0,
                    "isfamily": 0,
                    "secret": "de3613bb6f",
                    "ispublic": 1,
                    "owner": "151640904@N03",
                    "farm": 2,
                    "title": "d155248626baca8b8635bf8f97c73b57",
                    "id": "29132730027"
                  }
                ],
                "urls": [
                  "https://farm2.staticflickr.com/1811/29132543577_5bde14dec9.jpg",
                  "https://farm2.staticflickr.com/1813/29132543507_88a4b2cc02.jpg",
                  "https://farm2.staticflickr.com/1797/44069208981_b97bc5f15e.jpg",
                  "https://farm2.staticflickr.com/1776/29132730027_de3613bb6f.jpg"
                ],
                "grid": [
                  1,
                  1,
                  1,
                  1
                ]
              }
            },
            {
              "type": "title",
              "options": "Кронштадт "
            },
            {
              "type": "text",
              "options": "Город-порт, заложенный Петром I для защиты новой столицы. Здесь стоит посетить Кронштадтскую крепость, которая является самым мощным фортификационным сооружением на Балтике. В Кронштадте можно также прогуляться по Якорной площади и полюбоваться на величественный Морской собор. И, конечно же, стоит увидеть деревянный маяк на Петровской набережной, построенный в 1888 г. Высокая белая башня считается одним из символов города. \n"
            },
            {
              "type": "text",
              "options": "Добраться до Кронштадта можно на автобусе № 101 от станции метро Старая деревня или на маршрутном такси № К405 от станции метро Чёрная речка.\n\n"
            },
            {
              "type": "title",
              "options": "Тосненский водопад"
            },
            {
              "type": "text",
              "options": "Несмотря на довольно равнинную местность, в окрестностях Санкт-Петербурга имеется много водопадов. Самый примечательный из всех — Тосненский, считающийся самым широким водопадом в Европе. Ширина природного памятника достигает двадцати метров, а высота равна человеческому росту."
            },
            {
              "type": "text",
              "options": "Водопад расположен в деревне Ульяновка, добраться до которой удобнее всего на электричке (от Московского вокзала до станции Саблино). До самого места можно пройти пешком или проехать на местном автобусе пару километров."
            },
            {
              "type": "title",
              "options": "Саблинские пещеры"
            },
            {
              "type": "text",
              "options": "Пещеры были искусственно созданы в процессе добычи кварцевого песка на берегах рек Тосны и Саблинки. Всего имеется 14 пещер, самая протяженная из которых — Левобережная оборудована для туристических экскурсий. \n"
            },
            {
              "type": "text",
              "options": "Добраться до пещер можно на электричке — от Московского вокзала до станции Саблино. Далее необходимо проехать на местном автобусе или маршрутном такси."
            },
            {
              "type": "title",
              "options": "Сестрорецк"
            },
            {
              "type": "text",
              "options": "Город-курорт на берегу Финского залива. Сестрорецкий пляж является одним из самых любимых мест отдыха петербуржцев и жителей Ленинградской области. Ещё одно популярное место отдыха в городе — парк \"Дубки\".\n\n"
            },
            {
              "type": "text",
              "options": "До места удобнее всего добраться на электричке от Финляндского вокзала."
            }
          ]
        }
      ]
    },
    {
      "title": "Погода в Санкт-Петербурге",
      "description": [
        {
          "type": "weather",
          "options": {
            "lat": 59.9342802,
            "lng": 30.335098600000038,
            "text": "Санкт-Петербург, Россия"
          }
        }
      ]
    }
  ],
  "about": {
    "hide": true,
    "disable": false,
    "description": "",
    "price": {
      "cost": "",
      "description": ""
    },
    "cities": [],
    "map": {
      "poi": {
        "sight": [
          [
            "59.929711",
            "30.288739",
            "children",
            "Остров Новая Голландия"
          ],
          [
            "59.982816",
            "30.201244",
            "children",
            "Парк 300-летия Санкт-Петербурга"
          ],
          [
            "59.888061",
            "30.330375",
            "monument",
            "Музей \"Гранд Макет Россия\""
          ],
          [
            "59.955889",
            "30.316773",
            "children",
            "Туристский центр Мини-город"
          ],
          [
            "59.959924",
            "30.316949",
            "monument",
            "Австрийская площадь"
          ],
          [
            "59.929350",
            "30.359168",
            "children",
            "Улица Джона Леннона"
          ],
          [
            "59.947337",
            "30.339178",
            "children",
            "Мозаичный двор"
          ],
          [
            "59.932199",
            "30.251433",
            "monument",
            "Музей современного искусства Эрарта"
          ],
          [
            "59.922122",
            "30.355543",
            "children",
            "Лофт-проект \"Этажи\""
          ],
          [
            "59.963634",
            "30.457710",
            "monument",
            "Музей уличного искусства"
          ],
          [
            "59.983580",
            "30.256043",
            "budda",
            "Дацан Гунзэчойнэй"
          ],
          [
            "59.935677",
            "30.358185",
            "food",
            "Пицца 22 сантиметра"
          ],
          [
            "59.925404",
            "30.354087",
            "food",
            "Simple Noodles"
          ],
          [
            "59.930666",
            "30.344414",
            "food",
            "La Perla Seafood Bar"
          ],
          [
            "59.927181",
            "30.342941",
            "food",
            "Subzero"
          ],
          [
            "59.942370",
            "30.358224",
            "food",
            "Мясонская Ложа"
          ],
          [
            "59.934381",
            "30.326838",
            "food",
            "Jungle"
          ],
          [
            "59.933294",
            "30.348325",
            "food",
            "Daily Delicatessen"
          ],
          [
            "59.937612",
            "30.322420",
            "food",
            "Пышечная"
          ],
          [
            "59.926450",
            "30.320629",
            "food",
            "Вино & Вода"
          ],
          [
            "59.930022",
            "30.354903",
            "food",
            "Мы же на ты"
          ],
          [
            "59.932095",
            "30.360625",
            "cocktail",
            "Clouds Gastrobar"
          ],
          [
            "59.934716",
            "30.333987",
            "cocktail",
            "Fitzgerald bar"
          ],
          [
            "59.941434",
            "30.363367",
            "vine",
            "Greneta Wine Bar"
          ],
          [
            "59.941294",
            "30.345535",
            "vine",
            "Сидрерия"
          ],
          [
            "59.929631",
            "30.318643",
            "cocktail",
            "Лаборатория 31"
          ],
          [
            "59.933884",
            "30.328974",
            "cocktail",
            "Думская улица"
          ],
          [
            "59.883767",
            "30.368981",
            "children",
            "Парк развлечений MazaPark"
          ],
          [
            "59.935499",
            "30.361822",
            "coffeeshop",
            "Lavanda Eclair"
          ],
          [
            "59.959201",
            "30.303689",
            "coffeeshop",
            "Займемся кофе"
          ],
          [
            "59.934924",
            "30.347603",
            "coffeeshop",
            "Знакомьтесь, Джо"
          ],
          [
            "59.939444",
            "30.347834",
            "coffeeshop",
            "Ray Cafe"
          ],
          [
            "59.923025",
            "30.318327",
            "coffeeshop",
            "Характер кофе"
          ],
          [
            "59.926639",
            "30.352581",
            "coffeeshop",
            "Babe's Bakery"
          ]
        ]
      }
    }
  },
  "top": {
    "topText": [
      "САНКТ-ПЕТЕРБУРГ"
    ],
    "text": "Россия",
    "image": "top/spb.jpg"
  },
  "hideContacts": true,
  "title": "Тревел-эксперт OneTwoTrip",
  "advices": [
    "Посмотреть график развода мостов можно на <a target='_blank' href=\"https://mostotrest-spb.ru/razvodka-mostov\">официальном сайте</a>.\n",
    "Передвижение по городу очень удобно планировать в мобильном приложении <a target='_blank' href=\"https://itunes.apple.com/us/app/maps-me-offline-map-nav/id510623322?mt=8\">maps.me</a>, которое доступно офлайн.\n",
    "Некоторые музеи города в определённые дни можно посетить бесплатно. Например, Эрмитаж открыт для всех желающих в первый четверг каждого месяца.",
    "Если вы ограничены во времени, воспользуйтесь местными трамваями. Их маршруты проходят через многие важные достопримечательности города. Таким образом обычная поездка превратится в увлекательную экскурсию.",
    "Ещё один отличный вариант исследовать город — взять напрокат велосипед."
  ],
  "blogFooter": true,
  "afterAdvices": {
    "title": "",
    "text": []
  }
}