﻿{
  "adviceTitle": "",
  "route": [
    {
      "title": "Перелет Москва –  Мадрид, 27 сентября",
      "description": [
        {
          "type": "text",
          "options": "Мы подобрали для вас удобный прямой рейс Аэрофлота на утро 27-го сентября. Чтобы посмотреть подробную информацию и перейти к бронированию, нажмите на карточку."
        },
        {
          "type": "cards",
          "options": [
            {
              "type": "flight",
              "from": {
                "title": "Шереметьево",
                "time": "06:45"
              },
              "to": {
                "title": "Мадрид",
                "time": "11:00"
              },
              "across": {
                "title": "Прямой",
                "time": ""
              },
              "price": {
                "title": "",
                "btn": {
                  "href": "https://www.onetwotrip.com/ru/f/?env=7#/book/51~9q7v2~woHCrcKIBmoBw43CqMK1wpckwpteJXoqPsK-KhUIw5BWIcKMwqcXwqDDnX3CpBNjwrFrw5nDoV9awrzCq8K5wpzDm0nDlMKRR8KxGErCr8Oew7Npwr5QQXMBfmc1woPDp2QEYww9w5-DjMOLwozCq8Omw5hNLcKqDSdlM8KWwpEdw6DDrAZTK1jDu8KwwoBZw4s-ZCImw57Cs8O2VsKLwoFbwqV0Ug..~~6493f2b6-e3e2-4ba1-8e7a-4612a6a04926~~B_b3_0aYaQDd737fyqHFUg..~1~1~1_0_0~~~~%2F~c0PN.JDF.Y.PGY~A~7~E~733166331111111171111111615337H.s163aU20204u.s164u.s1613b3aU00000000-3c.0Hl00000004u.s1607H.01RUB~JRTGU5r3_RUB11A~731Y.Liz9RUB~%2Fru%2Faviabilety%2Fmoscow-madrid_MOW-MAD%2F%3Fs%3Dtrue%232709MOWMAD~.000~UXQOCFfae0fain08eZxM2K7250032B_23K_E__E____gwwuYIuYwkEmkEk___62011630SUD1300EVO10K?sv=100&pax%5B0%5D=1&pax%5B1%5D=0&pax%5B2%5D=0&_k=cqtpf9",
                  "title": "12 593 %rub%"
                }
              },
              "title": "Авиаперелет"
            }
          ]
        }
      ]
    },
    {
      "title": "Мадрид, 27–29 сентября",
      "description": [
        {
          "type": "custom-photos",
          "options": {
            "ids": [
              "24423269317",
              "25418247418",
              "25418090298",
              "27509925489"
            ],
            "items": [
              {
                "server": "4646",
                "isfriend": 0,
                "isfamily": 0,
                "secret": "e8b6ae9216",
                "ispublic": 1,
                "owner": "151640904@N03",
                "farm": 5,
                "title": "Площадь-Майор-1",
                "id": "25418247418"
              },
              {
                "server": "4686",
                "isfriend": 0,
                "isfamily": 0,
                "secret": "ba2dbdf2a9",
                "ispublic": 1,
                "owner": "151640904@N03",
                "farm": 5,
                "title": "cien_cosas_sobre_madrid_que_deberias_saber_915840764_1200x800",
                "id": "24423269317"
              },
              {
                "server": "4688",
                "isfriend": 0,
                "isfamily": 0,
                "secret": "9a2e358a83",
                "ispublic": 1,
                "owner": "151640904@N03",
                "farm": 5,
                "title": "shutterstock_521915659-old-street-in-madrid-spain",
                "id": "25418090298"
              },
              {
                "server": "4633",
                "isfriend": 0,
                "isfamily": 0,
                "secret": "b1cf046db3",
                "ispublic": 1,
                "owner": "151640904@N03",
                "farm": 5,
                "title": "1original (79)",
                "id": "27509925489"
              }
            ],
            "urls": [
              "https://farm5.staticflickr.com/4646/25418247418_e8b6ae9216.jpg",
              "https://farm5.staticflickr.com/4686/24423269317_ba2dbdf2a9.jpg",
              "https://farm5.staticflickr.com/4688/25418090298_9a2e358a83.jpg",
              "https://farm5.staticflickr.com/4633/27509925489_b1cf046db3.jpg"
            ],
            "grid": [
              1,
              1,
              1,
              1
            ]
          }
        },
        {
          "type": "text",
          "options": "Мадрид — это столица Испании, один из самых красивых европейских городов, а также влиятельный культурный центр с музеями международного масштаба, многие из которых входят в сотню самых посещаемых в мире. Мадрид западает в душу и вдохновляет, здесь вы точно проникнитесь местным стилем жизни. Вас ждут уютные улочки, просторные площади, приветливые местные, потрясающие музеи и галереи, зеленые парки и вкуснейшая еда. Мы расскажем вам, чем заняться в этом атмосферном городе. "
        },
        {
          "type": "text",
          "options": "Сразу по прилету рекомендуем взять в аренду автомобиль Сдать его вы сможете в конечном пункте вашего маршрута. Подробную информацию вы найдете на <a target='_blank' href=\"https://www.onetwotrip.com/ru/cars/search?pDate=20180927&dDate=20181007&pTime=1200&dTime=0600&age=30&lang=ru&currency=RUB&resellerId=12trip&pLocation=eyJuYW1lIjoi0JHQsNGA0LDRhdCw0YEiLCJrZXkiOiJpOk1BRCJ9&dLocation=eyJuYW1lIjoi0JHQvtGA0LTQviIsImtleSI6Imk6Qk9EIn0%3D\">этой странице</a>."
        },
        {
          "type": "text",
          "options": "Ниже мы подобрали для вас наиболее выгодные варианты размещения по соотношению цена/качество. Чтобы посмотреть подробную информацию и перейти к бронированию, нажмите на карточку."
        },
        {
          "type": "cards",
          "options": [
            {
              "type": "hotel",
              "image": {
                "title": "Hostal San Lorenzo",
                "description": "★★★",
                "src": "https://1b4da894acfad722fb46-08ede53a5c8850764384bc99fd6145bb.ssl.cf3.rackcdn.com/317495/32049376_t.jpg"
              },
              "price": {
                "title": [
                  "Двухместный ",
                  "Без питания"
                ],
                "btn": {
                  "href": "https://www.onetwotrip.com/ru/hotels/hotel/hostal-san-lorenzo-317495?date_start=2018-09-27&date_end=2018-09-29&to=%25D0%259C%25D0%25B0%25D0%25B4%25D1%2580%25D0%25B8%25D0%25B4&id=3117735&type=geo&adults=2&children=0&countryName=spain&cityName=madrid&s=true&referrer=google_adwords_brand&referrer_mrk=brand&country_code=ES&children_ages=5&sc=3117735",
                  "title": "17 053 %rub%"
                }
              }
            },
            {
              "type": "hotel",
              "image": {
                "title": "Best Western Hotel Los Condes",
                "description": "★★★",
                "src": "https://1b4da894acfad722fb46-08ede53a5c8850764384bc99fd6145bb.ssl.cf3.rackcdn.com/319830/32052255_t.jpg"
              },
              "price": {
                "title": [
                  "Двухместный",
                  "Без питания"
                ],
                "btn": {
                  "href": "https://www.onetwotrip.com/ru/hotels/hotel/best-western-hotel-los-condes-319830?date_start=2018-09-27&date_end=2018-09-29&to=%25D0%259C%25D0%25B0%25D0%25B4%25D1%2580%25D0%25B8%25D0%25B4&id=3117735&type=geo&adults=2&children=0&countryName=spain&cityName=madrid&s=true&referrer=google_adwords_brand&referrer_mrk=brand&country_code=ES&children_ages=5&sc=3117735",
                  "title": "17 005 %rub%"
                }
              }
            },
            {
              "type": "hotel",
              "image": {
                "title": "B&B Hotel Fuencarral 52",
                "description": "★★★",
                "src": "https://1b4da894acfad722fb46-08ede53a5c8850764384bc99fd6145bb.ssl.cf3.rackcdn.com/2952910/32450967_t.jpg"
              },
              "price": {
                "title": [
                  "Двухместный",
                  "Без питания"
                ],
                "btn": {
                  "href": "https://www.onetwotrip.com/ru/hotels/hotel/b-and-b-hotel-fuencarral-52-2952910?date_start=2018-09-27&date_end=2018-09-29&to=%25D0%259C%25D0%25B0%25D0%25B4%25D1%2580%25D0%25B8%25D0%25B4&id=3117735&type=geo&adults=2&children=0&countryName=spain&cityName=madrid&s=true&referrer=google_adwords_brand&referrer_mrk=brand&country_code=ES&children_ages=5&sc=3117735",
                  "title": "17 166 %rub%"
                }
              }
            }
          ]
        },
        {
          "type": "drop-down",
          "title": "Как добраться из аэропорта",
          "options": [
            {
              "type": "text",
              "options": "Аэропорт расположен всего в 14 км от города, поэтому поездка до центра не займет у вас много времени. Удобнее всего добираться на метро — аэропорт связан с городом розовой веткой. Одна платформа находится в терминале T4 на -1 этаже, вторая — на 1 этаже терминала T2. Поезда ходят с 06:05 до 01:30."
            },
            {
              "type": "text",
              "options": "Удобнее всего воспользоваться услугами экспресс автобусов, курсирующих 24 часа (с 06:00 до 23:30 ходят с интервалами в 15 минут, ночью — 30-35 минут). В аэропорту автобус останавливается у всех терминалов: Т1, Т2, Т3 и Т4. В среднем путь занимает 40 минут. Билет обойдется вам в 5 евро. Также из аэропорта ходят рейсовые автобусы, их актуальное расписание можно уточнить на <a target='_blank' href=\"http://www.aeropuertomadrid-barajas.com/transportation/madrid-airport-bybus.htm\">этой странице</a>."
            },
            {
              "type": "text",
              "options": "Из аэропорта можно добраться также и на поезде. Станция Aeropuerto T4 находится на -1 этаже терминала T4. Билет стоит 2,6 евро. Поезда курсируют с 05:58 до 22:27 каждые полчаса."
            },
            {
              "type": "text",
              "options": "Конечно, самый комфортный вариант добраться до отеля — на такси. Дешевле всего заказывать машину через сервис Uber."
            }
          ]
        },
        {
          "type": "drop-down",
          "title": "Madrid Card",
          "options": [
            {
              "type": "text",
              "options": "Карта представляет собой сити-пасс, который включает в себя трансфер из аэропорта (в обе стороны), скидки в музеях, магазинах, ресторанах, барах и т.д. Что удобно, ограничений по времени нет. Карта действительна в течение одного года с момента покупки."
            },
            {
              "type": "text",
              "options": "Узнать подробную информацию, а также приобрести Madrid Card можно на <a target='_blank' href=\"http://www.gomadrid.com/activity/madridcard.html\">этой странице</a>. Стоимость карты для взрослого составляет 80 евро, для подростка 16-18 лет — 62 евро, ребенка 5-15 лет — 44 евро, до 4 лет бесплатно."
            }
          ]
        },
        {
          "type": "drop-down",
          "title": "Что смотреть",
          "options": [
            {
              "type": "custom-photos",
              "options": {
                "ids": [
                  "24426529457",
                  "39259247272",
                  "25420930498",
                  "38411083795"
                ],
                "items": [
                  {
                    "server": "4638",
                    "isfriend": 0,
                    "isfamily": 0,
                    "secret": "9720eaf7ed",
                    "ispublic": 1,
                    "owner": "151640904@N03",
                    "farm": 5,
                    "title": "Plaza-de-sol-aerea",
                    "id": "24426529457"
                  },
                  {
                    "server": "4639",
                    "isfriend": 0,
                    "isfamily": 0,
                    "secret": "8e7c217880",
                    "ispublic": 1,
                    "owner": "151640904@N03",
                    "farm": 5,
                    "title": "Muzei_Prado_6",
                    "id": "39259247272"
                  },
                  {
                    "server": "4598",
                    "isfriend": 0,
                    "isfamily": 0,
                    "secret": "fe3cc421c9",
                    "ispublic": 1,
                    "owner": "151640904@N03",
                    "farm": 5,
                    "title": "370_2",
                    "id": "25420930498"
                  },
                  {
                    "server": "4689",
                    "isfriend": 0,
                    "isfamily": 0,
                    "secret": "0e3e1257b9",
                    "ispublic": 1,
                    "owner": "151640904@N03",
                    "farm": 5,
                    "title": "park3",
                    "id": "38411083795"
                  }
                ],
                "urls": [
                  "https://farm5.staticflickr.com/4638/24426529457_9720eaf7ed.jpg",
                  "https://farm5.staticflickr.com/4639/39259247272_8e7c217880.jpg",
                  "https://farm5.staticflickr.com/4598/25420930498_fe3cc421c9.jpg",
                  "https://farm5.staticflickr.com/4689/38411083795_0e3e1257b9.jpg"
                ],
                "grid": [
                  1,
                  1,
                  1,
                  1
                ]
              }
            },
            {
              "type": "title",
              "options": "Площадь Пуэрта-дель-Соль"
            },
            {
              "type": "text",
              "options": "Это центральная площадь Мадрида, с которой мы и рекомендуем начать ваше знакомство с городом. Именно здесь установлен памятник «Медведь и земляничное дерево», являющийся символом города. А бронзовая пластина, вмонтированная в тротуар на площади, служит нулевой точкой для отсчёта дорожных расстояний в Испании."
            },
            {
              "type": "text",
              "options": "Адрес: Plaza Puerta del Sol."
            },
            {
              "type": "title",
              "options": "Музей Прадо"
            },
            {
              "type": "text",
              "options": "Один из крупнейших музеев европейского изобразительного искусства, который обязательно стоит посетить. В его коллекции хранятся одни из наиболее полных собраний Босха, Веласкеса, Гойи, Мурильо, Сурбарана и Эль Греко. Входной билет стоит 15 евро, однако попасть в музей можно совершенно бесплатно. Бесплатное посещение возможно с понедельника по субботу с 18:00 до 22:00 и в воскресенье с 17:00 до 19:00. Если вы планируете посещение на эти часы, лучше прийти заранее и занять очередь. Время работы: 10:00 - 20:00 (Пн-Сб), 10:00 - 19:00 (Вс)."
            },
            {
              "type": "text",
              "options": "Адрес: Paseo del Prado, s/n."
            },
            {
              "type": "title",
              "options": "Центр искусств королевы Софии"
            },
            {
              "type": "text",
              "options": "Музей современного искусства, который расположен в бывшем здании госпиталя XVI века. Этот центр является аналогом парижского Помпиду. Узнать актуальные часы работы, а также купить билеты онлайн можно на <a target='_blank' href=\"http://www.museoreinasofia.es/en/visit\">этой странице</a>. Вход бесплатный с 19:00 до 21:00 (Пн, Ср, Чт, Пт, Сб), по воскресеньям с 13:30 до 19:00, по вторникам музей закрыт. "
            },
            {
              "type": "text",
              "options": "Адрес: Calle de Santa Isabel, 52."
            },
            {
              "type": "title",
              "options": "Парк Ретиро"
            },
            {
              "type": "text",
              "options": "Ретиро — очень живописный и самый крупный городской парк, который отлично подходит для неспешных прогулок. Здесь есть станция, где можно взять в аренду лодку и прокатиться по небольшому озеру, в центре которого установлен памятник королю Альфонсу XII. А еще в парке находится красивый хрустальный дворец из стекла."
            },
            {
              "type": "text",
              "options": "Адрес: Plaza de la Independencia, 7."
            },
            {
              "type": "custom-photos",
              "options": {
                "ids": [
                  "39258939642",
                  "38412145055",
                  "39261329952",
                  "38412675485"
                ],
                "items": [
                  {
                    "server": "4733",
                    "isfriend": 0,
                    "isfamily": 0,
                    "secret": "fc745ed38a",
                    "ispublic": 1,
                    "owner": "151640904@N03",
                    "farm": 5,
                    "title": "Caty1-1600x1192",
                    "id": "39258939642"
                  },
                  {
                    "server": "4646",
                    "isfriend": 0,
                    "isfamily": 0,
                    "secret": "ecdca39624",
                    "ispublic": 1,
                    "owner": "151640904@N03",
                    "farm": 5,
                    "title": "1thyssen",
                    "id": "38412145055"
                  },
                  {
                    "server": "4633",
                    "isfriend": 0,
                    "isfamily": 0,
                    "secret": "855aa9a0a9",
                    "ispublic": 1,
                    "owner": "151640904@N03",
                    "farm": 5,
                    "title": "Terraza_The-Urban-Beach-Cinema-Conde-Duque",
                    "id": "39261329952"
                  },
                  {
                    "server": "4683",
                    "isfriend": 0,
                    "isfamily": 0,
                    "secret": "f63e4ded1e",
                    "ispublic": 1,
                    "owner": "151640904@N03",
                    "farm": 5,
                    "title": "232mad-madrid-teleferico-casa-de-campo-seilbahn-2801819",
                    "id": "38412675485"
                  }
                ],
                "urls": [
                  "https://farm5.staticflickr.com/4733/39258939642_fc745ed38a.jpg",
                  "https://farm5.staticflickr.com/4646/38412145055_ecdca39624.jpg",
                  "https://farm5.staticflickr.com/4633/39261329952_855aa9a0a9.jpg",
                  "https://farm5.staticflickr.com/4683/38412675485_f63e4ded1e.jpg"
                ],
                "grid": [
                  1,
                  1,
                  1,
                  1
                ]
              }
            },
            {
              "type": "title",
              "options": "Блошиный рынок El Rastro"
            },
            {
              "type": "text",
              "options": "Здесь есть практически всё — от старинных предметов до новых вещей. Товары распределены по улицам — например, на Plaza del General Vara del Reythere стоит мебель, а на Calle Rodas продаются разные антикварные вещицы. Часы работы: каждое воскресенье с 9:00 до 15:00"
            },
            {
              "type": "text",
              "options": "Адрес: Calle de la Ribera de Curtidores."
            },
            {
              "type": "title",
              "options": "Музей Тиссена-Борнемисы"
            },
            {
              "type": "text",
              "options": "Входит в «Золотой треугольник искусств» Мадрида вместе с Прадо и Центром искусств королевы Софии. Здесь можно посмотреть полотна Эль Греко, а также работы Роя Лихтенштейна и Ван Гога. Тут же находятся работы Марка Шагала. По сравнению с другими музеями Мадрида, в этом вас однозначно ждет самый широкий спектр жанров и стилей. На вдумчивую прогулку по залам можно смело заложить часа три. Входной билет стоит 12 евро. Попасть в музей бесплатно можно только в понедельник, с 12:00 до 16:00. Часы работы: 12:00 - 16:00 (Пн), 10:00 - 19:00 (Вт-Вс)."
            },
            {
              "type": "text",
              "options": "Адрес: Paseo del Prado, 8."
            },
            {
              "type": "title",
              "options": "Conde Duque"
            },
            {
              "type": "text",
              "options": "Культурный центр располагает множеством залов с открытым пространством, позволяющих проводить самые разные мероприятия. Так, здесь часто проводятся гастрономические фестивали, концерты живой музыкой, театральные представления, выставки и винтажные рынки. Подробную информацию можно узнать на <a target='_blank' href=\"http://condeduquemadrid.es/en/\">этой странице</a>."
            },
            {
              "type": "text",
              "options": "Адрес: Calle Conde Duque, 9."
            },
            {
              "type": "title",
              "options": "Парк Casa de Campo"
            },
            {
              "type": "text",
              "options": "Известный парк, расположенный немного западнее от центра. Здесь находится канатная дорога Teleférico, парк аттракционов и зоопарк. Отсюда открывается красивейший вид на западную часть города."
            },
            {
              "type": "text",
              "options": "Адрес: Paseo Puerta del Angel, 1."
            },
            {
              "type": "custom-photos",
              "options": {
                "ids": [
                  "27530406429",
                  "27530390789",
                  "27530389979",
                  "39278634662"
                ],
                "items": [
                  {
                    "server": "4595",
                    "isfriend": 0,
                    "isfamily": 0,
                    "secret": "4bedff87db",
                    "ispublic": 1,
                    "owner": "151640904@N03",
                    "farm": 5,
                    "title": "0",
                    "id": "27530406429"
                  },
                  {
                    "server": "4637",
                    "isfriend": 0,
                    "isfamily": 0,
                    "secret": "10756e66e8",
                    "ispublic": 1,
                    "owner": "151640904@N03",
                    "farm": 5,
                    "title": "madrid-palacio-real-korolevskij-dvorec",
                    "id": "27530390789"
                  },
                  {
                    "server": "4639",
                    "isfriend": 0,
                    "isfamily": 0,
                    "secret": "5d360901f7",
                    "ispublic": 1,
                    "owner": "151640904@N03",
                    "farm": 5,
                    "title": "87380261",
                    "id": "27530389979"
                  },
                  {
                    "server": "4638",
                    "isfriend": 0,
                    "isfamily": 0,
                    "secret": "016f9629fd",
                    "ispublic": 1,
                    "owner": "151640904@N03",
                    "farm": 5,
                    "title": "2202_F60_Matadero_Madrid_es",
                    "id": "39278634662"
                  }
                ],
                "urls": [
                  "https://farm5.staticflickr.com/4595/27530406429_4bedff87db.jpg",
                  "https://farm5.staticflickr.com/4637/27530390789_10756e66e8.jpg",
                  "https://farm5.staticflickr.com/4639/27530389979_5d360901f7.jpg",
                  "https://farm5.staticflickr.com/4638/39278634662_016f9629fd.jpg"
                ],
                "grid": [
                  1,
                  1,
                  1,
                  1
                ]
              }
            },
            {
              "type": "title",
              "options": "Район AZCA"
            },
            {
              "type": "text",
              "options": "Этот современный финансовый район расположен на проспекте Кастельяна. Башня Пикассо высотой 157 м стала одним из символов современного Мадрида."
            },
            {
              "type": "title",
              "options": "Королевский дворец"
            },
            {
              "type": "text",
              "options": "Официальная резиденция королей Испании. Это жемчужина барочной архитектуры, не менее прекрасная внутри, чем снаружи. С октября по март открыт для посещений ежедневно с 10:00 до 18:00, с апреля по сентябрь — с 10:00 до 20:00. Подробную информацию можно узнать на <a target='_blank' href=\"http://www.patrimonionacional.es/\">этой странице</a>."
            },
            {
              "type": "text",
              "options": "Адрес: Calle de Bailén, s/n."
            },
            {
              "type": "title",
              "options": "Улица Гран-Виа "
            },
            {
              "type": "text",
              "options": "Неофициально считается главной улицей испанской столицы. Здесь расположены многочисленные магазины, бутики и бары. Обратите внимание, что по стилю зданий её можно условно разделить на три секции (позднее Возрождение, модернистский стиль и рационализм)."
            },
            {
              "type": "title",
              "options": "Matadero Madrid"
            },
            {
              "type": "text",
              "options": "Один из самых посещаемых современных культурных центров в Мадриде, который был основан на базе бывшей скотобойни. В этом центре проходят различные мероприятия, выставки, инсталляции, кинопоказы. Здесь же есть два бара с террасой, на которой можно комфортно поработать. Центр находится в районе Legazpi – ранее довольно опасной части Мадрида (в настоящее время она полностью обновлена). Мероприятия обычно бесплатные, реже за символическую плату."
            },
            {
              "type": "text",
              "options": "Адрес: Paseo de la Chopera, 14."
            }
          ]
        },
        {
          "type": "drop-down",
          "title": "Где поесть",
          "options": [
            {
              "type": "custom-photos",
              "options": {
                "ids": [
                  "38172325755",
                  "39285434011",
                  "39285434841",
                  "25417941428"
                ],
                "items": [
                  {
                    "server": "4552",
                    "isfriend": 0,
                    "isfamily": 0,
                    "secret": "1a78c5def7",
                    "ispublic": 1,
                    "owner": "151640904@N03",
                    "farm": 5,
                    "title": "16571",
                    "id": "38172325755"
                  },
                  {
                    "server": "4735",
                    "isfriend": 0,
                    "isfamily": 0,
                    "secret": "cd276cbb62",
                    "ispublic": 1,
                    "owner": "151640904@N03",
                    "farm": 5,
                    "title": "gandario",
                    "id": "39285434011"
                  },
                  {
                    "server": "4596",
                    "isfriend": 0,
                    "isfamily": 0,
                    "secret": "2a82c4df9f",
                    "ispublic": 1,
                    "owner": "151640904@N03",
                    "farm": 5,
                    "title": "42-churros con chocolate",
                    "id": "25417941428"
                  },
                  {
                    "server": "4633",
                    "isfriend": 0,
                    "isfamily": 0,
                    "secret": "bf1ea19bbc",
                    "ispublic": 1,
                    "owner": "151640904@N03",
                    "farm": 5,
                    "title": "Paella-Barcelona",
                    "id": "39285434841"
                  }
                ],
                "urls": [
                  "https://farm5.staticflickr.com/4552/38172325755_1a78c5def7.jpg",
                  "https://farm5.staticflickr.com/4735/39285434011_cd276cbb62.jpg",
                  "https://farm5.staticflickr.com/4596/25417941428_2a82c4df9f.jpg",
                  "https://farm5.staticflickr.com/4633/39285434841_bf1ea19bbc.jpg"
                ],
                "grid": [
                  1,
                  1,
                  1,
                  1
                ]
              }
            },
            {
              "type": "title",
              "options": "Рынок Mercado de las Maravillas"
            },
            {
              "type": "text",
              "options": "Мадридский рынок — одно из мест, куда непременно нужно заглянуть. Здесь вас ждет большой ассортимент свежих фруктов, овощей и местных деликатесов. Присмотритесь к нехитрым закускам, которые заказывают мадридцы на рынке и смело просите то же самое, запомнив три главных слова — bueno, bonito, barato («хорошо», «красиво», «дёшево»)."
            },
            {
              "type": "text",
              "options": "Адрес: Calle de Bravo Murillo, 122."
            },
            {
              "type": "title",
              "options": "Gandarío"
            },
            {
              "type": "text",
              "options": "Демократичное кафе с огромными порциями, в котором стоит пробовать традиционные блюда."
            },
            {
              "type": "text",
              "options": "Адрес: Calle Gaztambide, 28."
            },
            {
              "type": "title",
              "options": "La Pizzateca"
            },
            {
              "type": "text",
              "options": "Если вы соскучились по итальянской кухне, обязательно загляните в это кафе. Здесь большой выбор пиццы, пасты и салатов. Цены невысокие, а туристов очень мало. Кроме того, еду можно заказать с собой."
            },
            {
              "type": "text",
              "options": "Адрес: Calle Leon, 35."
            },
            {
              "type": "title",
              "options": "El Jardin Secreto"
            },
            {
              "type": "text",
              "options": "Красивое место, которое легко пропустить, если не знать о нем заранее. Как только заходишь внутрь, оказываешься Алисой в Стране чудес. На стенах все, что только можно вообразить: от пластиковых единорогов и подвешенных чайников до речных ракушек с вкрученными в них лампочками. Ресторан расположен неподалеку от центральной площади Испании — случайные туристы стали появляться здесь все чаще, так что рекомендуем бронировать столик заранее. "
            },
            {
              "type": "text",
              "options": "Адрес: Calle Conde Duque, 2\n"
            },
            {
              "type": "title",
              "options": "Тапас-бар Melo's"
            },
            {
              "type": "text",
              "options": "Melo's находится в мультикультурном квартале Лавапьес, в самом его центре, и здесь всегда многолюдно. Это, надо сказать, вполне заслуженно. Первым делом заказывайте «тапочки». Это буханка хлеба, заполненная ветчиной и расплавленным сыром. Порции здесь большие, так что вполне хватит на двоих.\n\n"
            },
            {
              "type": "text",
              "options": "Адрес: Calle Ave María, 44"
            },
            {
              "type": "title",
              "options": "La Sanabresa"
            },
            {
              "type": "text",
              "options": "Ресторанчик испанской кухни, в котором можно очень вкусно и недорого перекусить. Обязательно попробуйте здесь паэлью."
            },
            {
              "type": "text",
              "options": "Адрес: Calle Amor de Dios, 12."
            },
            {
              "type": "title",
              "options": "Chocolateria San Gines"
            },
            {
              "type": "text",
              "options": "В этой шоколатерии обязательно стоит отведать чуррос (традиционный десерт из заварного теста), которые вам здесь подадут с горячим шоколадом. Если вы путешествуете с детьми, они будут в восторге! Одна порция обойдется вам в 4 евро."
            },
            {
              "type": "text",
              "options": "Адрес: Pasadizo San Gines, 5"
            },
            {
              "type": "title",
              "options": "Café Comercial"
            },
            {
              "type": "text",
              "options": "Классическое кафе, одно из самых старых в городе. В интерьере есть и мраморные стены, и старые коричневые кожаные сидения, и вращающиеся двери, и высокие окна, позволяющие рассматривать прохожих. На верхнем этаже до сих пор располагается шахматный клуб. По выходным здесь играет живая музыка – джаз и блюз. Если вам нравится атмосфера старых кафе, загляните сюда на чуррос, кофе или коктейль."
            },
            {
              "type": "text",
              "options": "Адрес: Glorieta de Bilbao, 7."
            }
          ]
        },
        {
          "type": "drop-down",
          "title": "Куда сходить вечером",
          "options": [
            {
              "type": "custom-photos",
              "options": {
                "ids": [
                  "24444884527",
                  "24444884347",
                  "38600449974",
                  "24335700587"
                ],
                "items": [
                  {
                    "server": "4634",
                    "isfriend": 0,
                    "isfamily": 0,
                    "secret": "f1fdcbca9a",
                    "ispublic": 1,
                    "owner": "151640904@N03",
                    "farm": 5,
                    "title": "TeatroReal4",
                    "id": "24444884527"
                  },
                  {
                    "server": "4639",
                    "isfriend": 0,
                    "isfamily": 0,
                    "secret": "e5d5065a1e",
                    "ispublic": 1,
                    "owner": "151640904@N03",
                    "farm": 5,
                    "title": "club-joy-eslava",
                    "id": "24444884347"
                  },
                  {
                    "server": "4593",
                    "isfriend": 0,
                    "isfamily": 0,
                    "secret": "1c1b31b9c4",
                    "ispublic": 1,
                    "owner": "151640904@N03",
                    "farm": 5,
                    "title": "cocktail-final",
                    "id": "24335700587"
                  },
                  {
                    "server": "4588",
                    "isfriend": 0,
                    "isfamily": 0,
                    "secret": "b82e4cbfed",
                    "ispublic": 1,
                    "owner": "151640904@N03",
                    "farm": 5,
                    "title": "the-roof-ME-article",
                    "id": "38600449974"
                  }
                ],
                "urls": [
                  "https://farm5.staticflickr.com/4634/24444884527_f1fdcbca9a.jpg",
                  "https://farm5.staticflickr.com/4639/24444884347_e5d5065a1e.jpg",
                  "https://farm5.staticflickr.com/4593/24335700587_1c1b31b9c4.jpg",
                  "https://farm5.staticflickr.com/4588/38600449974_b82e4cbfed.jpg"
                ],
                "grid": [
                  1,
                  1,
                  1,
                  1
                ]
              }
            },
            {
              "type": "title",
              "options": "Королевский театр"
            },
            {
              "type": "text",
              "options": "Это главный оперный театр Мадрида и один из символов города. Попасть сюда совершенно не сложно (билеты день в день на не самые популярные спектакли можно купить и за 9 евро). Ознакомиться с афишей можно на <a target='_blank' href=\"http://www.teatro-real.com/en/season-17-18/opera/\">этой странице</a>."
            },
            {
              "type": "text",
              "options": "Адрес: Plaza de Isabel II, s/n."
            },
            {
              "type": "title",
              "options": "Mercado San Antón"
            },
            {
              "type": "text",
              "options": "На одном из лучших мадридских рынков есть секретный бар на крыше, где вы сможете насладиться свежайшими продуктами и потрясающими видами. Цены здесь не такие высокие, как в аналогичных заведениях, поэтому бюджетные путешественники точно оценят эту террасу."
            },
            {
              "type": "text",
              "options": "Адрес: Calle de Augusto Figueroa, 24"
            },
            {
              "type": "title",
              "options": "The Roof at ME"
            },
            {
              "type": "text",
              "options": "Этот ресторан расположен на крыше отеля Reina Victoria Meliá Hotel, прямо напротив Королевского театра. Место очень популярно, а цены далеко не самые маленькие. Однако восхитительные коктейли, панорамный вид и приятная атмосфера того стоят."
            },
            {
              "type": "text",
              "options": "Адрес: Plaza de Santa Ana, 14."
            }
          ]
        }
      ]
    },
    {
      "title": "Логроньо, 29–30 сентября",
      "description": [
        {
          "type": "map",
          "options": {
            "direction": {
              "origin": "мадрид",
              "destination": "логроньо",
              "waypoints": []
            }
          }
        },
        {
          "type": "text",
          "options": "Путь из Мадрида до Логроньо займет около трех с половиной часов (без учета остановок)."
        },
        {
          "type": "custom-photos",
          "options": {
            "ids": [
              "28129497237",
              "42997796751",
              "28129497707",
              "42948345452"
            ],
            "items": [
              {
                "server": "1835",
                "isfriend": 0,
                "isfamily": 0,
                "secret": "94db234cb7",
                "ispublic": 1,
                "owner": "151640904@N03",
                "farm": 2,
                "title": "yqjdvczp40818",
                "id": "42997796751"
              },
              {
                "server": "1774",
                "isfriend": 0,
                "isfamily": 0,
                "secret": "659ef83f73",
                "ispublic": 1,
                "owner": "151640904@N03",
                "farm": 2,
                "title": "0_d7235_599cafcd_orig",
                "id": "28129497707"
              },
              {
                "server": "1801",
                "isfriend": 0,
                "isfamily": 0,
                "secret": "35cf48bb0f",
                "ispublic": 1,
                "owner": "151640904@N03",
                "farm": 2,
                "title": "es140",
                "id": "42948345452"
              },
              {
                "server": "1840",
                "isfriend": 0,
                "isfamily": 0,
                "secret": "f68e26408e",
                "ispublic": 1,
                "owner": "151640904@N03",
                "farm": 2,
                "title": "logrono--389593-1",
                "id": "28129497237"
              }
            ],
            "urls": [
              "https://farm2.staticflickr.com/1835/42997796751_94db234cb7.jpg",
              "https://farm2.staticflickr.com/1774/28129497707_659ef83f73.jpg",
              "https://farm2.staticflickr.com/1801/42948345452_35cf48bb0f.jpg",
              "https://farm2.staticflickr.com/1840/28129497237_f68e26408e.jpg"
            ],
            "grid": [
              1,
              1,
              1,
              1
            ]
          }
        },
        {
          "type": "text",
          "options": "Логроньо — это относительно небольшой городок, который является столицей автономного сообщества Риоха. Стоит на реке Эбро и за свою историю неоднократно подвергался набегам и разрушениям. Именно поэтому старинных построек практически не сохранилось. В центре расположены собор Санта-Мария-Редонда и храм Сантьяго-эль-Реаль. В целом город достаточно провинциальный, жизнь здесь течет медленно и размеренно."
        },
        {
          "type": "text",
          "options": "Логроньо находится в винодельческом регионе, поэтому обязательно попробуйте местное вино. Так, в окрестностях города есть множество виноделен, где можно продегустировать разные сорта риохи."
        },
        {
          "type": "text",
          "options": "Ниже мы подобрали отличные варианты размещения на одну ночь. Чтобы посмотреть подробную информацию и перейти к бронированию, нажимайте на карточки."
        },
        {
          "type": "cards",
          "options": [
            {
              "type": "hotel",
              "image": {
                "title": "NH Logroño",
                "description": "★★★",
                "src": "https://1b4da894acfad722fb46-08ede53a5c8850764384bc99fd6145bb.ssl.cf3.rackcdn.com/317909/70044869_u.jpg"
              },
              "price": {
                "title": [
                  "Стандартный",
                  "Без питания"
                ],
                "btn": {
                  "href": "https://www.onetwotrip.com/ru/hotels/hotel/nh-logrono-317909?date_start=2018-09-29&date_end=2018-09-30&to=%25D0%259B%25D0%25BE%25D0%25B3%25D1%2580%25D0%25BE%25D0%25BD%25D1%258C%25D0%25BE&id=3118150&sc=3118150&type=geo&adults=2&children=0&children_ages=1&countryName=spain&cityName=logrono&s=true&referrer_mrk=google.ru%7C%2Fru%2F&country_code=ES",
                  "title": "6 168 %rub%"
                }
              }
            },
            {
              "type": "hotel",
              "image": {
                "title": "F&G Logroño",
                "description": "★★★",
                "src": "https://1b4da894acfad722fb46-08ede53a5c8850764384bc99fd6145bb.ssl.cf3.rackcdn.com/320585/47258775_u.jpg"
              },
              "price": {
                "title": [
                  "Стандартный",
                  "Без питания"
                ],
                "btn": {
                  "href": "https://www.onetwotrip.com/ru/hotels/hotel/f-and-g-logrono-320585?date_start=2018-09-29&date_end=2018-09-30&to=%25D0%259B%25D0%25BE%25D0%25B3%25D1%2580%25D0%25BE%25D0%25BD%25D1%258C%25D0%25BE&id=3118150&sc=3118150&type=geo&adults=2&children=0&children_ages=1&countryName=spain&cityName=logrono&s=true&referrer_mrk=google.ru%7C%2Fru%2F&country_code=ES",
                  "title": "9 162 %rub%"
                }
              }
            }
          ]
        }
      ]
    },
    {
      "title": "Бильбао, 30 сентября – 2 октября",
      "description": [
        {
          "type": "map",
          "options": {
            "direction": {
              "origin": "логроньо",
              "destination": "бильбао",
              "waypoints": []
            }
          }
        },
        {
          "type": "text",
          "options": "Следующей остановкой на вашем пути станет Бильбао. Переезд из Логроньо займёт около полутора часов. Бильбао — крупнейший город испанской Страны Басков, богатый и благоустроенный, с великолепной гастрономией и как минимум одной всемирно известной достопримечательностью — музеем современного искусства Гуггенхайма."
        },
        {
          "type": "custom-photos",
          "options": {
            "ids": [
              "42279698094",
              "42279697904",
              "42096659355",
              "42096659225"
            ],
            "items": [
              {
                "server": "1803",
                "isfriend": 0,
                "isfamily": 0,
                "secret": "e73496e783",
                "ispublic": 1,
                "owner": "151640904@N03",
                "farm": 2,
                "title": "square-with-people-in-bilbao",
                "id": "42096659355"
              },
              {
                "server": "895",
                "isfriend": 0,
                "isfamily": 0,
                "secret": "337bc075a7",
                "ispublic": 1,
                "owner": "151640904@N03",
                "farm": 1,
                "title": "bilbao-cityscape",
                "id": "42279698094"
              },
              {
                "server": "1815",
                "isfriend": 0,
                "isfamily": 0,
                "secret": "a3c41d11fa",
                "ispublic": 1,
                "owner": "151640904@N03",
                "farm": 2,
                "title": "cathedral-of-bilbao",
                "id": "42096659225"
              },
              {
                "server": "1777",
                "isfriend": 0,
                "isfamily": 0,
                "secret": "b1c442a10c",
                "ispublic": 1,
                "owner": "151640904@N03",
                "farm": 2,
                "title": "giants-and-big-heads",
                "id": "42279697904"
              }
            ],
            "urls": [
              "https://farm2.staticflickr.com/1803/42096659355_e73496e783.jpg",
              "https://farm1.staticflickr.com/895/42279698094_337bc075a7.jpg",
              "https://farm2.staticflickr.com/1815/42096659225_a3c41d11fa.jpg",
              "https://farm2.staticflickr.com/1777/42279697904_b1c442a10c.jpg"
            ],
            "grid": [
              1,
              1,
              1,
              1
            ]
          }
        },
        {
          "type": "text",
          "options": "На пути к Бискайскому заливу воды двух рек — Нервьон и Ибаисабаль сливаются, разделяя центр города на две части. На карте это значится как Ria de Bilbao, т. е. «Устье Бильбао». Вдоль этого устья и расположена большая часть достопримечательностей, включая музей Гуггенхайма, здание мэрии, центральный рынок Рибера, церковь Сан-Антон, изображенную на городском гербе. Так что прогулка по набережной позволит осмотреться и составить представление об архитектурном облике города, где изящные постройки XVIII-XIX веков гармонично сочетаются с ультрасовременными конструкциями из стекла и стали.\n\n"
        },
        {
          "type": "text",
          "options": "В числе наиболее знаменитых образцов современной архитектуры — спроектированный Сантьяго Калатравой мост Субисури (буквально «Белый мост»), при взгляде снизу напоминающий позвоночник какого-нибудь древнего гигантского ящера, и уже упомянутый Гуггенхайм. А ещё прямо на реке находится Морской музей (Museo Maritimo), рассказывающий о прошлом и настоящем судоходства в городе, издавна живущем рыболовством и грузоперевозками.\n\n"
        },
        {
          "type": "text",
          "options": "На заре своего существования в XIV веке Бильбао состоял всего из трëх улочек, а веком позже разросся до семи. Эти самые семь улиц, соединённые узкими, как коридоры, переулками — исторический центр Бильбао, его ядро. Именно здесь находятся главные исторические памятники — кафедральный собор Святого Иакова XV-XVI веков, каменный «Собачий» фонтан (Fuente del perro) с питьевой водой и древнейший из сохранившихся дворцов Бильбао, Паласьо Арана конца XVI столетия. Здесь же и на прилегающей Новой площади (Plaza Nueva) — высочайшая концентрация ресторанчиков и баров. \n\n"
        },
        {
          "type": "text",
          "options": "Бильбао окружают горы, богатые залежами железных руд. Благодаря такому расположению город со Средних веков славился как центр добычи этих ресурсов. К счастью, этот период истории Бильбао уже позади — сегодня с низких зелёных гор на его улицы веет свежестью и прохладой. И как раз с вершины одной из этих гор, Арчанды, открывается лучшая панорама города. На Арчанду ходит маленький фуникулёр, хотя и пешком подняться не сложно — подъём не крутой и совсем не долгий.\n"
        },
        {
          "type": "text",
          "options": "Ниже мы подобрали отличные варианты размещения. Цена указана за две ночи. Чтобы посмотреть подробную информацию и перейти к бронированию, нажимайте на карточки.\n\n"
        },
        {
          "type": "cards",
          "options": [
            {
              "type": "hotel",
              "image": {
                "title": "Sirimiri",
                "description": "★★★",
                "src": "https://1b4da894acfad722fb46-08ede53a5c8850764384bc99fd6145bb.ssl.cf3.rackcdn.com/503834/47147969_u.jpg"
              },
              "price": {
                "title": [
                  "Стандартный",
                  "Без питания"
                ],
                "btn": {
                  "href": "https://www.onetwotrip.com/ru/hotels/hotel/sirimiri-503834?date_start=2018-09-30&date_end=2018-10-02&to=%25D0%2591%25D0%25B8%25D0%25BB%25D1%258C%25D0%25B1%25D0%25B0%25D0%25BE&id=3128026&sc=3128026&type=geo&adults=2&children=0&children_ages=1&countryName=spain&cityName=bilbao&s=true&referrer_mrk=google.ru%7C%2Fru%2F&country_code=ES",
                  "title": "14 659 %rub%"
                }
              }
            },
            {
              "type": "hotel",
              "image": {
                "title": "NH Bilbao Deusto",
                "description": "★★★",
                "src": "https://1b4da894acfad722fb46-08ede53a5c8850764384bc99fd6145bb.ssl.cf3.rackcdn.com/317897/47157371_u.jpg"
              },
              "price": {
                "title": [
                  "Стандартный",
                  "Без питания"
                ],
                "btn": {
                  "href": "https://www.onetwotrip.com/ru/hotels/hotel/nh-bilbao-deusto-317897?date_start=2018-09-30&date_end=2018-10-02&to=%25D0%2591%25D0%25B8%25D0%25BB%25D1%258C%25D0%25B1%25D0%25B0%25D0%25BE&id=3128026&sc=3128026&type=geo&adults=2&children=0&children_ages=1&countryName=spain&cityName=bilbao&s=true&referrer_mrk=google.ru%7C%2Fru%2F&country_code=ES",
                  "title": "16 888 %rub%"
                }
              }
            }
          ]
        }
      ]
    },
    {
      "title": "Сан-Себастьян, 2–3 октября",
      "description": [
        {
          "type": "map",
          "options": {
            "direction": {
              "origin": "бильбао",
              "destination": "сан-себастьян",
              "waypoints": []
            }
          }
        },
        {
          "type": "text",
          "options": "Переезд из Бильбао в Сан-Себастьян займёт всего полтора часа."
        },
        {
          "type": "text",
          "options": "Сан-Себастьян — самый крупный город и административный центр провинции Гипускоа Страны Басков. На баскском языке его название звучит как Доностия. Близость к Франции оказала сильное влияние на архитектуру города, однако исторический центр сохранил свою аутентичность и сам по себе является достопримечательностью. Среди ближайших окрестностей стоит отметить гору Игельдо, куда можно подняться на фуникулёре — с её вершины открывается захватывающий дух панорамный вид на город и побережье. "
        },
        {
          "type": "custom-photos",
          "options": {
            "ids": [
              "41188580620",
              "41188578130",
              "41188578270",
              "41188578000"
            ],
            "items": [
              {
                "server": "1812",
                "isfriend": 0,
                "isfamily": 0,
                "secret": "c5ca800db8",
                "ispublic": 1,
                "owner": "151640904@N03",
                "farm": 2,
                "title": "1-santiago-sanz-romero-2-1600x1066",
                "id": "41188578130"
              },
              {
                "server": "1798",
                "isfriend": 0,
                "isfamily": 0,
                "secret": "c34b5af097",
                "ispublic": 1,
                "owner": "151640904@N03",
                "farm": 2,
                "title": "114326778",
                "id": "41188578000"
              },
              {
                "server": "1829",
                "isfriend": 0,
                "isfamily": 0,
                "secret": "08f50ab4f9",
                "ispublic": 1,
                "owner": "151640904@N03",
                "farm": 2,
                "title": "Vacation-in-San-Sebastian-2",
                "id": "41188580620"
              },
              {
                "server": "875",
                "isfriend": 0,
                "isfamily": 0,
                "secret": "812f02790d",
                "ispublic": 1,
                "owner": "151640904@N03",
                "farm": 1,
                "title": "135639_original",
                "id": "41188578270"
              }
            ],
            "urls": [
              "https://farm2.staticflickr.com/1812/41188578130_c5ca800db8.jpg",
              "https://farm2.staticflickr.com/1798/41188578000_c34b5af097.jpg",
              "https://farm2.staticflickr.com/1829/41188580620_08f50ab4f9.jpg",
              "https://farm1.staticflickr.com/875/41188578270_812f02790d.jpg"
            ],
            "grid": [
              1,
              1,
              1,
              1
            ]
          }
        },
        {
          "type": "text",
          "options": "Помимо домашних кафе с традиционной кухней и знаменитых испанских тапас-баров, в Сан-Себастьяне находится сразу несколько лучших ресторанов страны, награжденных звездами Мишлен. А ещё Сан-Себастьян является столицей сёрфинга в Испании, здесь катаются на волнах круглый год, а летом и осенью проводят ряд местных и международных соревнований, на которые съезжаются мировые звёзды этого спорта. "
        },
        {
          "type": "text",
          "options": "Одной из главных достопримечательностей города является бухта Ла-Конча и пляжи на её берегу."
        },
        {
          "type": "text",
          "options": "Ниже мы подобрали отличные варианты размещения. Цена указана за одну ночь. Чтобы посмотреть подробную информацию и перейти к бронированию, нажимайте на карточки.\n\n"
        },
        {
          "type": "cards",
          "options": [
            {
              "type": "hotel",
              "image": {
                "title": "Sercotel Codina",
                "description": "★★★",
                "src": "https://1b4da894acfad722fb46-08ede53a5c8850764384bc99fd6145bb.ssl.cf3.rackcdn.com/318113/47163513_u.jpg"
              },
              "price": {
                "title": [
                  "Стандартный",
                  "Без питания"
                ],
                "btn": {
                  "href": "https://www.onetwotrip.com/ru/hotels/hotel/sercotel-codina-318113?date_start=2018-10-02&date_end=2018-10-03&to=%25D0%25A1%25D0%25B0%25D0%25BD-%25D0%25A1%25D0%25B5%25D0%25B1%25D0%25B0%25D1%2581%25D1%2582%25D1%258C%25D1%258F%25D0%25BD&id=3110044&sc=3110044&type=geo&adults=2&children=0&children_ages=1&countryName=spain&cityName=san-sebastian&s=true&referrer_mrk=google.ru%7C%2Fru%2F&country_code=ES",
                  "title": "6 458 %rub%"
                }
              }
            },
            {
              "type": "hotel",
              "image": {
                "title": "Husa Europa",
                "description": "★★★",
                "src": "https://1b4da894acfad722fb46-08ede53a5c8850764384bc99fd6145bb.ssl.cf3.rackcdn.com/319759/71069960_u.jpg"
              },
              "price": {
                "title": [
                  "Стандартный",
                  "Без питания"
                ],
                "btn": {
                  "href": "https://www.onetwotrip.com/ru/hotels/hotel/husa-europa-319759?date_start=2018-10-02&date_end=2018-10-03&to=%25D0%25A1%25D0%25B0%25D0%25BD-%25D0%25A1%25D0%25B5%25D0%25B1%25D0%25B0%25D1%2581%25D1%2582%25D1%258C%25D1%258F%25D0%25BD&id=3110044&sc=3110044&type=geo&adults=2&children=0&children_ages=1&countryName=spain&cityName=san-sebastian&s=true&referrer_mrk=google.ru%7C%2Fru%2F&country_code=ES",
                  "title": "10 621 %rub%"
                }
              }
            }
          ]
        }
      ]
    },
    {
      "title": "Биарриц, 3–5 октября",
      "description": [
        {
          "type": "map",
          "options": {
            "direction": {
              "origin": "сан-себастьян",
              "destination": "биарриц",
              "waypoints": []
            }
          }
        },
        {
          "type": "text",
          "options": "Дорога из Сан-Себастьяна до Биаррица займет чуть меньше часа. Она невероятно живописная, поэтому советуем делать как можно больше остановок."
        },
        {
          "type": "custom-photos",
          "options": {
            "ids": [
              "26704053609",
              "26704038709",
              "38479876981",
              "38479876701"
            ],
            "items": [
              {
                "server": "4526",
                "isfriend": 0,
                "isfamily": 0,
                "secret": "0750775373",
                "ispublic": 1,
                "owner": "151640904@N03",
                "farm": 5,
                "title": "180562-004-9C7313FD",
                "id": "26704053609"
              },
              {
                "server": "4572",
                "isfriend": 0,
                "isfamily": 0,
                "secret": "ba712f8516",
                "ispublic": 1,
                "owner": "151640904@N03",
                "farm": 5,
                "title": "biarritz2_3498783b",
                "id": "26704038709"
              },
              {
                "server": "4556",
                "isfriend": 0,
                "isfamily": 0,
                "secret": "e1a536d8c8",
                "ispublic": 1,
                "owner": "151640904@N03",
                "farm": 5,
                "title": "shutterstock_541822981_rocher_de_la_vierge_aquarium_de_biarritz_france",
                "id": "38479876981"
              },
              {
                "server": "4536",
                "isfriend": 0,
                "isfamily": 0,
                "secret": "ce3064d010",
                "ispublic": 1,
                "owner": "151640904@N03",
                "farm": 5,
                "title": "94367543",
                "id": "38479876701"
              }
            ],
            "urls": [
              "https://farm5.staticflickr.com/4526/26704053609_0750775373.jpg",
              "https://farm5.staticflickr.com/4572/26704038709_ba712f8516.jpg",
              "https://farm5.staticflickr.com/4556/38479876981_e1a536d8c8.jpg",
              "https://farm5.staticflickr.com/4536/38479876701_ce3064d010.jpg"
            ],
            "grid": [
              1,
              1,
              1,
              1
            ]
          }
        },
        {
          "type": "text",
          "options": "Биарриц практически сливается с Байонной. Это приморский климатический и бальнеологический курорт , а также известный центр серфинга. Здесь вас ждут невероятно живописные широкие песчаные пляжи, элегантные виллы, тихие улочки, а также интересные музеи.\n\n"
        },
        {
          "type": "text",
          "options": "Ниже мы подобрали отличные варианты размещения. Цена указана за две ночи. Чтобы посмотреть подробную информацию и перейти к бронированию, нажимайте на карточки.\n\n"
        },
        {
          "type": "cards",
          "options": [
            {
              "type": "hotel",
              "image": {
                "title": "Hotel De L'Océan",
                "description": "★★★",
                "src": "https://1b4da894acfad722fb46-08ede53a5c8850764384bc99fd6145bb.ssl.cf3.rackcdn.com/303752/69370037_u.jpg"
              },
              "price": {
                "title": [
                  "Стандартный",
                  "Без питания"
                ],
                "btn": {
                  "href": "https://www.onetwotrip.com/ru/hotels/hotel/hotel-de-l-ocean-303752?date_start=2018-10-03&date_end=2018-10-05&to=%25D0%2591%25D0%25B8%25D0%25B0%25D1%2580%25D1%2580%25D0%25B8%25D1%2586&id=3032797&sc=3032797&type=geo&adults=2&children=0&children_ages=1&countryName=france&cityName=biarritz&s=true&referrer_mrk=google.ru%7C%2Fru%2F&country_code=FR",
                  "title": "14 894 %rub%"
                }
              }
            },
            {
              "type": "hotel",
              "image": {
                "title": "Hôtel La Maison Garnier",
                "description": "★★★",
                "src": "https://1b4da894acfad722fb46-08ede53a5c8850764384bc99fd6145bb.ssl.cf3.rackcdn.com/356686/48928584_u.jpg"
              },
              "price": {
                "title": [
                  "Стандартный",
                  "Без питания"
                ],
                "btn": {
                  "href": "https://www.onetwotrip.com/ru/hotels/hotel/hotel-la-maison-garnier-356686?date_start=2018-10-03&date_end=2018-10-05&to=%25D0%2591%25D0%25B8%25D0%25B0%25D1%2580%25D1%2580%25D0%25B8%25D1%2586&id=3032797&sc=3032797&type=geo&adults=2&children=0&children_ages=1&countryName=france&cityName=biarritz&s=true&referrer_mrk=google.ru%7C%2Fru%2F&country_code=FR",
                  "title": "15 627 %rub%"
                }
              }
            }
          ]
        }
      ]
    },
    {
      "title": "Бордо, 5–7 октября",
      "description": [
        {
          "type": "map",
          "options": {
            "direction": {
              "origin": "биарриц",
              "destination": "бордо",
              "waypoints": []
            }
          }
        },
        {
          "type": "text",
          "options": "Конечным пунктом вашего маршрута станет Бордо, центр исторической области Аквитания. Переезд займет около двух часов."
        },
        {
          "type": "custom-photos",
          "options": {
            "ids": [
              "26703391359",
              "26703391189",
              "26703391119",
              "26703391059"
            ],
            "items": [
              {
                "server": "4524",
                "isfriend": 0,
                "isfamily": 0,
                "secret": "5257085cb8",
                "ispublic": 1,
                "owner": "151640904@N03",
                "farm": 5,
                "title": "bordeaux",
                "id": "26703391359"
              },
              {
                "server": "4523",
                "isfriend": 0,
                "isfamily": 0,
                "secret": "5d8592583f",
                "ispublic": 1,
                "owner": "151640904@N03",
                "farm": 5,
                "title": "Bordeaux Métropole",
                "id": "26703391119"
              },
              {
                "server": "4551",
                "isfriend": 0,
                "isfamily": 0,
                "secret": "11afeb2b53",
                "ispublic": 1,
                "owner": "151640904@N03",
                "farm": 5,
                "title": "miroir-eau-bordeaux-C-Jean-Michel-Destang_chapeau",
                "id": "26703391059"
              },
              {
                "server": "4525",
                "isfriend": 0,
                "isfamily": 0,
                "secret": "5985ea4225",
                "ispublic": 1,
                "owner": "151640904@N03",
                "farm": 5,
                "title": "Bordeaux-360_format_360x360",
                "id": "26703391189"
              }
            ],
            "urls": [
              "https://farm5.staticflickr.com/4524/26703391359_5257085cb8.jpg",
              "https://farm5.staticflickr.com/4523/26703391119_5d8592583f.jpg",
              "https://farm5.staticflickr.com/4551/26703391059_11afeb2b53.jpg",
              "https://farm5.staticflickr.com/4525/26703391189_5985ea4225.jpg"
            ],
            "grid": [
              1,
              1,
              1,
              1
            ]
          }
        },
        {
          "type": "text",
          "options": "Бордо сразу ассоциируется с лучшими винами Франции. А еще это очень элегантный город, в котором все сказочное, готическое, классическое и современное смешано в самых удачных пропорциях. Прозванный «спящей красавицей», Бордо причислен во Франции к множеству «городов искусств и истории»; он занимает второе место в стране по количеству исторических памятников (после Парижа). В городе находится одна из самых больших европейских площадей (Esplanade des Quinconces), одна из самых старых христианских церквей, самая длинная пешеходная улица во Франции.\n\n"
        },
        {
          "type": "text",
          "options": "Площадь «Водное зеркало» в Бордо — одна из самых зрелищных достопримечательностей города и идеальное место для футуристических фотосессий в любое время суток. Расположена она в центре, между причалами и зданием Биржи.\n\n"
        },
        {
          "type": "cards",
          "options": [
            {
              "type": "hotel",
              "image": {
                "title": "ibis Bordeaux Centre Meriadeck",
                "description": "★★★",
                "src": "https://1b4da894acfad722fb46-08ede53a5c8850764384bc99fd6145bb.ssl.cf3.rackcdn.com/985779/72550213_u.jpg"
              },
              "price": {
                "title": [
                  "Стандартный",
                  "Без питания"
                ],
                "btn": {
                  "href": "https://www.onetwotrip.com/ru/hotels/hotel/ibis-bordeaux-centre-meriadeck-985779?date_start=2018-10-05&date_end=2018-10-07&to=%25D0%2591%25D0%25BE%25D1%2580%25D0%25B4%25D0%25BE&id=3031582&sc=3031582&type=geo&adults=2&children=0&children_ages=1&countryName=france&cityName=bordeaux&s=true&referrer_mrk=google.ru%7C%2Fru%2F&country_code=FR",
                  "title": "10 175 %rub%"
                }
              }
            },
            {
              "type": "hotel",
              "image": {
                "title": "Hotel des 4 Soeurs",
                "description": "★★★",
                "src": "https://1b4da894acfad722fb46-08ede53a5c8850764384bc99fd6145bb.ssl.cf3.rackcdn.com/301875/54810660_u.jpg"
              },
              "price": {
                "title": [
                  "Стандартный",
                  "Без питания"
                ],
                "btn": {
                  "href": "https://www.onetwotrip.com/ru/hotels/hotel/hotel-des-4-soeurs-301875?date_start=2018-10-05&date_end=2018-10-07&to=%25D0%2591%25D0%25BE%25D1%2580%25D0%25B4%25D0%25BE&id=3031582&sc=3031582&type=geo&adults=2&children=0&children_ages=1&countryName=france&cityName=bordeaux&s=true&referrer_mrk=google.ru%7C%2Fru%2F&country_code=FR",
                  "title": "15 832 %rub%"
                }
              }
            }
          ]
        }
      ]
    },
    {
      "title": "Перелет Бордо – Москва, 7 октября",
      "description": [
        {
          "type": "text",
          "options": "Обратный вылет у нас запланирован из Бордо, на пути у вас будет 8-часовая пересадка в Барселоне. Чтобы посмотреть подробную информацию и перейти к бронированию, нажмите на карточку."
        },
        {
          "type": "cards",
          "options": [
            {
              "type": "flight",
              "from": {
                "title": "Бордо",
                "time": "09:40"
              },
              "to": {
                "title": "Домодедово",
                "time": "00:20"
              },
              "across": {
                "title": "через Барселона",
                "time": "8 ч 5 мин"
              },
              "price": {
                "title": "",
                "btn": {
                  "href": "https://www.onetwotrip.com/ru/f/?env=7#/book/51~3ixsm~K8KBw6lWw6PDjsKONsOFw5fCrEcDHMOVYx3Cp8K9fGrCv8KGZcKuMMKqGlvCvMOkwpFyw7RHwq7CsxwjG2lPw6YewpbDoxASQsO_w57Cv8O9w5PCvSF0TifDpsKFRzBWwoJpcF3DhTXCvcOaSsOQw7UUwoNbw4LDiHhoY8OpA2sUV8KNw4gAwopBT8OQwqfCh8OZD8O4XcKjcXoRd8ONwr3DocOSLlgLfMKeM8ObXcK8V8KmwqnDtmHDi8OqTEnDhsO4w5IRwr0Ww4lVTjHDvMK-ZcKtAnzCqcOyw7zCs8KywrwZHMOYdgbDgsOuOsKQF3B2w5cjwqDDjE-DuMOLSm-CqMKywoHCs8OXUAgWwonDpsOawpvDhcOXw6AWw4vDrXrCoMKwUMKsXsK0ZXZyKMOww7TDgsKLw5TCrhDCpCJhw7FnF8Kaw74XTUh0RMK1w6PDrTk.~~ea957052-e36d-4be6-aa1f-5a6173787af5~~0CRrehVwBZEL0gfrIruKRw..~5~cod~1_0_0~~~~%2F~c0PN.JDF.Y.PGY~E~4~E~bbb1881315b1b1111168111181832yB.hPPiA_f2Bc.gBk7Soe2sq.LcB5D_f06b.xHb846b.xHb8402Bd02uW.R2sq.LcB5D_f07Y.kBh1uAMh000001rb.811pK.g8T100006b.xHb8406b.xHb84RUB~~b31C.7pfTCkopRUB~%2Fru%2Faviabilety%2Fbordeaux-moscow_BOD-MOW%2F%3Fs%3Dtrue%230710BODMOW~.000~DQFDEPfgt4fguf01LQPiHw42913____0PCEA__E____gwquYCuYwkEmkEk___e2000a00VY700VYBasic~DEPFOGfgCsfgQ706Of3tsQ47782____0PCEA__E1___8gLuYTuYIgwwkEm___62000a00VY700VYBasic?sv=100&pax%5B0%5D=1&pax%5B1%5D=0&pax%5B2%5D=0&_k=ebtur0",
                  "title": "10 739 %rub%"
                }
              },
              "title": "Авиаперелет"
            }
          ]
        }
      ]
    }
  ],
  "about": {
    "hide": false,
    "disable": false,
    "description": "В стоимость включены международные перелеты и проживание в отелях на каждый день. Цены представлены для ознакомления, OneTwoTrip не несет ответственности за их изменение.",
    "price": {
      "cost": "от 58 011 руб",
      "description": "на одного при путешествии вдвоем"
    },
    "cities": [
      "Москва",
      "Мадрид",
      "Логроньо",
      "Бильбао",
      "Сан-Себастьян",
      "Биарриц",
      "Бордо",
      "Москва"
    ],
    "map": {
      "direction": {
        "origin": "Мадрид",
        "destination": "Бордо",
        "waypoints": [
          {
            "location": "Логроньо"
          },
          {
            "location": "Бильбао"
          },
          {
            "location": "Сан-Себастьян"
          },
          {
            "location": "Биарриц"
          },
          {
            "location": "Бордо"
          }
        ]
      }
    }
  },
  "top": {
    "image": "",
    "topText": "",
    "text": "по Испании и Франции",
    "under": "27 сентября – 7 октября"
  },
  "hideContacts": false,
  "title": "Тревел-эксперт OneTwoTrip.",
  "advices": [
    "Чтобы познакомиться с городом, можно отправиться на бесплатную пешую экскурсию. Опытные гиды показывают туристам основные достопримечательности Мадрида, сопровождая это интересными фактами и деталями. Хотя экскурсии и бесплатны, чаевые гидам только приветствуются. Проводятся туры на английском, продолжительность составляет 2 – 2,5 часа. Расписание можно посмотреть на <a target='_blank' href=\"http://www.neweuropetours.eu/madrid/en/home\">этой странице</a>.",
    "Советуем установить на телефон официальное приложение мадридского метро: <a target=\"_blank\" href='https://play.google.com/store/apps/details?id=es.metromadrid.metroandroid&hl=en'>Google Play</a> или <a target=\"_blank\" href='https://itunes.apple.com/us/app/official-metro-de-madrid-application/id481638277?mt=8'>AppStore</a>. Оно поможет вам сориентироваться в общественном транспорте.",
    "Если решите изучать Мадрид на велосипеде, обязательно <a target=\"_blank\" href='https://www.bicimad.com/index.php?s=app'> установите приложение Bicimad</a>.",
    "Многие небольшие бары и клубы часто устраивают концерты с живой музыкой по определенным дням. Например, в баре Espacio Cultural La Victoria на Calle Santa Isabel, 40 проходят бесплатные джазовые концерты каждый четверг.\n\n",
    "Блюда, которые обязательно стоит попробовать — косидо по-мадридски (мясо в горшочке с овощами), рубец по-мадридски (маринованный в уксусе говяжий желудок, тушенный несколько часов с колбасками и специями), бокадильо с жареными кальмарами, чуррос, бартолильос (жаренные во фритюре пончики с начинкой из заварного крема)."
  ],
  "blogFooter": false,
  "afterAdvices": {
    "title": "",
    "text": [
      ""
    ]
  }
}