﻿{
  "title": "Тревел-эксперт OneTwoTrip",
  "top": {
    "image": "top/tbilisi.jpg",
    "topText": [
      "ТБИЛИСИ"
    ],
    "text": "Грузия",
    "under": ""
  },
  "hideContacts": true,
  "adviceTitle": "Полезная информация",
  "blogFooter": true,
  "about": {
    "hide": "true",
    "description": "",
    "price": {
      "cost": "",
      "description": ""
    },
    "map": {
      "point": {
        "location": [
          ""
        ],
        "zoom": "7"
      },
      "poi": {
        "sight": [
          [
            41.710639,
            44.796364,
            "food",
            "Machakhela"
          ],
          [
            41.722694,
            44.777610,
            "food",
            "Machakhela"
          ],
          [
            41.688984,
            44.807749,
            "cocktail",
            "Hilltop"
          ],
          [
            41.692693,
            44.811662,
            "cocktail",
            "Flowers"
          ],
          [
            41.722905,
            44.791051,
            "cocktail",
            "Bassiani"
          ],
          [
            41.700501,
            44.802905,
            "food",
            "Zahar Zaharich"
          ],
          [
            41.689706,
            44.798773,
            "food",
            "EZO"
          ],
          [
            41.702455,
            44.792091,
            "food",
            "Pasanauri"
          ],
          [
            41.690694,
            44.807970,
            "food",
            "Organic Josper Bar"
          ],
          [
            41.707990,
            44.764384,
            "food",
            "Entrée"
          ],
          [
            41.689748,
            44.808824,
            "food",
            "Machakhela"
          ],
          [
            41.688307,
            44.811279,
            "food",
            "Sachebureke Abanotubanshi"
          ],
          [
            41.690875,
            44.801197,
            "cocktail",
            "Vino Underground"
          ],
          [
            41.692743,
            44.806868,
            "cocktail",
            "G. vino"
          ],
          [
            41.689350,
            44.806474,
            "cocktail",
            "Boogie Woogie"
          ],
          [
            41.687905,
            44.808949,
            "castle",
            "Крепость Нарикала"
          ],
          [
            41.691341,
            44.807530,
            "church",
            "Собор Сиони"
          ],
          [
            41.695509,
            44.806757,
            "church",
            "Храм Анчисхати"
          ],
          [
            41.693008,
            44.808315,
            "eye",
            "Мост Мира"
          ],
          [
            41.695460,
            44.801930,
            "monument",
            "Государственный музей искусств Грузии"
          ],
          [
            41.687000,
            44.808898,
            "children",
            "Ботанический сад"
          ],
          [
            41.709487,
            44.802917,
            "eye",
            "Fabrika"
          ],
          [
            41.695804,
            44.806532,
            "theater",
            "Театр марионеток Резо Габриадзе"
          ],
          [
            41.708438,
            44.795001,
            "monument",
            "TBC Gallery"
          ],
          [
            41.690163,
            44.811104,
            "monument",
            "Церковь Метехи"
          ]
        ],
        "hotels": [
          {
            "id": 2389162,
            "type": 14,
            "city": "Tbilisi",
            "city_iata": "TBS",
            "translated_city": "Тбилиси",
            "city_name_translated": "Тбилиси",
            "translated_name": "Hotel Piazza",
            "city_id": 611717,
            "img": "https://1b4da894acfad722fb46-08ede53a5c8850764384bc99fd6145bb.ssl.cf3.rackcdn.com/2389162/32310778_t.jpg",
            "img_s": "https://1b4da894acfad722fb46-08ede53a5c8850764384bc99fd6145bb.ssl.cf3.rackcdn.com/2389162/32310778_t.jpg",
            "img_size": "640x384",
            "img_set": null,
            "img_set_s": null,
            "name": "Hotel Piazza",
            "address": "Dusheti Street 26",
            "zip": "0102",
            "country_code": "GE",
            "stars": 3,
            "district_id": null,
            "lat": 41.69318771,
            "lng": 44.81365204,
            "construction": null,
            "renovated": null,
            "total_rooms": 12,
            "num_floors": null,
            "facilities": [
              1,
              2,
              5,
              6,
              8,
              9,
              10,
              11,
              14,
              19,
              20,
              23,
              28,
              30,
              32,
              37,
              43,
              45,
              46,
              68,
              70,
              72,
              93,
              97,
              101,
              105,
              112,
              115,
              133,
              163,
              173,
              175,
              176,
              177,
              179,
              183,
              203,
              204,
              205,
              206,
              207,
              209,
              210,
              222,
              225,
              304
            ],
            "facilitiesByRating": {
              "top": [
                [
                  1,
                  0
                ],
                [
                  2,
                  0
                ],
                [
                  3,
                  0
                ],
                [
                  5,
                  0
                ],
                [
                  6,
                  0
                ],
                [
                  8,
                  0
                ],
                [
                  9,
                  0
                ],
                [
                  10,
                  0
                ],
                [
                  11,
                  0
                ]
              ],
              "all": [
                [
                  1,
                  0
                ],
                [
                  2,
                  0
                ],
                [
                  3,
                  0
                ],
                [
                  5,
                  0
                ],
                [
                  6,
                  0
                ],
                [
                  8,
                  0
                ],
                [
                  9,
                  0
                ],
                [
                  10,
                  0
                ],
                [
                  11,
                  0
                ],
                [
                  14,
                  0
                ],
                [
                  19,
                  0
                ],
                [
                  20,
                  0
                ],
                [
                  23,
                  0
                ],
                [
                  28,
                  0
                ],
                [
                  30,
                  0
                ],
                [
                  32,
                  0
                ],
                [
                  37,
                  0
                ],
                [
                  43,
                  0
                ],
                [
                  45,
                  0
                ],
                [
                  46,
                  0
                ],
                [
                  68,
                  0
                ],
                [
                  70,
                  0
                ],
                [
                  72,
                  0
                ],
                [
                  93,
                  0
                ],
                [
                  97,
                  0
                ],
                [
                  101,
                  0
                ],
                [
                  105,
                  0
                ],
                [
                  112,
                  0
                ],
                [
                  115,
                  0
                ],
                [
                  133,
                  0
                ],
                [
                  163,
                  0
                ],
                [
                  173,
                  0
                ],
                [
                  175,
                  0
                ],
                [
                  176,
                  0
                ],
                [
                  177,
                  0
                ],
                [
                  179,
                  0
                ],
                [
                  183,
                  0
                ],
                [
                  203,
                  0
                ],
                [
                  204,
                  0
                ],
                [
                  205,
                  0
                ],
                [
                  206,
                  0
                ],
                [
                  207,
                  0
                ],
                [
                  209,
                  0
                ],
                [
                  210,
                  0
                ],
                [
                  222,
                  0
                ],
                [
                  225,
                  0
                ],
                [
                  304,
                  0
                ]
              ]
            },
            "facility": {
              "weight": 198,
              "top": [
                93,
                115
              ]
            },
            "amenities": {},
            "nearest": 0,
            "is_recommend": 0,
            "checkin": "14:00",
            "checkout": "12:00",
            "roomtypes": [],
            "chains": [],
            "themes": [],
            "tags": [],
            "ott_rank": null,
            "ott_rating": 276,
            "ta_rating": 4.6,
            "ta_reviews": 335,
            "ta": [
              4.6,
              335
            ],
            "ty_reviews": 335,
            "ty_sources": 1,
            "ty_rating": 92,
            "ty": [
              335,
              1,
              92,
              "Excellent"
            ],
            "url": "https://www.onetwotrip.com/ru/hotels/hotel/hotel-piazza-2389162?date_start=2018-02-14&date_end=2018-03-16&adults=1&children=0&children_ages=&s=true&to=Tbilisi&persons=1",
            "distance": 1.666,
            "dist_mc": 1.666,
            "seq": 100099977
          },
          {
            "id": 2880767,
            "type": 14,
            "city": "Tbilisi",
            "city_iata": "TBS",
            "translated_city": "Тбилиси",
            "city_name_translated": "Тбилиси",
            "translated_name": "Renaissance Hotel Tbilisi",
            "city_id": 611717,
            "img": "https://1b4da894acfad722fb46-08ede53a5c8850764384bc99fd6145bb.ssl.cf3.rackcdn.com/2880767/32449605_t.jpg",
            "img_s": "https://1b4da894acfad722fb46-08ede53a5c8850764384bc99fd6145bb.ssl.cf3.rackcdn.com/2880767/32449605_t.jpg",
            "img_size": "640x384",
            "img_set": null,
            "img_set_s": null,
            "name": "Renaissance Hotel Tbilisi",
            "address": "Viktor Gabiskiria Street 5",
            "zip": "0103",
            "country_code": "GE",
            "stars": 3,
            "district_id": null,
            "lat": 41.69818115,
            "lng": 44.81335449,
            "construction": null,
            "renovated": null,
            "total_rooms": 9,
            "num_floors": null,
            "facilities": [
              1,
              2,
              5,
              6,
              10,
              19,
              20,
              37,
              68,
              72,
              96,
              101,
              105,
              112,
              163,
              304
            ],
            "facilitiesByRating": {
              "top": [
                [
                  1,
                  0
                ],
                [
                  2,
                  0
                ],
                [
                  3,
                  0
                ],
                [
                  5,
                  0
                ],
                [
                  6,
                  0
                ],
                [
                  10,
                  0
                ],
                [
                  19,
                  0
                ],
                [
                  20,
                  0
                ],
                [
                  37,
                  0
                ]
              ],
              "all": [
                [
                  1,
                  0
                ],
                [
                  2,
                  0
                ],
                [
                  3,
                  0
                ],
                [
                  5,
                  0
                ],
                [
                  6,
                  0
                ],
                [
                  10,
                  0
                ],
                [
                  19,
                  0
                ],
                [
                  20,
                  0
                ],
                [
                  37,
                  0
                ],
                [
                  68,
                  0
                ],
                [
                  72,
                  0
                ],
                [
                  96,
                  0
                ],
                [
                  101,
                  0
                ],
                [
                  105,
                  0
                ],
                [
                  112,
                  0
                ],
                [
                  163,
                  0
                ],
                [
                  304,
                  0
                ]
              ]
            },
            "facility": {
              "weight": 0,
              "top": []
            },
            "amenities": {},
            "nearest": 0,
            "is_recommend": 0,
            "checkin": "14:00",
            "checkout": "12:00",
            "roomtypes": [],
            "chains": [],
            "themes": [],
            "tags": [],
            "ott_rank": null,
            "ott_rating": 276,
            "ta_rating": 4.6,
            "ta_reviews": 475,
            "ta": [
              4.6,
              475
            ],
            "ty_reviews": 475,
            "ty_sources": 1,
            "ty_rating": 92,
            "ty": [
              475,
              1,
              92,
              "Excellent"
            ],
            "url": "https://www.onetwotrip.com/ru/hotels/hotel/renaissance-hotel-tbilisi-2880767?date_start=2018-02-14&date_end=2018-03-16&adults=1&children=0&children_ages=&s=true&to=Tbilisi&persons=1",
            "distance": 1.747,
            "dist_mc": 1.747,
            "seq": 100099978
          },
          {
            "id": 3947467,
            "type": 14,
            "city": "Tbilisi",
            "city_iata": "TBS",
            "translated_city": "Тбилиси",
            "city_name_translated": "Тбилиси",
            "translated_name": "Golden Nugget Tbilisi",
            "city_id": 611717,
            "img": "https://1b4da894acfad722fb46-08ede53a5c8850764384bc99fd6145bb.ssl.cf3.rackcdn.com/3947467/32686590_t.jpg",
            "img_s": "https://1b4da894acfad722fb46-08ede53a5c8850764384bc99fd6145bb.ssl.cf3.rackcdn.com/3947467/32686590_t.jpg",
            "img_size": "640x384",
            "img_set": null,
            "img_set_s": null,
            "name": "Golden Nugget Tbilisi",
            "address": "Telenji Street 1",
            "zip": "0148",
            "country_code": "GE",
            "stars": 3,
            "district_id": null,
            "lat": 41.68902588,
            "lng": 44.84981537,
            "construction": null,
            "renovated": null,
            "total_rooms": 9,
            "num_floors": null,
            "facilities": [
              1,
              2,
              5,
              23,
              46,
              72,
              97,
              112,
              115,
              163,
              305
            ],
            "facilitiesByRating": {
              "top": [
                [
                  1,
                  0
                ],
                [
                  2,
                  0
                ],
                [
                  3,
                  0
                ],
                [
                  5,
                  0
                ],
                [
                  23,
                  0
                ],
                [
                  46,
                  0
                ],
                [
                  72,
                  0
                ],
                [
                  97,
                  0
                ],
                [
                  112,
                  0
                ]
              ],
              "all": [
                [
                  1,
                  0
                ],
                [
                  2,
                  0
                ],
                [
                  3,
                  0
                ],
                [
                  5,
                  0
                ],
                [
                  23,
                  0
                ],
                [
                  46,
                  0
                ],
                [
                  72,
                  0
                ],
                [
                  97,
                  0
                ],
                [
                  112,
                  0
                ],
                [
                  115,
                  0
                ],
                [
                  163,
                  0
                ],
                [
                  305,
                  0
                ]
              ]
            },
            "facility": {
              "weight": 93,
              "top": [
                115
              ]
            },
            "amenities": {},
            "nearest": 0,
            "is_recommend": 0,
            "checkin": "13:00",
            "checkout": "12:00",
            "roomtypes": [],
            "chains": [],
            "themes": [],
            "tags": [],
            "ott_rank": null,
            "ott_rating": 282,
            "ta_rating": 4.7,
            "ta_reviews": 99,
            "ta": [
              4.7,
              99
            ],
            "ty_reviews": 99,
            "ty_sources": 1,
            "ty_rating": 94,
            "ty": [
              99,
              1,
              94,
              "Excellent"
            ],
            "url": "https://www.onetwotrip.com/ru/hotels/hotel/golden-nugget-tbilisi-3947467?date_start=2018-02-14&date_end=2018-03-16&adults=1&children=0&children_ages=&s=true&to=Tbilisi&persons=1",
            "distance": 1.454,
            "dist_mc": 1.454,
            "seq": 100099973
          }
        ],
        "markers": []
      }
    },
    "cities": []
  },
  "og": {
    "title": "Что делать в Тбилиси",
    "description": "Тбилиси — древний культурный центр Грузии, расположенный на берегах реки Кура. Свое название город получил из-за наличия горячих источников (тбили — \"теплый\"). Здесь вас ждут узкие улочки Старого города, развалины крепостей, старинные церкви, а также современные кварталы, имеющие вполне европейский вид, уютные дворики с ажурными балконами, серные источники, ухоженные парки, вкуснейшая грузинская еда и местное вино, потрясающей красоты горы и ущелья. Скучно не будет никогда: в первый же день после приезда вы можете оказаться в гостях у местных, которые примут вас, как самого дорогого друга."
  },
  "route": [
    {
      "title": "Что делать в Тбилиси",
      "description": [
        {
          "type": "text",
          "options": "Тбилиси — древний культурный центр Грузии, расположенный на берегах реки Кура. Свое название город получил из-за наличия горячих источников (тбили — \"теплый\"). Здесь вас ждут узкие улочки Старого города, развалины крепостей, старинные церкви, а также современные кварталы, имеющие вполне европейский вид, уютные дворики с ажурными балконами, серные источники, ухоженные парки, вкуснейшая грузинская еда и местное вино, потрясающей красоты горы и ущелья. Скучно не будет никогда: в первый же день после приезда вы можете оказаться в гостях у местных, которые примут вас, как самого дорогого друга. \n"
        },
        {
          "type": "custom-photos",
          "options": {
            "ids": [
              "26609919659",
              "38330923356",
              "26609889319",
              "26609935759"
            ],
            "items": [
              {
                "id": "26609889319",
                "owner": "151640904@N03",
                "secret": "b974e702fb",
                "server": "4526",
                "farm": 5,
                "title": "sobor-sioni1-858x503",
                "ispublic": 1,
                "isfriend": 0,
                "isfamily": 0
              },
              {
                "id": "26609935759",
                "owner": "151640904@N03",
                "secret": "cdcd85a998",
                "server": "4535",
                "farm": 5,
                "title": "3-4",
                "ispublic": 1,
                "isfriend": 0,
                "isfamily": 0
              },
              {
                "id": "26609919659",
                "owner": "151640904@N03",
                "secret": "2d71d25e49",
                "server": "4524",
                "farm": 5,
                "title": "DSC_0318-1-37",
                "ispublic": 1,
                "isfriend": 0,
                "isfamily": 0
              },
              {
                "id": "38330923356",
                "owner": "151640904@N03",
                "secret": "fc15f8f075",
                "server": "4545",
                "farm": 5,
                "title": "mostmira1",
                "ispublic": 1,
                "isfriend": 0,
                "isfamily": 0
              }
            ],
            "urls": [
              "https://farm5.staticflickr.com/4526/26609889319_b974e702fb.jpg",
              "https://farm5.staticflickr.com/4535/26609935759_cdcd85a998.jpg",
              "https://farm5.staticflickr.com/4524/26609919659_2d71d25e49.jpg",
              "https://farm5.staticflickr.com/4545/38330923356_fc15f8f075.jpg"
            ],
            "grid": [
              1,
              1,
              1,
              1
            ]
          }
        },
        {
          "type": "text",
          "options": "Ниже мы подобрали для вас оптимальные варианты размещения в Тбилиси. Так как с датами поездки вы еще не определились, цена  ориентировочная и указана за одну ночь. Чтобы посмотреть подробную информацию, нажимайте на карточки."
        },
        {
          "type": "cards",
          "options": [
            {
              "type": "hotel",
              "image": {
                "title": "Golden Nugget Tbilisi",
                "description": "★★★",
                "src": "https://himg.onetwotrip.com/i/?p=gLPXucIz1O6mD0KTDkA9GaYc9HmkUi4TE2YvncLuNkPyKzWO966xzS/hvOKiRKVDvTx8FVCkLIZBjmT5q2bDEQ=="
              },
              "price": {
                "title": [
                  "Двухместный",
                  "Завтрак"
                ],
                "btn": {
                  "href": "https://www.onetwotrip.com/ru/hotels/hotel/golden-nugget-tbilisi-3947467?date_start=2018-05-22&date_end=2018-05-23&to=%25D0%25A2%25D0%25B1%25D0%25B8%25D0%25BB%25D0%25B8%25D1%2581%25D0%25B8&id=611717&type=geo&adults=2&children=0&countryName=georgia&cityName=tbilisi&s=true&referrer=google_adwords_brand&referrer_mrk=brand&country_code=GE&sc=611717",
                  "title": "2 837 %rub%"
                }
              }
            },
            {
              "type": "hotel",
              "image": {
                "title": "Renaissance Hotel Tbilisi",
                "description": "★★★",
                "src": "https://himg.onetwotrip.com/i/?p=gLPXucIz1O6mD0KTDkA9GaYc9HmkUi4TE2YvncLuNkNLNliPJgQ5pz+e6UoQM+OERcubFXSzMUMUO9t+Mv2iJw=="
              },
              "price": {
                "title": [
                  "Двухместный",
                  "Завтрак"
                ],
                "btn": {
                  "href": "https://www.onetwotrip.com/ru/hotels/hotel/renaissance-hotel-tbilisi-2880767?date_start=2018-05-22&date_end=2018-05-23&to=%25D0%25A2%25D0%25B1%25D0%25B8%25D0%25BB%25D0%25B8%25D1%2581%25D0%25B8&id=611717&type=geo&adults=2&children=0&countryName=georgia&cityName=tbilisi&s=true&referrer=google_adwords_brand&referrer_mrk=brand&country_code=GE&sc=611717",
                  "title": "2 955 %rub%"
                }
              }
            },
            {
              "type": "hotel",
              "image": {
                "title": "Hotel Piazza",
                "description": "★★★",
                "src": "https://himg.onetwotrip.com/i/?p=gLPXucIz1O6mD0KTDkA9GaYc9HmkUi4TE2YvncLuNkMRU3KiVS59WYaR0kzlogiuOCGQ9XMC3N3YxEgP5fBsNg=="
              },
              "price": {
                "title": [
                  "Двухместный",
                  "Без питания"
                ],
                "btn": {
                  "href": "https://www.onetwotrip.com/ru/hotels/hotel/hotel-piazza-2389162?date_start=2018-05-22&date_end=2018-05-23&to=%25D0%25A2%25D0%25B1%25D0%25B8%25D0%25BB%25D0%25B8%25D1%2581%25D0%25B8&id=611717&type=geo&adults=2&children=0&countryName=georgia&cityName=tbilisi&s=true&referrer=google_adwords_brand&referrer_mrk=brand&country_code=GE&sc=611717",
                  "title": "4 492 %rub%"
                }
              }
            }
          ]
        },
        {
          "type": "drop-down",
          "title": "Как добраться из аэропорта",
          "options": [
            {
              "type": "text",
              "options": "Дешевле всего добраться до города на автобусе № 37 (проезд можно оплатить наличными водителю), который курсирует с 07:00 до 23:00 каждые полчаса, а с 23:00 до 07:00 — каждые 90 минут. Остановка расположена около выхода из зала прилета."
            },
            {
              "type": "text",
              "options": "Аэропорт находится всего в 15 км от города, поэтому самый комфортный вариант добраться до отеля — на такси. Дешевле всего заказывать машину через сервис \"Яндекс такси\".\n\n"
            }
          ]
        },
        {
          "type": "drop-down",
          "title": "Что смотреть",
          "options": [
            {
              "type": "custom-photos",
              "options": {
                "ids": [
                  "38330891636",
                  "26609890159",
                  "37671194364",
                  "38331035826"
                ],
                "items": [
                  {
                    "id": "38330891636",
                    "owner": "151640904@N03",
                    "secret": "71c8739fd6",
                    "server": "4547",
                    "farm": 5,
                    "title": "Narikala,_Tiflis,_Georgia,_2016-09-29,_DD_91",
                    "ispublic": 1,
                    "isfriend": 0,
                    "isfamily": 0
                  },
                  {
                    "id": "26609890159",
                    "owner": "151640904@N03",
                    "secret": "c1997c4e6a",
                    "server": "4557",
                    "farm": 5,
                    "title": "anchisxati",
                    "ispublic": 1,
                    "isfriend": 0,
                    "isfamily": 0
                  },
                  {
                    "id": "37671194364",
                    "owner": "151640904@N03",
                    "secret": "4db34bdc03",
                    "server": "4573",
                    "farm": 5,
                    "title": "AD_DBjJbFaQ",
                    "ispublic": 1,
                    "isfriend": 0,
                    "isfamily": 0
                  },
                  {
                    "id": "38331035826",
                    "owner": "151640904@N03",
                    "secret": "bc222a7b7a",
                    "server": "4523",
                    "farm": 5,
                    "title": "fabrika-yard",
                    "ispublic": 1,
                    "isfriend": 0,
                    "isfamily": 0
                  }
                ],
                "urls": [
                  "https://farm5.staticflickr.com/4547/38330891636_71c8739fd6.jpg",
                  "https://farm5.staticflickr.com/4557/26609890159_c1997c4e6a.jpg",
                  "https://farm5.staticflickr.com/4573/37671194364_4db34bdc03.jpg",
                  "https://farm5.staticflickr.com/4523/38331035826_bc222a7b7a.jpg"
                ],
                "grid": [
                  1,
                  1,
                  1,
                  1
                ]
              }
            },
            {
              "type": "title",
              "options": "Старый город"
            },
            {
              "type": "text",
              "options": "Знакомство с Тбилиси рекомендуем начать именно отсюда. Старый город — это те границы, в которых город существовал до присоединения Грузии к России. Однако фактическую древность не стоит преувеличивать, так как в 1795 году он был сожжен иранцами. Кроме того, в Тбилиси дома долго не стоят — сказывается неустойчивый грунт и регулярные землетрясения. "
            },
            {
              "type": "text",
              "options": "Помимо общей атмосферы умиротворенности, здесь вас ждут собор Сиони (исторически это главный храм Тбилиси), крепость Нарикала (целый комплекс защитных сооружений разных веков), храм Анчисхати, армянские церкви, три синагоги и мечеть. У подножья Нарикалы находится парк Рике с прекрасным поющим фонтаном и мостом Мира (особенно красиво выглядит вечером). Из парка до крепости можно подняться на фуникулере."
            },
            {
              "type": "title",
              "options": "Государственный музей искусств Грузии"
            },
            {
              "type": "text",
              "options": "Музей с огромной коллекцией (около 140 000 единиц) произведений грузинского, русского, европейского и азиатского искусства. Время работы: 10:00 - 18:00 (Вт-Вс), понедельник — выходной."
            },
            {
              "type": "text",
              "options": "Адрес: Gudiashvilis 1."
            },
            {
              "type": "title",
              "options": "Ботанический сад"
            },
            {
              "type": "text",
              "options": "Это огромный экзотический сад с разнообразными растениями из Грузии и всего мира. На территории также есть красивый и достаточно высокий водопад. Время работы: ежедневно с 09:00 до 18:00."
            },
            {
              "type": "text",
              "options": "Адрес: Botanikuri Street 1."
            },
            {
              "type": "title",
              "options": "Fabrika"
            },
            {
              "type": "text",
              "options": "Относительно новый и очень популярный комплекс, расположившийся на нескольких сотнях квадратных метров бывшей фабрики. Здесь вы найдете многочисленные дизайнерские магазинчики, бары и кафе."
            },
            {
              "type": "text",
              "options": "Адрес: 8 Egnate Ninoshvili."
            },
            {
              "type": "custom-photos",
              "options": {
                "ids": [
                  "38355711442",
                  "38331035486",
                  "38356008642",
                  "24515913678"
                ],
                "items": [
                  {
                    "id": "38355711442",
                    "owner": "151640904@N03",
                    "secret": "a15cdb7733",
                    "server": "4515",
                    "farm": 5,
                    "title": "met",
                    "ispublic": 1,
                    "isfriend": 0,
                    "isfamily": 0
                  },
                  {
                    "id": "38331035486",
                    "owner": "151640904@N03",
                    "secret": "b8150b45cc",
                    "server": "4542",
                    "farm": 5,
                    "title": "sernye-bani-v-tbilisi-protivopokazaniya-i-poleznye-svojstva",
                    "ispublic": 1,
                    "isfriend": 0,
                    "isfamily": 0
                  },
                  {
                    "id": "38356008642",
                    "owner": "151640904@N03",
                    "secret": "01fa44ae4d",
                    "server": "4581",
                    "farm": 5,
                    "title": "JOHN_DODELANDE_",
                    "ispublic": 1,
                    "isfriend": 0,
                    "isfamily": 0
                  },
                  {
                    "id": "24515913678",
                    "owner": "151640904@N03",
                    "secret": "05bdc09bc8",
                    "server": "4577",
                    "farm": 5,
                    "title": "Teatr_marionetok_Rezo_Gabriadze_5",
                    "ispublic": 1,
                    "isfriend": 0,
                    "isfamily": 0
                  }
                ],
                "urls": [
                  "https://farm5.staticflickr.com/4515/38355711442_a15cdb7733.jpg",
                  "https://farm5.staticflickr.com/4542/38331035486_b8150b45cc.jpg",
                  "https://farm5.staticflickr.com/4581/38356008642_01fa44ae4d.jpg",
                  "https://farm5.staticflickr.com/4577/24515913678_05bdc09bc8.jpg"
                ],
                "grid": [
                  1,
                  1,
                  1,
                  1
                ]
              }
            },
            {
              "type": "title",
              "options": "Храм Метехи"
            },
            {
              "type": "text",
              "options": "Одна из основных достопримечательностей Тбилиси. Церковь очень живописно расположена на скале, отвесно обрывающейся к Куре. Это одно из немногих зданий, переживших разрушение города иранцами в конце XVIII века."
            },
            {
              "type": "text",
              "options": "Адрес: Metekhi St."
            },
            {
              "type": "title",
              "options": "Серные бани"
            },
            {
              "type": "text",
              "options": "Это целый квартал в центре Тбилиси, известный своим комплексом бань, стоящих на естественных сернистых источниках. Стандартная комната-парилка, которую можно снять, включает в себя ванную с серной водой, ледяную купель, душ и лежаки. Мы советуем Баню №5 — её только что отремонтировали."
            },
            {
              "type": "text",
              "options": "Адрес: Abano St."
            },
            {
              "type": "title",
              "options": "TBC Gallery"
            },
            {
              "type": "text",
              "options": "В этой арт-галерее проходят выставки современного искусства, презентации книг, фотовернисажи на острые темы, церемонии награждения различных премий, фестивали – в афише всегда можно найти <a target='_blank' href=\"https://www.facebook.com/tbcartgallery/\">что-то по душе</a>. Время работы: 12:00 - 20:00 (Пн-Пт), 12:00 - 14:00 (Сб), воскресенье — выходной."
            },
            {
              "type": "text",
              "options": "Адрес: Marjanishvili 7."
            },
            {
              "type": "title",
              "options": "Театр марионеток Резо Габриадзе"
            },
            {
              "type": "text",
              "options": "Одно из самых душевных мест города. Здесь показывают 5-6 кукольных спектаклей в месяц (в том числе и на русском языке) – невероятно мудрых и тонких. Если вы будете в городе во время представления — постарайтесь взять билеты (делать это лучше заранее). Ознакомиться с афишей можно на <a target='_blank' href=\"http://gabriadze.com/\">этой странице</a>."
            },
            {
              "type": "text",
              "options": "Адрес: Shavteli 26."
            }
          ]
        },
        {
          "type": "drop-down",
          "title": "Где поесть",
          "options": [
            {
              "type": "custom-photos",
              "options": {
                "ids": [
                  "24513386248",
                  "38353722312",
                  "24513325168",
                  "24513323568"
                ],
                "items": [
                  {
                    "id": "24513325168",
                    "owner": "151640904@N03",
                    "secret": "bb79830ec8",
                    "server": "4559",
                    "farm": 5,
                    "title": "ezo",
                    "ispublic": 1,
                    "isfriend": 0,
                    "isfamily": 0
                  },
                  {
                    "id": "24513323568",
                    "owner": "151640904@N03",
                    "secret": "9ac922ee2a",
                    "server": "4522",
                    "farm": 5,
                    "title": "Bp1Mm5FIYAA_4TH",
                    "ispublic": 1,
                    "isfriend": 0,
                    "isfamily": 0
                  },
                  {
                    "id": "38353722312",
                    "owner": "151640904@N03",
                    "secret": "298bac6cf2",
                    "server": "4522",
                    "farm": 5,
                    "title": "143255",
                    "ispublic": 1,
                    "isfriend": 0,
                    "isfamily": 0
                  },
                  {
                    "id": "24513386248",
                    "owner": "151640904@N03",
                    "secret": "1b129999b7",
                    "server": "4584",
                    "farm": 5,
                    "title": "7801571718_3cfd345117_c",
                    "ispublic": 1,
                    "isfriend": 0,
                    "isfamily": 0
                  }
                ],
                "urls": [
                  "https://farm5.staticflickr.com/4559/24513325168_bb79830ec8.jpg",
                  "https://farm5.staticflickr.com/4522/24513323568_9ac922ee2a.jpg",
                  "https://farm5.staticflickr.com/4522/38353722312_298bac6cf2.jpg",
                  "https://farm5.staticflickr.com/4584/24513386248_1b129999b7.jpg"
                ],
                "grid": [
                  1,
                  1,
                  1,
                  1
                ]
              }
            },
            {
              "type": "title",
              "options": " Zahar Zaharich"
            },
            {
              "type": "text",
              "options": "Отличный грузинский ресторан с большим выбором. Здесь можно попробовать «горные» хинкали, которые сильно отличаются по вкусу от тех, что предлагают в других местах. Также обязательно попробуйте местный шашлык."
            },
            {
              "type": "text",
              "options": "Адрес: Right Bank 3| Mshrali Bridge."
            },
            {
              "type": "title",
              "options": "EZO"
            },
            {
              "type": "text",
              "options": "Уютный ресторанчик современной грузинской кухни в одном из дворов Старого города. Здесь внимательно подходят к выбору поставщиков и работают только с небольшими фермерскими хозяйствами и винодельнями."
            },
            {
              "type": "text",
              "options": "Адрес: 16 G.Kikodze."
            },
            {
              "type": "title",
              "options": " Pasanauri "
            },
            {
              "type": "text",
              "options": "В этот демократичный ресторанчик стоит отправиться за вкусными хинкали."
            },
            {
              "type": "text",
              "options": "Адрес: 37/46 Griboedovi."
            },
            {
              "type": "title",
              "options": "Organic Josper Bar"
            },
            {
              "type": "text",
              "options": "Отличный ресторан с современным интерьером, потрясающими стейками, бургерами и отменным вином. Заведение позиционирует себя как органик-бар с исключительно натуральными продуктами. Цены выше средних по Тбилиси."
            },
            {
              "type": "text",
              "options": "Адрес: Bambis Rigi 12."
            },
            {
              "type": "title",
              "options": "Entrée"
            },
            {
              "type": "text",
              "options": "Это целая сеть французских булочных, где вы всегда найдете разнообразную выпечку, сэндвичи, вкуснейшие пирожные и свежие багеты. Место отлично подходит для завтрака. "
            },
            {
              "type": "text",
              "options": "Адрес: Taktakishvili 13."
            },
            {
              "type": "title",
              "options": "Machakhela"
            },
            {
              "type": "text",
              "options": "Сеть хачапурных, где можно попробовать все возможные вариации этого блюда: мегрельский, мегрельский по-королевски, где больше сыра чем теста, ачму, имеретинский, аджарский с яйцом и маслом. Цены невысокие."
            },
            {
              "type": "text",
              "options": "Адрес: Tumaniani 23; 77 Merab Kostava; 106 Davit Aghmashenebeli Ave."
            },
            {
              "type": "title",
              "options": "Sachebureke Abanotubanshi"
            },
            {
              "type": "text",
              "options": "В этом демократичном кафе, удобно расположенном в Старом городе, можно попробовать вкуснейшие чебуреки с разными начинками или взять хачапури по-аджарски."
            },
            {
              "type": "text",
              "options": "Адрес: Grishashvili 8."
            }
          ]
        },
        {
          "type": "drop-down",
          "title": "Куда сходить вечером",
          "options": [
            {
              "type": "custom-photos",
              "options": {
                "ids": [
                  "38384516461",
                  "38384516191",
                  "38384516591",
                  "38329538336"
                ],
                "items": [
                  {
                    "id": "38384516591",
                    "owner": "151640904@N03",
                    "secret": "9c255d73e7",
                    "server": "4579",
                    "farm": 5,
                    "title": "g.vino-wine-bar-Tbilisi",
                    "ispublic": 1,
                    "isfriend": 0,
                    "isfamily": 0
                  },
                  {
                    "id": "38384516191",
                    "owner": "151640904@N03",
                    "secret": "d667780ccc",
                    "server": "4582",
                    "farm": 5,
                    "title": "image",
                    "ispublic": 1,
                    "isfriend": 0,
                    "isfamily": 0
                  },
                  {
                    "id": "38384516461",
                    "owner": "151640904@N03",
                    "secret": "2f4522ff22",
                    "server": "4527",
                    "farm": 5,
                    "title": "vino-underground",
                    "ispublic": 1,
                    "isfriend": 0,
                    "isfamily": 0
                  },
                  {
                    "id": "38329538336",
                    "owner": "151640904@N03",
                    "secret": "f672e171a4",
                    "server": "4518",
                    "farm": 5,
                    "title": "bcrdgfvlkvcpvkligeidpfobppnv",
                    "ispublic": 1,
                    "isfriend": 0,
                    "isfamily": 0
                  }
                ],
                "urls": [
                  "https://farm5.staticflickr.com/4579/38384516591_9c255d73e7.jpg",
                  "https://farm5.staticflickr.com/4582/38384516191_d667780ccc.jpg",
                  "https://farm5.staticflickr.com/4527/38384516461_2f4522ff22.jpg",
                  "https://farm5.staticflickr.com/4518/38329538336_f672e171a4.jpg"
                ],
                "grid": [
                  1,
                  1,
                  1,
                  1
                ]
              }
            },
            {
              "type": "title",
              "options": "Vino Underground"
            },
            {
              "type": "text",
              "options": "Винный бар с огромным выбором, который местные называют одним из лучших заведений города. Кроме того, здесь можно купить вино и с собой."
            },
            {
              "type": "text",
              "options": "Адрес: Galaktion Tabidze 15."
            },
            {
              "type": "title",
              "options": "G. vino"
            },
            {
              "type": "text",
              "options": "Винный бар с прекрасным набором закусок — так называемыми грузинскими тапасами (здесь подают «крошки-хинкали», которые по размеру ближе к пельменям). Предлагают редкие сорта из местных небольших виноделен – остановиться невозможно!"
            },
            {
              "type": "text",
              "options": "Адрес: Erekle II St. 6."
            },
            {
              "type": "title",
              "options": "Boogie Woogie"
            },
            {
              "type": "text",
              "options": "Бар с открытой террасой на крыше, откуда открывается потрясающий вид на Старый город. Коктейли подаются в пробирках. "
            },
            {
              "type": "text",
              "options": "Адрес: Betlemi St. 13."
            },
            {
              "type": "title",
              "options": "Hilltop"
            },
            {
              "type": "text",
              "options": "Кафе открылось год назад. Тут вы вряд ли встретите много туристов. Из кафе открывается прекрасный вид на город, кроме того, тут собираются местные художники, музыканты, по вечерам бывают интересные мероприятия. Очень советуем к посещению, чтобы увидеть реальную жизнь и персонажей современного Тбилиси."
            },
            {
              "type": "text",
              "options": "Адрес: Betlemi st. 27."
            },
            {
              "type": "title",
              "options": "Flowers"
            },
            {
              "type": "text",
              "options": "Кафе с грузинской и европейской кухней. Цены немного выше среднего, зато с веранды открывается впечатляющий вид на старый город Тбилиси."
            },
            {
              "type": "text",
              "options": "Адрес: 1 D. Megreli."
            },
            {
              "type": "title",
              "options": "Bassiani"
            },
            {
              "type": "text",
              "options": "Огромный клуб в стиле андеграунд, расположившийся под трибунами стадиона. Он придется по душе всем любителям электронной музыки. Актуальную информацию о предстоящих событиях можно узнать на <a target='_blank' href=\"https://bassiani.com/\">этой странице</a>."
            },
            {
              "type": "text",
              "options": "Адрес: 2 Akaki Tsereteli Ave."
            }
          ]
        },
        {
          "type": "drop-down",
          "title": "Окрестности Тбилиси",
          "options": [
            {
              "type": "custom-photos",
              "options": {
                "ids": [
                  "40260155331",
                  "38449781010",
                  "40260154641",
                  "39548874274"
                ],
                "items": [
                  {
                    "id": "40260155331",
                    "owner": "151640904@N03",
                    "secret": "d50de40198",
                    "server": "4752",
                    "farm": 5,
                    "title": "Mtsheta-858x570",
                    "ispublic": 1,
                    "isfriend": 0,
                    "isfamily": 0
                  },
                  {
                    "id": "38449781010",
                    "owner": "151640904@N03",
                    "secret": "7a8c058117",
                    "server": "4611",
                    "farm": 5,
                    "title": "domshato",
                    "ispublic": 1,
                    "isfriend": 0,
                    "isfamily": 0
                  },
                  {
                    "id": "40260154641",
                    "owner": "151640904@N03",
                    "secret": "7af92a5423",
                    "server": "4702",
                    "farm": 5,
                    "title": "gallery_file_2001_b",
                    "ispublic": 1,
                    "isfriend": 0,
                    "isfamily": 0
                  },
                  {
                    "id": "39548874274",
                    "owner": "151640904@N03",
                    "secret": "a77fb7f192",
                    "server": "4666",
                    "farm": 5,
                    "title": "36466_800x600_monastyr-betaniya",
                    "ispublic": 1,
                    "isfriend": 0,
                    "isfamily": 0
                  }
                ],
                "urls": [
                  "https://farm5.staticflickr.com/4752/40260155331_d50de40198.jpg",
                  "https://farm5.staticflickr.com/4611/38449781010_7a8c058117.jpg",
                  "https://farm5.staticflickr.com/4702/40260154641_7af92a5423.jpg",
                  "https://farm5.staticflickr.com/4666/39548874274_a77fb7f192.jpg"
                ],
                "grid": [
                  1,
                  1,
                  1,
                  1
                ]
              }
            },
            {
              "type": "title",
              "options": "Мцхета"
            },
            {
              "type": "text",
              "options": "Это древнейший город Грузии, основанный в 5-м веке до н.э. и расположенный в живописном месте, у слияния рек Арагви и Куры. Здесь много всего интересного, а из Тбилиси добираться очень быстро и удобно. Так, поездка на маршрутке (ходит от станции Дидубе) займет около 20 минут."
            },
            {
              "type": "text",
              "options": "Три главных объекта в Мцхете — Собор Светицховели (первый и главный храм в Грузии, основанный в IV в.), храм Самтавро и крепость Бебрисцихе. "
            },
            {
              "type": "title",
              "options": "Село Мухрани"
            },
            {
              "type": "text",
              "options": "В селе находятся винзавод \"Шато-Мухрани\", замок князей Багратион-Мухранских и поздняя усадьба, построенная в XVI веке. А Мухранская крепость является одной из самых больших средневековых крепостей Грузии. Добраться до Мухрани можно на маршрутке приблизительно за 2 лари. Очень рекомендуем сюда съездить, так как это неплохая возможность совершить короткий винный тур всего за полдня."
            },
            {
              "type": "text",
              "options": "Шато-Мухрани интересен сразу по нескольким причинам. В настоящее время здесь производят 13 сортов вин и чачу. А белое вино \"Горули мцване\" больше нигде промышленно не производится. Можно заказать экскурсию с дегустацией (есть русскоговорящий гид). Здесь же вы увидите редкий для Грузии мускат. Винзаводу принадлежит усадьба Багратион-Мухранских, парк и конюшня, в которой можно заказать конную прогулку.  "
            },
            {
              "type": "title",
              "options": "Тбилисское море"
            },
            {
              "type": "text",
              "options": "Представляет собой водохранилище, созданное путем затопления водами реки Иори трёх горько-солёных озёр. Тбилисское море — это самое большое озеро в окрестностях Тбилиси (здесь даже есть яхт-клуб). Оно очень живописное, а берега в основном скальные. До южной части озера можно добраться только на своем транспорте, а вот до северной вполне можно доехать на маршрутке от станции Грмагеле."
            },
            {
              "type": "title",
              "options": "Монастырь Бетания"
            },
            {
              "type": "text",
              "options": "Монастырь относится к Мцхето-Тбилисской епархии, был основан в годы правления царицы Тамары в глубоком и глухом ущелье реки Вера. Расположен на небольшом расстоянии от Тбилиси, но труднодоступен (вам нужно будет долго спускаться пешком в ущелье реки)."
            },
            {
              "type": "text",
              "options": "В случае с Бетанией, дорога может оказаться едва ли не интереснее, чем сам монастырь. Общественный транспорт сюда не ходит, поэтому вам надо будет доехать на автобусе № 106 до Коджори, а затем еще несколько километров автостопом до указателя \"Бетания 6,7 км.\" Отсюда отходит гравийная дорога, по которой вам нужно будет пройти вниз около 7 км. Но дорога очень красива\n — вы увидите безлюдное ущелье, крутые обрывы и горные леса. Если вы возьмете в аренду автомобиль, вам будет несколько проще (правда, лучше брать джип, так как на легковой машине здесь не проехать)."
            }
          ]
        }
      ]
    }
  ],
  "advices": [
    "Начать знакомство с городом можно в составе бесплатной пешей экскурсии от местных. Продолжительность — 3 часа, проводится на английском и русском языках. Стартуют ежедневно в 11:00 и 18:00. Подробную информацию можно посмотреть на <a target='_blank' href=\"https://www.likealocalguide.com/tbilisi/tours/free-tbilisi-tour-by-foot?utm_campaign=marketplace_click&utm_medium=tours_page_normal&utm_source=tbilisi&utm_content=walking-tours\">этой странице</a>.",
    "Грузинская кухня потрясающе вкусная. Из традиционных блюд обязательно пробуйте харчо, хачапури, цыпленка табака, сациви, лобио, хинкали, чахохбили (рагу из птицы), чанахи (тушеная в глиняном горшочке баранина с овощами), местные сыры, лобиани (пирог с начинкой из вареной фасоли).",
    "Во всех местных лавочках нужно торговаться – даже если указана цена.",
    "Местная валюта — лари (приблизительно 23 рубля).",
    "В городе есть метро, которое состоит из двух линий. Для пользования надо купить в кассе транспортную карту и положить на неё определённую сумму денег (действует по принципу нашей \"тройки\"). Одна карта стоит два лари. Ей можно расплачиваться также в автобусах, маршрутных такси и фуникулере.",
    "В Тбилиси огромное количество винотек, которые в большинстве своем располагаются в Старом городе. Мы рекомендуем зайти в следующие — Vinotheca (адрес: Leselidze 31), здесь при покупке вам бесплатно нальют рюмку чачи, Wine Gallery (адрес: Tsinamdzgvrishvli 39), Georgian Wine Center (адрес: Baratashvili 1) и настоящий винный погреб Vino Underground (адрес: Galaktion Tabidze 15). Везде можно попросить сначала попробовать."
  ],
  "afterAdvices": {
    "title": "",
    "text": []
  }
}
