﻿{
  "title": "Тревел-эксперт OneTwoTrip",
  "top": {
    "image": "top/tbilisi.jpg",
    "topText": [
      "ТБИЛИСИ"
    ],
    "text": "Грузия",
    "under": ""
  },
  "hideContacts": true,
  "adviceTitle": "Полезная информация",
  "blogFooter": true,
  "about": {
    "hide": "true",
    "description": "",
    "price": {
      "cost": "",
      "description": ""
    },
    "map": {
      "point": {
        "location": [
          ""
        ],
        "zoom": "7"
      },
      "poi": {
        "sight": [
          [
            41.710639,
            44.796364,
            "food",
            "Machakhela"
          ],
          [
            41.722694,
            44.777610,
            "food",
            "Machakhela"
          ],
          [
            41.688984,
            44.807749,
            "cocktail",
            "Hilltop"
          ],
          [
            41.692693,
            44.811662,
            "cocktail",
            "Flowers"
          ],
          [
            41.722905,
            44.791051,
            "cocktail",
            "Bassiani"
          ],
          [
            41.700501,
            44.802905,
            "food",
            "Zahar Zaharich"
          ],
          [
            41.689706,
            44.798773,
            "food",
            "EZO"
          ],
          [
            41.702455,
            44.792091,
            "food",
            "Pasanauri"
          ],
          [
            41.690694,
            44.807970,
            "food",
            "Organic Josper Bar"
          ],
          [
            41.707990,
            44.764384,
            "food",
            "Entrée"
          ],
          [
            41.689748,
            44.808824,
            "food",
            "Machakhela"
          ],
          [
            41.688307,
            44.811279,
            "food",
            "Sachebureke Abanotubanshi"
          ],
          [
            41.690875,
            44.801197,
            "cocktail",
            "Vino Underground"
          ],
          [
            41.692743,
            44.806868,
            "cocktail",
            "G. vino"
          ],
          [
            41.689350,
            44.806474,
            "cocktail",
            "Boogie Woogie"
          ],
          [
            41.687905,
            44.808949,
            "castle",
            "Крепость Нарикала"
          ],
          [
            41.691341,
            44.807530,
            "church",
            "Собор Сиони"
          ],
          [
            41.695509,
            44.806757,
            "church",
            "Храм Анчисхати"
          ],
          [
            41.693008,
            44.808315,
            "eye",
            "Мост Мира"
          ],
          [
            41.695460,
            44.801930,
            "monument",
            "Государственный музей искусств Грузии"
          ],
          [
            41.687000,
            44.808898,
            "children",
            "Ботанический сад"
          ],
          [
            41.709487,
            44.802917,
            "eye",
            "Fabrika"
          ],
          [
            41.695804,
            44.806532,
            "theater",
            "Театр марионеток Резо Габриадзе"
          ],
          [
            41.708438,
            44.795001,
            "monument",
            "TBC Gallery"
          ],
          [
            41.690163,
            44.811104,
            "monument",
            "Церковь Метехи"
          ]
        ],
        "hotels": [],
        "markers": []
      }
    },
    "cities": []
  },
  "og": {
    "title": "Что делать в Тбилиси",
    "description": "Тбилиси — древний культурный центр Грузии, расположенный на берегах реки Кура. Своё название город получил из-за наличия горячих источников (тбили — \"тёплый\"). Здесь вас ждут узкие улочки Старого города, развалины крепостей, старинные церкви, а также современные кварталы, имеющие вполне европейский вид, уютные дворики с ажурными балконами, серные источники, ухоженные парки, вкуснейшая грузинская еда и местное вино, потрясающей красоты горы и ущелья. Скучно не будет никогда: в первый же день после приезда вы можете оказаться в гостях у местных, которые примут вас как самого дорогого друга."
  },
  "route": [
    {
      "title": "Что делать в Тбилиси",
      "description": [
        {
          "type": "text",
          "options": "Тбилиси — древний культурный центр Грузии, расположенный на берегах реки Кура. Своё название город получил из-за наличия горячих источников (тбили — \"тёплый\"). Здесь вас ждут узкие улочки Старого города, развалины крепостей, старинные церкви, а также современные кварталы, имеющие вполне европейский вид, уютные дворики с ажурными балконами, серные источники, ухоженные парки, вкуснейшая грузинская еда и местное вино, потрясающей красоты горы и ущелья. Скучно не будет никогда: в первый же день после приезда вы можете оказаться в гостях у местных, которые примут вас как самого дорогого друга. \n"
        },
        {
          "type": "custom-photos",
          "options": {
            "ids": [
              "26609919659",
              "38330923356",
              "26609889319",
              "26609935759"
            ],
            "items": [
              {
                "id": "26609889319",
                "owner": "151640904@N03",
                "secret": "b974e702fb",
                "server": "4526",
                "farm": 5,
                "title": "sobor-sioni1-858x503",
                "ispublic": 1,
                "isfriend": 0,
                "isfamily": 0
              },
              {
                "id": "26609935759",
                "owner": "151640904@N03",
                "secret": "cdcd85a998",
                "server": "4535",
                "farm": 5,
                "title": "3-4",
                "ispublic": 1,
                "isfriend": 0,
                "isfamily": 0
              },
              {
                "id": "26609919659",
                "owner": "151640904@N03",
                "secret": "2d71d25e49",
                "server": "4524",
                "farm": 5,
                "title": "DSC_0318-1-37",
                "ispublic": 1,
                "isfriend": 0,
                "isfamily": 0
              },
              {
                "id": "38330923356",
                "owner": "151640904@N03",
                "secret": "fc15f8f075",
                "server": "4545",
                "farm": 5,
                "title": "mostmira1",
                "ispublic": 1,
                "isfriend": 0,
                "isfamily": 0
              }
            ],
            "urls": [
              "https://farm5.staticflickr.com/4526/26609889319_b974e702fb.jpg",
              "https://farm5.staticflickr.com/4535/26609935759_cdcd85a998.jpg",
              "https://farm5.staticflickr.com/4524/26609919659_2d71d25e49.jpg",
              "https://farm5.staticflickr.com/4545/38330923356_fc15f8f075.jpg"
            ],
            "grid": [
              1,
              1,
              1,
              1
            ]
          }
        },
        {
          "type": "drop-down",
          "title": "Как добраться из аэропорта",
          "options": [
            {
              "type": "text",
              "options": "Дешевле всего добраться до города на автобусе № 37 (проезд можно оплатить наличными водителю), который курсирует с 07:00 до 23:00 каждые полчаса, а с 23:00 до 07:00 — каждые 90 минут. Остановка расположена около выхода из зала прилёта."
            },
            {
              "type": "text",
              "options": "Аэропорт находится всего в 15 км от города, поэтому самый комфортный вариант добраться до отеля — на такси. Дешевле всего заказывать машину через сервис \"Яндекс такси\".\n\n"
            }
          ]
        },
        {
          "type": "drop-down",
          "title": "Что смотреть",
          "options": [
            {
              "type": "custom-photos",
              "options": {
                "ids": [
                  "38330891636",
                  "26609890159",
                  "37671194364",
                  "38331035826"
                ],
                "items": [
                  {
                    "id": "38330891636",
                    "owner": "151640904@N03",
                    "secret": "71c8739fd6",
                    "server": "4547",
                    "farm": 5,
                    "title": "Narikala,_Tiflis,_Georgia,_2016-09-29,_DD_91",
                    "ispublic": 1,
                    "isfriend": 0,
                    "isfamily": 0
                  },
                  {
                    "id": "26609890159",
                    "owner": "151640904@N03",
                    "secret": "c1997c4e6a",
                    "server": "4557",
                    "farm": 5,
                    "title": "anchisxati",
                    "ispublic": 1,
                    "isfriend": 0,
                    "isfamily": 0
                  },
                  {
                    "id": "37671194364",
                    "owner": "151640904@N03",
                    "secret": "4db34bdc03",
                    "server": "4573",
                    "farm": 5,
                    "title": "AD_DBjJbFaQ",
                    "ispublic": 1,
                    "isfriend": 0,
                    "isfamily": 0
                  },
                  {
                    "id": "38331035826",
                    "owner": "151640904@N03",
                    "secret": "bc222a7b7a",
                    "server": "4523",
                    "farm": 5,
                    "title": "fabrika-yard",
                    "ispublic": 1,
                    "isfriend": 0,
                    "isfamily": 0
                  }
                ],
                "urls": [
                  "https://farm5.staticflickr.com/4547/38330891636_71c8739fd6.jpg",
                  "https://farm5.staticflickr.com/4557/26609890159_c1997c4e6a.jpg",
                  "https://farm5.staticflickr.com/4573/37671194364_4db34bdc03.jpg",
                  "https://farm5.staticflickr.com/4523/38331035826_bc222a7b7a.jpg"
                ],
                "grid": [
                  1,
                  1,
                  1,
                  1
                ]
              }
            },
            {
              "type": "title",
              "options": "Старый город"
            },
            {
              "type": "text",
              "options": "Знакомство с Тбилиси рекомендуем начать именно отсюда. Старый город — это те границы, в которых город существовал до присоединения Грузии к России. Однако фактическую древность не стоит преувеличивать, так как в 1795 году он был сожжен иранцами. Кроме того, в Тбилиси дома долго не стоят — сказывается неустойчивый грунт и регулярные землетрясения. "
            },
            {
              "type": "text",
              "options": "Помимо общей атмосферы умиротворённости, здесь вас ждут собор Сиони (исторически это главный храм Тбилиси), крепость Нарикала (целый комплекс защитных сооружений разных веков), храм Анчисхати, армянские церкви, три синагоги и мечеть. У подножья Нарикалы находится парк Рике с прекрасным поющим фонтаном и мостом Мира (особенно красиво выглядит вечером). Из парка до крепости можно подняться на фуникулёре."
            },
            {
              "type": "title",
              "options": "Государственный музей искусств Грузии"
            },
            {
              "type": "text",
              "options": "Музей с огромной коллекцией (около 140 000 единиц) произведений грузинского, русского, европейского и азиатского искусства. Время работы: 10:00 - 18:00 (Вт-Вс), понедельник — выходной."
            },
            {
              "type": "text",
              "options": "Адрес: Gudiashvilis, 1."
            },
            {
              "type": "title",
              "options": "Ботанический сад"
            },
            {
              "type": "text",
              "options": "Это огромный экзотический сад с разнообразными растениями из Грузии и со всего мира. На территории также есть красивый и достаточно высокий водопад. Время работы: ежедневно с 09:00 до 18:00."
            },
            {
              "type": "text",
              "options": "Адрес: Botanikuri Street, 1."
            },
            {
              "type": "title",
              "options": "Fabrika"
            },
            {
              "type": "text",
              "options": "Относительно новый и очень популярный комплекс, расположившийся на нескольких сотнях квадратных метров бывшей фабрики. Здесь вы найдёте многочисленные дизайнерские магазинчики, бары и кафе."
            },
            {
              "type": "text",
              "options": "Адрес: Egnate Ninoshvili, 8."
            },
            {
              "type": "custom-photos",
              "options": {
                "ids": [
                  "38355711442",
                  "38331035486",
                  "38356008642",
                  "24515913678"
                ],
                "items": [
                  {
                    "id": "38355711442",
                    "owner": "151640904@N03",
                    "secret": "a15cdb7733",
                    "server": "4515",
                    "farm": 5,
                    "title": "met",
                    "ispublic": 1,
                    "isfriend": 0,
                    "isfamily": 0
                  },
                  {
                    "id": "38331035486",
                    "owner": "151640904@N03",
                    "secret": "b8150b45cc",
                    "server": "4542",
                    "farm": 5,
                    "title": "sernye-bani-v-tbilisi-protivopokazaniya-i-poleznye-svojstva",
                    "ispublic": 1,
                    "isfriend": 0,
                    "isfamily": 0
                  },
                  {
                    "id": "38356008642",
                    "owner": "151640904@N03",
                    "secret": "01fa44ae4d",
                    "server": "4581",
                    "farm": 5,
                    "title": "JOHN_DODELANDE_",
                    "ispublic": 1,
                    "isfriend": 0,
                    "isfamily": 0
                  },
                  {
                    "id": "24515913678",
                    "owner": "151640904@N03",
                    "secret": "05bdc09bc8",
                    "server": "4577",
                    "farm": 5,
                    "title": "Teatr_marionetok_Rezo_Gabriadze_5",
                    "ispublic": 1,
                    "isfriend": 0,
                    "isfamily": 0
                  }
                ],
                "urls": [
                  "https://farm5.staticflickr.com/4515/38355711442_a15cdb7733.jpg",
                  "https://farm5.staticflickr.com/4542/38331035486_b8150b45cc.jpg",
                  "https://farm5.staticflickr.com/4581/38356008642_01fa44ae4d.jpg",
                  "https://farm5.staticflickr.com/4577/24515913678_05bdc09bc8.jpg"
                ],
                "grid": [
                  1,
                  1,
                  1,
                  1
                ]
              }
            },
            {
              "type": "title",
              "options": "Храм Метехи"
            },
            {
              "type": "text",
              "options": "Одна из основных достопримечательностей Тбилиси. Церковь очень живописно расположена на скале, отвесно обрывающейся к Куре. Это одно из немногих зданий, переживших разрушение города иранцами в конце XVIII века."
            },
            {
              "type": "text",
              "options": "Адрес: Metekhi St."
            },
            {
              "type": "title",
              "options": "Серные бани"
            },
            {
              "type": "text",
              "options": "Это целый квартал в центре Тбилиси, известный своим комплексом бань, стоящих на естественных сернистых источниках. Стандартная комната-парилка, которую можно снять, включает в себя ванную с серной водой, ледяную купель, душ и лежаки. Мы советуем Баню №5 — её только что отремонтировали."
            },
            {
              "type": "text",
              "options": "Адрес: Abano St."
            },
            {
              "type": "title",
              "options": "TBC Gallery"
            },
            {
              "type": "text",
              "options": "В этой арт-галерее проходят выставки современного искусства, презентации книг, фотовернисажи на острые темы, церемонии награждения различных премий, фестивали – на афише всегда можно найти <a target='_blank' href=\"https://www.facebook.com/tbcartgallery/\">что-то по душе</a>. Время работы: 12:00 - 20:00 (Пн-Пт), 12:00 - 14:00 (Сб), воскресенье — выходной."
            },
            {
              "type": "text",
              "options": "Адрес: Marjanishvili, 7."
            },
            {
              "type": "title",
              "options": "Театр марионеток Резо Габриадзе"
            },
            {
              "type": "text",
              "options": "Одно из самых душевных мест города. Здесь показывают 5-6 кукольных спектаклей в месяц (в том числе и на русском языке) – невероятно мудрых и тонких. Если вы будете в городе во время представления, постарайтесь взять билеты (делать это лучше заранее). Ознакомиться с афишей можно на <a target='_blank' href=\"http://gabriadze.com/\">этой странице</a>."
            },
            {
              "type": "text",
              "options": "Адрес: Shavteli, 26."
            }
          ]
        },
        {
          "type": "drop-down",
          "title": "Где поесть",
          "options": [
            {
              "type": "custom-photos",
              "options": {
                "ids": [
                  "24513386248",
                  "38353722312",
                  "24513325168",
                  "24513323568"
                ],
                "items": [
                  {
                    "id": "24513325168",
                    "owner": "151640904@N03",
                    "secret": "bb79830ec8",
                    "server": "4559",
                    "farm": 5,
                    "title": "ezo",
                    "ispublic": 1,
                    "isfriend": 0,
                    "isfamily": 0
                  },
                  {
                    "id": "24513323568",
                    "owner": "151640904@N03",
                    "secret": "9ac922ee2a",
                    "server": "4522",
                    "farm": 5,
                    "title": "Bp1Mm5FIYAA_4TH",
                    "ispublic": 1,
                    "isfriend": 0,
                    "isfamily": 0
                  },
                  {
                    "id": "38353722312",
                    "owner": "151640904@N03",
                    "secret": "298bac6cf2",
                    "server": "4522",
                    "farm": 5,
                    "title": "143255",
                    "ispublic": 1,
                    "isfriend": 0,
                    "isfamily": 0
                  },
                  {
                    "id": "24513386248",
                    "owner": "151640904@N03",
                    "secret": "1b129999b7",
                    "server": "4584",
                    "farm": 5,
                    "title": "7801571718_3cfd345117_c",
                    "ispublic": 1,
                    "isfriend": 0,
                    "isfamily": 0
                  }
                ],
                "urls": [
                  "https://farm5.staticflickr.com/4559/24513325168_bb79830ec8.jpg",
                  "https://farm5.staticflickr.com/4522/24513323568_9ac922ee2a.jpg",
                  "https://farm5.staticflickr.com/4522/38353722312_298bac6cf2.jpg",
                  "https://farm5.staticflickr.com/4584/24513386248_1b129999b7.jpg"
                ],
                "grid": [
                  1,
                  1,
                  1,
                  1
                ]
              }
            },
            {
              "type": "title",
              "options": " Zahar Zaharich"
            },
            {
              "type": "text",
              "options": "Отличный грузинский ресторан с большим выбором. Здесь можно попробовать «горные» хинкали, которые сильно отличаются по вкусу от тех, что предлагают в других местах. Также обязательно попробуйте местный шашлык."
            },
            {
              "type": "text",
              "options": "Адрес: Right Bank, 3| Mshrali Bridge."
            },
            {
              "type": "title",
              "options": "EZO"
            },
            {
              "type": "text",
              "options": "Уютный ресторанчик современной грузинской кухни в одном из дворов Старого города. Здесь внимательно подходят к выбору поставщиков и работают только с небольшими фермерскими хозяйствами и винодельнями."
            },
            {
              "type": "text",
              "options": "Адрес: G.Kikodze, 16."
            },
            {
              "type": "title",
              "options": " Pasanauri "
            },
            {
              "type": "text",
              "options": "В этот демократичный ресторанчик стоит отправиться за вкусными хинкали."
            },
            {
              "type": "text",
              "options": "Адрес: Griboedovi, 37/46."
            },
            {
              "type": "title",
              "options": "Organic Josper Bar"
            },
            {
              "type": "text",
              "options": "Отличный ресторан с современным интерьером, потрясающими стейками, бургерами и отменным вином. Заведение позиционирует себя как органик-бар с исключительно натуральными продуктами. Цены выше средних по Тбилиси."
            },
            {
              "type": "text",
              "options": "Адрес: Bambis Rigi, 12."
            },
            {
              "type": "title",
              "options": "Entrée"
            },
            {
              "type": "text",
              "options": "Это целая сеть французских булочных, где вы всегда найдёте разнообразную выпечку, сэндвичи, вкуснейшие пирожные и свежие багеты. Место отлично подходит для завтрака. "
            },
            {
              "type": "text",
              "options": "Адрес: Taktakishvili, 13."
            },
            {
              "type": "title",
              "options": "Machakhela"
            },
            {
              "type": "text",
              "options": "Сеть хачапурных, где можно попробовать все возможные вариации этого блюда: мегрельский, мегрельский по-королевски, где больше сыра чем теста, ачму, имеретинский, аджарский с яйцом и маслом. Цены невысокие."
            },
            {
              "type": "text",
              "options": "Адрес: Tumaniani, 23; Merab Kostava, 77; Davit Aghmashenebeli Ave, 106."
            },
            {
              "type": "title",
              "options": "Sachebureke Abanotubanshi"
            },
            {
              "type": "text",
              "options": "В этом демократичном кафе, удобно расположенном в Старом городе, можно попробовать вкуснейшие чебуреки с разными начинками или взять хачапури по-аджарски."
            },
            {
              "type": "text",
              "options": "Адрес: Grishashvili, 8."
            }
          ]
        },
        {
          "type": "drop-down",
          "title": "Куда сходить вечером",
          "options": [
            {
              "type": "custom-photos",
              "options": {
                "ids": [
                  "38384516461",
                  "38384516191",
                  "38384516591",
                  "38329538336"
                ],
                "items": [
                  {
                    "id": "38384516591",
                    "owner": "151640904@N03",
                    "secret": "9c255d73e7",
                    "server": "4579",
                    "farm": 5,
                    "title": "g.vino-wine-bar-Tbilisi",
                    "ispublic": 1,
                    "isfriend": 0,
                    "isfamily": 0
                  },
                  {
                    "id": "38384516191",
                    "owner": "151640904@N03",
                    "secret": "d667780ccc",
                    "server": "4582",
                    "farm": 5,
                    "title": "image",
                    "ispublic": 1,
                    "isfriend": 0,
                    "isfamily": 0
                  },
                  {
                    "id": "38384516461",
                    "owner": "151640904@N03",
                    "secret": "2f4522ff22",
                    "server": "4527",
                    "farm": 5,
                    "title": "vino-underground",
                    "ispublic": 1,
                    "isfriend": 0,
                    "isfamily": 0
                  },
                  {
                    "id": "38329538336",
                    "owner": "151640904@N03",
                    "secret": "f672e171a4",
                    "server": "4518",
                    "farm": 5,
                    "title": "bcrdgfvlkvcpvkligeidpfobppnv",
                    "ispublic": 1,
                    "isfriend": 0,
                    "isfamily": 0
                  }
                ],
                "urls": [
                  "https://farm5.staticflickr.com/4579/38384516591_9c255d73e7.jpg",
                  "https://farm5.staticflickr.com/4582/38384516191_d667780ccc.jpg",
                  "https://farm5.staticflickr.com/4527/38384516461_2f4522ff22.jpg",
                  "https://farm5.staticflickr.com/4518/38329538336_f672e171a4.jpg"
                ],
                "grid": [
                  1,
                  1,
                  1,
                  1
                ]
              }
            },
            {
              "type": "title",
              "options": "Vino Underground"
            },
            {
              "type": "text",
              "options": "Винный бар с огромным выбором, который местные называют одним из лучших заведений города. Кроме того, здесь можно купить вино и с собой."
            },
            {
              "type": "text",
              "options": "Адрес: Galaktion Tabidze, 15."
            },
            {
              "type": "title",
              "options": "G. vino"
            },
            {
              "type": "text",
              "options": "Винный бар с прекрасным набором закусок — так называемыми грузинскими тапасами. Здесь подают «крошки-хинкали», которые по размеру ближе к пельменям. Предлагают редкие сорта из небольших местных виноделен – остановиться невозможно!"
            },
            {
              "type": "text",
              "options": "Адрес: Erekle II St., 6."
            },
            {
              "type": "title",
              "options": "Boogie Woogie"
            },
            {
              "type": "text",
              "options": "Бар с открытой террасой на крыше, откуда открывается потрясающий вид на Старый город. Коктейли подаются в пробирках. "
            },
            {
              "type": "text",
              "options": "Адрес: Betlemi St., 13."
            },
            {
              "type": "title",
              "options": "Hilltop"
            },
            {
              "type": "text",
              "options": "Кафе открылось год назад. Тут вы вряд ли встретите много туристов. Из кафе открывается прекрасный вид на город, кроме того, тут собираются местные художники, музыканты, по вечерам бывают интересные мероприятия. Очень советуем посетить, чтобы увидеть реальную жизнь и персонажей современного Тбилиси."
            },
            {
              "type": "text",
              "options": "Адрес: Betlemi st., 27."
            },
            {
              "type": "title",
              "options": "Flowers"
            },
            {
              "type": "text",
              "options": "Кафе с грузинской и европейской кухней. Цены немного выше среднего, зато с веранды открывается впечатляющий вид на старый город Тбилиси."
            },
            {
              "type": "text",
              "options": "Адрес: D. Megreli, 1."
            },
            {
              "type": "title",
              "options": "Bassiani"
            },
            {
              "type": "text",
              "options": "Огромный клуб в стиле андеграунд, расположившийся под трибунами стадиона. Он придётся по душе всем любителям электронной музыки. Актуальную информацию о предстоящих событиях можно узнать на <a target='_blank' href=\"https://bassiani.com/\">этой странице</a>."
            },
            {
              "type": "text",
              "options": "Адрес: Akaki Tsereteli Ave, 2."
            }
          ]
        }
      ]
    },
    {
      "title": "Погода в Тбилиси",
      "description": [
        {
          "type": "weather",
          "options": {
            "lat": 41.7151377,
            "lng": 44.82709599999998,
            "text": "Тбилиси, Грузия"
          }
        }
      ]
    }
  ],
  "advices": [
    "Начать знакомство с городом можно в составе бесплатной пешей экскурсии от местных. Продолжительность — 3 часа, проводится на английском и русском языках. Стартуют ежедневно в 11:00 и 18:00. Подробную информацию можно посмотреть на <a target='_blank' href=\"https://www.likealocalguide.com/tbilisi/tours/free-tbilisi-tour-by-foot?utm_campaign=marketplace_click&utm_medium=tours_page_normal&utm_source=tbilisi&utm_content=walking-tours\">этой странице</a>.",
    "Грузинская кухня потрясающе вкусная. Из традиционных блюд обязательно пробуйте харчо, хачапури, цыплёнка табака, сациви, лобио, хинкали, чахохбили (рагу из птицы), чанахи (тушёная в глиняном горшочке баранина с овощами), местные сыры, лобиани (пирог с начинкой из варёной фасоли).",
    "Во всех местных лавочках нужно торговаться – даже если указана цена.",
    "Местная валюта — лари (приблизительно 23 рубля).",
    "В городе есть метро, которое состоит из двух линий. Для пользования им надо купить в кассе транспортную карту и положить на неё определённую сумму денег (действует по принципу нашей \"тройки\"). Одна карта стоит два лари. Ей можно расплачиваться также в автобусах, маршрутных такси и на фуникулёре.",
    "В Тбилиси огромное количество винотек, которые в большинстве своём располагаются в Старом городе. Мы рекомендуем зайти в следующие — Vinotheca (адрес: Leselidze, 31), здесь при покупке вам бесплатно нальют рюмку чачи, Wine Gallery (адрес: Tsinamdzgvrishvli, 39), Georgian Wine Center (адрес: Baratashvili, 1) и настоящий винный погреб Vino Underground (адрес: Galaktion Tabidze, 15). Везде можно попросить сначала попробовать."
  ],
  "afterAdvices": {
    "title": "",
    "text": []
  }
}
