﻿{
  "title": "Тревел-эксперт OneTwoTrip",
  "top": {
    "image": "top/telaviv.jpg",
    "topText": [
      "ТЕЛЬ-АВИВ"
    ],
    "text": "Израиль",
    "under": ""
  },
  "hideContacts": true,
  "adviceTitle": "Полезная информация",
  "blogFooter": true,
  "about": {
    "hide": true,
    "description": "",
    "price": {
      "cost": "",
      "description": ""
    },
    "map": {
      "point": {
        "location": [
          ""
        ],
        "zoom": "7"
      },
      "poi": {
        "name": "Тель-Авив",
        "city_id": 293397,
        "sight": [
          [
            32.077111,
            34.787139,
            "museums",
            "Тель-Авивский музей изобразительных искусств"
          ],
          [
            32.055153,
            34.754337,
            "monument",
            "Церковь Св. Петра"
          ],
          [
            32.099617,
            34.811189,
            "tree",
            "Парк Яркон"
          ],
          [
            32.112916,
            34.807553,
            "museums",
            "Музей еврейского народа"
          ],
          [
            32.068039,
            34.76812,
            "shopping",
            "Рынок Кармель"
          ],
          [
            32.053458,
            34.750506,
            "anchor",
            "Порт Яффа"
          ],
          [
            32.054895,
            34.756225,
            "shopping",
            "Блошиный рынок Яффы"
          ],
          [
            32.01361,
            34.88657,
            "airport",
            "Ben Gurion Airport"
          ],
          [
            32.113889,
            34.804167,
            "school",
            "Тель-Авивский университет"
          ],
          [
            32.076376,
            34.776646,
            "food",
            "Falafel Hakosem"
          ],
          [
            32.070317,
            34.770372,
            "food",
            "The House of Hummus"
          ],
          [
            32.071364,
            34.769614,
            "food",
            "Meat Mix"
          ],
          [
            32.050252,
            34.750892,
            "food",
            "Abu Hasan / Ali Karavan"
          ],
          [
            32.062707,
            34.773072,
            "food",
            "Night Kitchen"
          ],
          [
            32.053105,
            34.755753,
            "food",
            "Onza"
          ],
          [
            32.062677,
            34.766504,
            "food",
            "Anita Cafe La Mamma del Gelato"
          ],
          [
            32.054456,
            34.780269,
            "cocktail",
            "Block"
          ],
          [
            32.062238,
            34.775111,
            "vine",
            "Kuli Alma"
          ],
          [
            32.090205,
            34.775719,
            "vine",
            "223"
          ],
          [
            32.080793,
            34.773733,
            "vine",
            "Spicehaus"
          ],
          [
            32.06722,
            34.772627,
            "monument",
            "Ангар Mazeh 9"
          ],
          [
            32.063291,
            34.770609,
            "monument",
            "Sommer Contemporary Art"
          ],
          [
            32.056111,
            34.760233,
            "theater",
            "Театр Гешер"
          ]
        ],
        "hotels": [],
        "markers": []
      }
    },
    "cities": []
  },
  "og": {
    "title": "Что делать в Тель-Авиве",
    "description": "Тель-Авив это самый \"европейский\" город на Ближнем Востоке. Гремучая смесь культур создала этот оазис в пустыне, который никогда не спит. Город крайне разнообразный и, как любой современный мегаполис, может предложить что-то каждому туристу в зависимости от его запросов. Тут очень вкусная уличная еда, километровые пляжи, море, мягкий климат, шикарные отели и интересная городская жизнь. Разочарованным из города уехать очень сложно."
  },
  "route": [
    {
      "title": "Что делать в Тель-Авиве",
      "description": [
        {
          "type": "text",
          "options": "Тель-Авив это самый \"европейский\" город на Ближнем Востоке. Гремучая смесь культур создала этот оазис в пустыне, который никогда не спит. Город крайне разнообразный и, как любой современный мегаполис, может предложить что-то каждому туристу в зависимости от его запросов. Тут очень вкусная уличная еда, километровые пляжи, море, мягкий климат, шикарные отели и интересная городская жизнь. Разочарованным из города уехать очень сложно.\n"
        },
        {
          "type": "custom-photos",
          "options": {
            "ids": [
              "37938916922",
              "37259552764",
              "37259553054",
              "37938903172"
            ],
            "items": [
              {
                "id": "37938916922",
                "owner": "151640904@N03",
                "secret": "420a62cd7c",
                "server": "4493",
                "farm": 5,
                "title": "Tel Aviv E 917X483",
                "ispublic": 1,
                "isfriend": 0,
                "isfamily": 0
              },
              {
                "id": "37259552764",
                "owner": "151640904@N03",
                "secret": "3cd7ab900f",
                "server": "4471",
                "farm": 5,
                "title": "Tel-Aviv-Pride-Parade-Israel-00",
                "ispublic": 1,
                "isfriend": 0,
                "isfamily": 0
              },
              {
                "id": "37938903172",
                "owner": "151640904@N03",
                "secret": "28a374bccc",
                "server": "4498",
                "farm": 5,
                "title": "tel-aviv-carmel-market",
                "ispublic": 1,
                "isfriend": 0,
                "isfamily": 0
              },
              {
                "id": "37259553054",
                "owner": "151640904@N03",
                "secret": "389a700d32",
                "server": "4471",
                "farm": 5,
                "title": "65-hotel-telaviv-all",
                "ispublic": 1,
                "isfriend": 0,
                "isfamily": 0
              }
            ],
            "urls": [
              "https://farm5.staticflickr.com/4493/37938916922_420a62cd7c.jpg",
              "https://farm5.staticflickr.com/4471/37259552764_3cd7ab900f.jpg",
              "https://farm5.staticflickr.com/4498/37938903172_28a374bccc.jpg",
              "https://farm5.staticflickr.com/4471/37259553054_389a700d32.jpg"
            ],
            "grid": [
              1,
              1,
              1,
              1
            ]
          }
        },
        {
          "type": "drop-down",
          "title": "Как добраться из аэропорта",
          "options": [
            {
              "type": "text",
              "options": "Аэропорт Бен-Гурион расположен всего в 20 км от Тель-Авива. Поезд — наиболее быстрый и недорогой способ добраться до города (днём поезда ходят с интервалами в 20 минут). Станция расположена на нижнем этаже терминала № 3. Поездка до ж/д вокзала, расположенного в центре города, обойдётся приблизительно в 14 шекелей. Ещё один популярный у туристов способ — маршрутное такси, преимущество которого заключается в том, что водитель может остановиться не только на официальной остановке, но и где вы пожелаете (стоимость билета составит около 30 шекелей).\n"
            },
            {
              "type": "text",
              "options": "Добраться до города можно и на такси (его можно заказать через диспетчера в аэропорту). Немного дешевле обычных такси обойдутся машины, заказанные через приложения Uber или Gettaxi. "
            }
          ]
        },
        {
          "type": "drop-down",
          "title": "Что смотреть",
          "options": [
            {
              "type": "custom-photos",
              "options": {
                "ids": [
                  "37916215716",
                  "37939169742",
                  "37916214116",
                  "26194210599"
                ],
                "items": [
                  {
                    "id": "37916215716",
                    "owner": "151640904@N03",
                    "secret": "22cffb8181",
                    "server": "4471",
                    "farm": 5,
                    "title": "tel_aviv_museum_of_art",
                    "ispublic": 1,
                    "isfriend": 0,
                    "isfamily": 0
                  },
                  {
                    "id": "37939169742",
                    "owner": "151640904@N03",
                    "secret": "cd99c2de34",
                    "server": "4446",
                    "farm": 5,
                    "title": "1085x1500_Израиль_car1",
                    "ispublic": 1,
                    "isfriend": 0,
                    "isfamily": 0
                  },
                  {
                    "id": "37916214116",
                    "owner": "151640904@N03",
                    "secret": "04cabb855f",
                    "server": "4479",
                    "farm": 5,
                    "title": "11522-Yarkon_park_wide_view-1024x534",
                    "ispublic": 1,
                    "isfriend": 0,
                    "isfamily": 0
                  },
                  {
                    "id": "26194210599",
                    "owner": "151640904@N03",
                    "secret": "67f0c4d1c8",
                    "server": "4464",
                    "farm": 5,
                    "title": "154325",
                    "ispublic": 1,
                    "isfriend": 0,
                    "isfamily": 0
                  }
                ],
                "urls": [
                  "https://farm5.staticflickr.com/4471/37916215716_22cffb8181.jpg",
                  "https://farm5.staticflickr.com/4446/37939169742_cd99c2de34.jpg",
                  "https://farm5.staticflickr.com/4479/37916214116_04cabb855f.jpg",
                  "https://farm5.staticflickr.com/4464/26194210599_67f0c4d1c8.jpg"
                ],
                "grid": [
                  1,
                  1,
                  1,
                  1
                ]
              }
            },
            {
              "type": "title",
              "options": "Тель-Авивский музей изобразительных искусств"
            },
            {
              "type": "text",
              "options": "Музей является одним из крупнейших и наиболее значимых в Израиле, включает в себя различные отделы (местного искусства с начала XX века, современного искусства, отдел фотографии, отдел архитектуры и дизайна). Стоимость билета для взрослого составляет 50 шекелей."
            },
            {
              "type": "text",
              "options": "Время работы: 10:00 - 18:00 (понедельник, среда, суббота), 10:00 - 21:00 (вторник, четверг), 10:00-14:00 (пятница), воскресенье - выходной день."
            },
            {
              "type": "text",
              "options": "Адрес: Sderot Sha'ul HaMelech, 27."
            },
            {
              "type": "title",
              "options": "Музей еврейского народа"
            },
            {
              "type": "text",
              "options": "Рекомендуем всем интересующимся еврейской историей и культурой посетить это музей. Плюсом является наличие в музее русскоязычного аудиогида. Музей расположен на территории студенческого городка Тель-Авивского университета. "
            },
            {
              "type": "text",
              "options": "Время работы: 10:00 - 16:00 (Вс-Вт), 10:00 - 19:00 (Ср-Чт), 09:00 - 13:00 (Пт), 10:00 - 15:00 (Сб)."
            },
            {
              "type": "text",
              "options": "Адрес: Rehov Klausner 15, Matiyahu Gate #2 | Tel Aviv University Campus. "
            },
            {
              "type": "title",
              "options": "Рынок Кармель"
            },
            {
              "type": "text",
              "options": "Пожалуй, самый известный городской рынок. Всё самое вкусное сосредоточено именно на рынке! Здесь вы найдете как многочисленные овощные лавки, так и небольшие уютные закусочные."
            },
            {
              "type": "text",
              "options": "Адрес: Allenby, King George and Sheinkin streets."
            },
            {
              "type": "title",
              "options": "Парк Яркон"
            },
            {
              "type": "text",
              "options": "Яркон представляет собой огромный городской парк с садом камней и тропическим садом. Здесь также представлена большая коллекция кактусов."
            },
            {
              "type": "text",
              "options": "Время работы: 08:00 - 16:00 (Пт), 08:00 - 17:00 (Сб-Чт)."
            },
            {
              "type": "text",
              "options": "Адрес: Ganei Yehoshua | Rokach Blvd."
            },
            {
              "type": "title",
              "options": "Порт Яффа"
            },
            {
              "type": "text",
              "options": "Древний порт, который в настоящее время представляет собой не только действующую гавань, но и туристическую зону. Здесь сосредоточены многочисленные рыбные ресторанчики. Также на территории порта периодически проводятся выставки художников и фотографов."
            },
            {
              "type": "text",
              "options": "Адрес: Яффа, Тель-Авив."
            },
            {
              "type": "title",
              "options": "Блошиный рынок Яффа"
            },
            {
              "type": "text",
              "options": "На этом рынке можно найти буквально всё, в том числе и действительно ценные предметы антиквариата. Торг здесь весьма уместен, так как цены достаточно высокие."
            },
            {
              "type": "text",
              "options": "Адрес: Yefet Street."
            },
            {
              "type": "title",
              "options": "Церковь апостола Петра"
            },
            {
              "type": "text",
              "options": "Это православный храм в Яффе, находится в ведении Русской духовной миссии."
            },
            {
              "type": "text",
              "options": "Адрес: Mifratz Shlomo Street, 1 | Kedumin Square."
            },
            {
              "type": "title",
              "options": "Театр Гешер"
            },
            {
              "type": "text",
              "options": "Театр известен среди русскоязычного населения (спектакли ставят не только на иврите, но и на русском языке). Подробную информацию о театре и расписание спектаклей можно посмотреть <a target='_blank' href=\"http://www.gesher-theatre.co.il/ru/\"> на этой странице</a>."
            },
            {
              "type": "text",
              "options": "Адрес: Yerushalaim Ave, 9."
            },
            {
              "type": "title",
              "options": "Галерея современного искусства Sommer Contemporary Art"
            },
            {
              "type": "text",
              "options": "Любителям современного искусства стоит обязательно посетить эту галерею."
            },
            {
              "type": "text",
              "options": "Время работы: 10:00 - 18:00 (понедельник-четверг), 10:00 - 14:00 (пятница), 11:00 - 13:00 (суббота)."
            },
            {
              "type": "text",
              "options": "Адрес: Rothchild Blvd, 13."
            },
            {
              "type": "title",
              "options": "Ангар Mazeh 9"
            },
            {
              "type": "text",
              "options": "Mazeh 9 – муниципальное пространство в центре Тель-Авива, в котором проводятся выставки современных художников и фотографов, фестивали и лекции."
            },
            {
              "type": "text",
              "options": "Время работы: с 9:00 до 20:00. Закрыто по пятницам и субботам."
            },
            {
              "type": "text",
              "options": " Адрес: Maze, 9."
            }
          ]
        },
        {
          "type": "drop-down",
          "title": "Где поесть",
          "options": [
            {
              "type": "custom-photos",
              "options": {
                "ids": [
                  "26194120469",
                  "37969483721",
                  "37939092282",
                  "37969294551"
                ],
                "items": [
                  {
                    "id": "26194120469",
                    "owner": "151640904@N03",
                    "secret": "b990c175e8",
                    "server": "4452",
                    "farm": 5,
                    "title": "dsc_0030",
                    "ispublic": 1,
                    "isfriend": 0,
                    "isfamily": 0
                  },
                  {
                    "id": "37969483721",
                    "owner": "151640904@N03",
                    "secret": "69011e481d",
                    "server": "4454",
                    "farm": 5,
                    "title": "DSC_0011",
                    "ispublic": 1,
                    "isfriend": 0,
                    "isfamily": 0
                  },
                  {
                    "id": "37969294551",
                    "owner": "151640904@N03",
                    "secret": "b0bbb2fb3b",
                    "server": "4506",
                    "farm": 5,
                    "title": "jaffa",
                    "ispublic": 1,
                    "isfriend": 0,
                    "isfamily": 0
                  },
                  {
                    "id": "37939092282",
                    "owner": "151640904@N03",
                    "secret": "9eb356b3df",
                    "server": "4445",
                    "farm": 5,
                    "title": "night-kitchen",
                    "ispublic": 1,
                    "isfriend": 0,
                    "isfamily": 0
                  }
                ],
                "urls": [
                  "https://farm5.staticflickr.com/4452/26194120469_b990c175e8.jpg",
                  "https://farm5.staticflickr.com/4454/37969483721_69011e481d.jpg",
                  "https://farm5.staticflickr.com/4506/37969294551_b0bbb2fb3b.jpg",
                  "https://farm5.staticflickr.com/4445/37939092282_9eb356b3df.jpg"
                ],
                "grid": [
                  1,
                  1,
                  1,
                  1
                ]
              }
            },
            {
              "type": "title",
              "options": "Falafel Hakosem"
            },
            {
              "type": "text",
              "options": "Уличная закусочная с качественным фастфудом. Здесь можно попробовать вкуснейший фалафель и отличную шаурму."
            },
            {
              "type": "text",
              "options": "Адрес: Shlomo Hamelech, 1."
            },
            {
              "type": "title",
              "options": "The House of Hummus"
            },
            {
              "type": "text",
              "options": "Небольшая закусочная с домашним хумусом. Особенно рекомендуем попробовать чесночный!"
            },
            {
              "type": "text",
              "options": "Адрес: Allenby, 47."
            },
            {
              "type": "title",
              "options": "Meat Mix"
            },
            {
              "type": "text",
              "options": "В этом ресторане можно вкусно пообедать за приемлемую цену. Обязательно попробуйте фирменный фалафель."
            },
            {
              "type": "text",
              "options": "Адрес: Rehov Allenby, 50."
            },
            {
              "type": "title",
              "options": "Abu Hasan / Ali Karavan"
            },
            {
              "type": "text",
              "options": "Ещё одно колоритное место с потрясающим хумусом."
            },
            {
              "type": "text",
              "options": "Адрес: Ha' Dolfin Street, 1 | Jaffa."
            },
            {
              "type": "title",
              "options": "Night Kitchen"
            },
            {
              "type": "text",
              "options": "Ресторан отлично подходит для вечерних посиделок."
            },
            {
              "type": "text",
              "options": "Адрес: Lilenblum Street, 43."
            },
            {
              "type": "title",
              "options": "Onza"
            },
            {
              "type": "text",
              "options": "Приятное место с большим выбором блюд. Несколько раз в месяц проводятся \"Дни национальной кухни\", когда можно попробовать блюда разных стран мира."
            },
            {
              "type": "text",
              "options": "Адрес: Rabi Khanina, 3."
            },
            {
              "type": "title",
              "options": "Anita Cafe La Mamma del Gelato"
            },
            {
              "type": "text",
              "options": "За самым вкусным мороженым в городе отправляйтесь в это кафе. Если сомневаетесь в выборе (а тут он огромный) - просите попробовать, вам не откажут."
            },
            {
              "type": "text",
              "options": "Адрес: Shabazi Street, 25 | Pines Steet, 18."
            }
          ]
        },
        {
          "type": "drop-down",
          "title": "Куда сходить вечером",
          "options": [
            {
              "type": "custom-photos",
              "options": {
                "ids": [
                  "37259939024",
                  "37259937954",
                  "24118675758",
                  "37259930774"
                ],
                "items": [
                  {
                    "id": "37259939024",
                    "owner": "151640904@N03",
                    "secret": "d7204eea86",
                    "server": "4456",
                    "farm": 5,
                    "title": "maxresdefault",
                    "ispublic": 1,
                    "isfriend": 0,
                    "isfamily": 0
                  },
                  {
                    "id": "37259937954",
                    "owner": "151640904@N03",
                    "secret": "10b1f3fa73",
                    "server": "4494",
                    "farm": 5,
                    "title": "telaviv-bars-223-1a",
                    "ispublic": 1,
                    "isfriend": 0,
                    "isfamily": 0
                  },
                  {
                    "id": "24118675758",
                    "owner": "151640904@N03",
                    "secret": "9a28f15315",
                    "server": "4443",
                    "farm": 5,
                    "title": "56-3939691-253a4828",
                    "ispublic": 1,
                    "isfriend": 0,
                    "isfamily": 0
                  },
                  {
                    "id": "37259930774",
                    "owner": "151640904@N03",
                    "secret": "cf3111de47",
                    "server": "4509",
                    "farm": 5,
                    "title": "spicehaus",
                    "ispublic": 1,
                    "isfriend": 0,
                    "isfamily": 0
                  }
                ],
                "urls": [
                  "https://farm5.staticflickr.com/4456/37259939024_d7204eea86.jpg",
                  "https://farm5.staticflickr.com/4494/37259937954_10b1f3fa73.jpg",
                  "https://farm5.staticflickr.com/4443/24118675758_9a28f15315.jpg",
                  "https://farm5.staticflickr.com/4509/37259930774_cf3111de47.jpg"
                ],
                "grid": [
                  1,
                  1,
                  1,
                  1
                ]
              }
            },
            {
              "type": "title",
              "options": "Block"
            },
            {
              "type": "text",
              "options": "Отличный танцевальный клуб с многочисленными танцполами. Особенно рекомендуем любителям техно и электронной музыки."
            },
            {
              "type": "text",
              "options": "Адрес: Shalma Rd, 157."
            },
            {
              "type": "title",
              "options": "Kuli Alma"
            },
            {
              "type": "text",
              "options": "Популярный среди молодежи бар, с большой площадкой на открытом воздухе."
            },
            {
              "type": "text",
              "options": "Адрес: Mikve Yisrael, 10."
            },
            {
              "type": "title",
              "options": "223"
            },
            {
              "type": "text",
              "options": "Один из наиболее старых и атмосферных баров города. Здесь можно не только выбрать коктейль из меню, но и заказать авторский вариант от бармена."
            },
            {
              "type": "text",
              "options": "Адрес: Dizengoff St., 223. "
            },
            {
              "type": "title",
              "options": "Spicehaus"
            },
            {
              "type": "text",
              "options": "Пусть вас не смущает вывеска над входом \"The East Jaffa Perfume Company\" — вы в нужном месте! Это крутой концептуальный бар и по совместительству один из крупнейших в городе. Коктейль вам здесь подадут в мензурке, пробирке или любом другом сосуде из химической лаборатории. А бармены здесь одеты как фармацевты. "
            },
            {
              "type": "text",
              "options": "Адрес: Dizengoff St.,117. "
            }
          ]
        }
      ]
    },
    {
      "title": "Погода в Тель-Авиве",
      "description": [
        {
          "type": "weather",
          "options": {
            "lat": 32.0852999,
            "lng": 34.78176759999997,
            "text": "Tel Aviv-Yafo, Israel"
          }
        }
      ]
    }
  ],
  "advices": [
    "В Тель-Авиве сильны традиции стрит-фуда — развита сеть всевозможных закусочных, палаток, небольших ресторанчиков и кафе. Смело пробуйте уличную еду, она здесь качественная. Традиционные блюда - пита с хумусом (закуска, приготовленная из нутового пюре с добавлением оливкового масла и специй), фалафель (обжаренные во фритюре шарики из измельчённого нута), пирожки бурекас (готовятся из тонкого теста с различными начинками), шакшука (блюдо из яиц в остром соусе), чолнт (жаркое из мяса, фасоли, нута, картофеля и специй). Из сладостей стоит попробовать пахлаву, хоменташ (пирожки с маком), кнафе (местный десерт из кадаифской вермишели и козьего сыра), бамба.",
    "Шабат — это седьмой день недели (суббота), в который предписывается воздержаться от работы (то есть фактически является праздником у евреев). Интересно, что даже существуют специальные шабатные лифты, которые в этот день будут останавливаться на каждом этаже, чтобы человеку не пришлось трудиться и нажимать кнопку.",
    "Из Израиля в Россию стоит привезти хумус (развесной быстро портится, поэтому лучше брать в банках), финики, соль и грязь Мёртвого моря и косметику на их основе, хамсу (это защитный амулет в форме ладони), ювелирные украшения."
  ],
  "afterAdvices": {
    "title": "",
    "text": []
  }
}
