﻿{
  "title": "Тревел-эксперт OneTwoTrip",
  "top": {
    "image": "top/vienna.jpg",
    "topText": [
      "Вена"
    ],
    "text": "Австрия",
    "under": ""
  },
  "hideContacts": true,
  "adviceTitle": "Полезная информация",
  "blogFooter": true,
  "about": {
    "hide":true,
    "description": "",
    "price": {
      "cost": "",
      "description": ""
    },
    "map": {
      "poi":{
        "sight":[
[48.202492, 16.354677, "food", "Centimeter"],
[48.210487, 16.353999, "food", "Centimeter"],
[48.217502, 16.341587, "food", "Centimeter"],
[48.211220, 16.375066, "food", "Hungry Guy"],
[48.206011, 16.371596, "food", "Nordsee"],
[48.209218, 16.368080, "food", "Nordsee"],
[48.200300, 16.354454, "food", "Nordsee"],
[48.188832, 16.330470, "food", "Mafiosi"],
[48.242783, 16.341915, "food", "Strock"],
[48.199947, 16.361188, "food", "Cafe Sperl"],
[48.210106, 16.367385, "food", "Esterhazykeller"],
[48.201089, 16.352312, "food", "Figar"],
[48.203261, 16.369176, "theater", "Венская опера"],
[48.206480, 16.354635, "cocktail", "Dachboden"],
[48.231858, 16.412803, "cocktail", "57th floor"],
[48.217712, 16.393259, "cocktail", "Fluc"],
[48.212128, 16.377820, "cocktail", "Motto am Fluss"],
[48.207664, 16.366052, "monument", "Хофбург"],
[48.208418, 16.373465, "church", "Собор Святого Стефана"],
[48.212977, 16.360682, "eye", "Венский университет"],
[48.208103, 16.358601, "eye", "Парламент"],
[48.184869, 16.312232, "monument", "Шёнбрунн"],
[48.235654, 16.416639, "eye", "Венский международный центр"],
[48.216727, 16.398009, "children", "Пратер"],
[48.191535, 16.380908, "monument", "Галерея Бельведер"],
[48.203850, 16.361799, "monument", "Музей истории искусств"],
[48.204708, 16.368180, "monument", "Галерея Альбертина"],
[48.203840, 16.373028, "monument", "Дом музыки"],
[48.197697, 16.352931, "monument", "Дом Моря"],
[48.234448, 16.359549, "eye", "Мусоросжигательный завод Хундертвассера"],
[48.203803, 16.357847, "monument", "MUMOK"],
[48.148165, 16.441708, "children", "Венское центральное кладбище"],
[48.143761, 16.401016, "children", "Therme Wien"]
        ]
      }
    },
    "cities": []
  },
  "og": {
    "title": "Что делать в Вене",
    "description": "Вена в течение нескольких столетий являлась городом-резиденцией Габсбургов, а во времена их правления и столицей Священной Римской империи. Сегодня она занимает лидирующие позиции рейтинга городов мира по качеству жизни. В городе расположена одна из штаб-квартир ООН, а также ОПЕК и ОБСЕ. Вена вдохновляет — здесь творили знаменитые композиторы, живописцы и архитекторы. Вас ждут величественные дворцы, старинные соборы, интересные музеи и многочисленные выставки, ухоженные парки и совершенно особенная атмосфера."
  },
  "route": [
    {
      "title": "Что делать в Вене",
      "description": [
        {
          "type": "text",
          "options": "Вена в течение нескольких столетий являлась городом-резиденцией Габсбургов, а во времена их правления и столицей Священной Римской империи. Сегодня она занимает лидирующие позиции рейтинга городов мира по качеству жизни. В городе расположена одна из штаб-квартир ООН, а также ОПЕК и ОБСЕ. Вена вдохновляет — здесь творили знаменитые композиторы, живописцы и архитекторы. Вас ждут величественные дворцы, старинные соборы, интересные музеи и многочисленные выставки, ухоженные парки и совершенно особенная атмосфера."
        },
        {
          "type": "custom-photos",
          "options": {
            "ids": [
              "38320669445",
              "39196768861",
              "39196768731",
              "24335827837"
            ],
            "items": [
              {
                "id": "39196768731",
                "owner": "151640904@N03",
                "secret": "20def89ff9",
                "server": "4596",
                "farm": 5,
                "title": "stock-photo-st-stephens-church-112868985",
                "ispublic": 1,
                "isfriend": 0,
                "isfamily": 0
              },
              {
                "id": "39196768861",
                "owner": "151640904@N03",
                "secret": "8a5c49da42",
                "server": "4637",
                "farm": 5,
                "title": "image_teaser-lead",
                "ispublic": 1,
                "isfriend": 0,
                "isfamily": 0
              },
              {
                "id": "24335827837",
                "owner": "151640904@N03",
                "secret": "4cd89a95f3",
                "server": "4590",
                "farm": 5,
                "title": "What-to-do-in-Vienna-on-a-bike-550x370",
                "ispublic": 1,
                "isfriend": 0,
                "isfamily": 0
              },
              {
                "id": "38320669445",
                "owner": "151640904@N03",
                "secret": "b6159cdfa9",
                "server": "4598",
                "farm": 5,
                "title": "1115-AD-TRAV01",
                "ispublic": 1,
                "isfriend": 0,
                "isfamily": 0
              }
            ],
            "urls": [
              "https://farm5.staticflickr.com/4596/39196768731_20def89ff9.jpg",
              "https://farm5.staticflickr.com/4637/39196768861_8a5c49da42.jpg",
              "https://farm5.staticflickr.com/4590/24335827837_4cd89a95f3.jpg",
              "https://farm5.staticflickr.com/4598/38320669445_b6159cdfa9.jpg"
            ],
            "grid": [
              1,
              1,
              1,
              1
            ]
          }
        },
        {
          "type": "drop-down",
          "title": "Как добраться из аэропорта",
          "options": [
            {
              "type": "text",
              "options": "Добраться из аэропорта Швехат до Вены можно на автобусе. Из аэропорта отправляется экспресс-шаттл Vienna Airport Lines, а также транзитом проходит автобус Eurolines из аэропорта Братиславы. Автобус курсирует каждые полчаса с 06:00 до 00:30, поездка займёт у вас около 45 минут. Остановка расположена возле выхода из терминала прилёта. Билет обойдётся в 8 евро."
            },
            {
              "type": "text",
              "options": "В Вену из Швехата ходят сразу несколько поездов и электричек. Это и City Airport Train CAT (ходит каждые 30 минут), и IntercityExpress (каждые 2 часа), и городская железная дорога S7 (каждые 30 минут). Курсируют с 05:30 до 23:30. Билет стоит от 2,2 до 12 евро. Время в пути — около 30 минут. Купить билеты можно в специальном автомате на платформе. Чтобы выйти к железнодорожной платформе S7, после паспортного контроля (возле зелёной таблички 2) выйдите в зал прилёта, а затем поверните направо. Далее следуйте по указателю – синему значку S."
            },
            {
              "type": "text",
              "options": "Конечно, самый комфортный вариант добраться до отеля — на такси. Дешевле всего заказывать машину через сервис Uber."
            }
          ]
        },
        {
          "type": "drop-down",
          "title": "Vienna City Card",
          "options": [
            {
              "type": "text",
              "options": "Карта представляет собой сити-пасс, который даёт право на безлимитное пользование общественным транспортом, скидки в музеях, магазинах, ресторанах, барах и т.д. "
            },
            {
              "type": "text",
              "options": "В случае если вы планируете активно посещать достопримечательности и перемещаться по городу на общественном транспорте, покупка будет очень выгодна. Карту можно приобрести на 24 часа (13,9 евро), 48 часов (21,9 евро), 72 часа (24,9 евро). Узнать все подробности, а также оформить карту можно на <a target='_blank' href=\"https://www.viennacitycard.at/index.php?lang=EN\">этой странице</a>."
            },
            {
              "type": "text",
              "options": "Удобнее всего приобрести карту онлайн на сайте или через приложение. В последнем случае у вас будет скидка в несколько евро. После покупки вам на почту придет ваучер, который нужно будет обменять в одном из пунктов выдачи (полный список адресов можно посмотреть на сайте). Например, карту можно получить в информационном центре в аэропорту (работает с 07:00 до 22:00)."
            }
          ]
        },
        {
          "type": "drop-down",
          "title": "Что смотреть",
          "options": [
            {
              "type": "custom-photos",
              "options": {
                "ids": [
                  "25347680728",
                  "27437538639",
                  "38506237484",
                  "38337663965"
                ],
                "items": [
                  {
                    "id": "25347680728",
                    "owner": "151640904@N03",
                    "secret": "cbe643247d",
                    "server": "4592",
                    "farm": 5,
                    "title": "123431",
                    "ispublic": 1,
                    "isfriend": 0,
                    "isfamily": 0
                  },
                  {
                    "id": "27437538639",
                    "owner": "151640904@N03",
                    "secret": "e615695d3e",
                    "server": "4633",
                    "farm": 5,
                    "title": "IAEA-Imagebank",
                    "ispublic": 1,
                    "isfriend": 0,
                    "isfamily": 0
                  },
                  {
                    "id": "38506237484",
                    "owner": "151640904@N03",
                    "secret": "bf213233fc",
                    "server": "4633",
                    "farm": 5,
                    "title": "ruota-panoramica-745770",
                    "ispublic": 1,
                    "isfriend": 0,
                    "isfamily": 0
                  },
                  {
                    "id": "38337663965",
                    "owner": "151640904@N03",
                    "secret": "cbea47824b",
                    "server": "4645",
                    "farm": 5,
                    "title": "Gallery-Belvedere01",
                    "ispublic": 1,
                    "isfriend": 0,
                    "isfamily": 0
                  }
                ],
                "urls": [
                  "https://farm5.staticflickr.com/4592/25347680728_cbe643247d.jpg",
                  "https://farm5.staticflickr.com/4633/27437538639_e615695d3e.jpg",
                  "https://farm5.staticflickr.com/4633/38506237484_bf213233fc.jpg",
                  "https://farm5.staticflickr.com/4645/38337663965_cbea47824b.jpg"
                ],
                "grid": [
                  1,
                  1,
                  1,
                  1
                ]
              }
            },
            {
              "type": "text",
              "options": "Знакомство с Веной вполне логично начинать с Внутреннего города. Это исторический район, внесённый в список объектов Всемирного наследия ЮНЕСКО. Здесь вы точно не пропустите дворцовый комплекс Хофбург, Собор Святого Стефана (символ города), Парламент, Ратушу и Венский университет. И конечно, пройдётесь по знаменитой улице Грабен. Мы расскажем вам, что же ещё посмотреть в этом величественном городе помимо основных туристических достопримечательностей."
            },
            {
              "type": "title",
              "options": "Шёнбрунн"
            },
            {
              "type": "text",
              "options": "Основная летняя резиденция австрийских императоров династии Габсбургов в стиле барокко. В список объектов всемирного наследия ЮНЕСКО был включён сам дворец и парк с многочисленными фонтанами и статуями, а также Шёнбруннский зоопарк, один из старейших в мире. Актуальную информацию о стоимости билетов уточняйте на <a target='_blank' href=\"https://www.schoenbrunn.at/en/our-tickets-and-prices/all-tickets-prices/\">этой странице</a>. Часы работы: 08:00 - 17:00, с 1 июля по 31 августа время работы увеличивается на час."
            },
            {
              "type": "text",
              "options": "Адрес: Schönbrunner Schloßstraße, 47."
            },
            {
              "type": "title",
              "options": "Венский международный центр"
            },
            {
              "type": "text",
              "options": "Это третья резиденция ООН в мире, после Нью-Йорка и Женевы. Комплекс состоит из шести башен в форме буквы Y. Можно просто погулять по приятной прилегающей территории или посетить международный центр в составе экскурсии (необходимо забронировать заранее). Стоимость для взрослых составляет 10 евро. Подробную информацию можно посмотреть на <a target='_blank' href=\"http://www.unis.unvienna.org/unis/en/visitors_service/index.html\">этой странице</a>."
            },
            {
              "type": "text",
              "options": "Адрес: Wagramer Straße, 5."
            },
            {
              "type": "title",
              "options": "Пратер"
            },
            {
              "type": "text",
              "options": "Это большой городской парк, расположенный между Дунаем и Дунайским каналом. Здесь проводятся ярмарки, есть ипподром, стадион, велодром, спортивные площадки, а также парк аттракционов. Желающие могут прокатиться на гигантском колесе обозрения, что мы очень рекомендуем сделать - виды открываются потрясающие."
            },
            {
              "type": "text",
              "options": "Адрес: Prater, 7/3."
            },
            {
              "type": "title",
              "options": "Галерея Бельведер"
            },
            {
              "type": "text",
              "options": "Известная художественная галерея, расположившаяся в одноимённом дворце. Коллекцию составляют произведения искусства от Средневековья до XXI века. Большая часть экспозиции посвящена австрийским художникам эпохи Fin de siècle. Часы работы: ежедневно с 09:00 до 18:00, в пятницу с 09:00 до 21:00. Узнать подробную информацию, а также приобрести билеты онлайн можно на <a target='_blank' href=\"https://www.belvedere.at/en/tickets\">этой странице</a>."
            },
            {
              "type": "text",
              "options": "Адрес: Prinz Eugen-Straße, 27."
            },
            {
              "type": "custom-photos",
              "options": {
                "ids": [
                  "38337978045",
                  "39214424951",
                  "38507076844",
                  "38338931145"
                ],
                "items": [
                  {
                    "id": "38337978045",
                    "owner": "151640904@N03",
                    "secret": "0603cb4c74",
                    "server": "4598",
                    "farm": 5,
                    "title": "muzey-istorii-iskusstv-7",
                    "ispublic": 1,
                    "isfriend": 0,
                    "isfamily": 0
                  },
                  {
                    "id": "39214424951",
                    "owner": "151640904@N03",
                    "secret": "ba7b0cb26d",
                    "server": "4733",
                    "farm": 5,
                    "title": "b49554ac805298e85ce48cd509b8509f",
                    "ispublic": 1,
                    "isfriend": 0,
                    "isfamily": 0
                  },
                  {
                    "id": "38507076844",
                    "owner": "151640904@N03",
                    "secret": "5bceb414c5",
                    "server": "4727",
                    "farm": 5,
                    "title": "Haus-der-Musik",
                    "ispublic": 1,
                    "isfriend": 0,
                    "isfamily": 0
                  },
                  {
                    "id": "38338931145",
                    "owner": "151640904@N03",
                    "secret": "be766a2f67",
                    "server": "4680",
                    "farm": 5,
                    "title": "04-Tobias_F-1",
                    "ispublic": 1,
                    "isfriend": 0,
                    "isfamily": 0
                  }
                ],
                "urls": [
                  "https://farm5.staticflickr.com/4598/38337978045_0603cb4c74.jpg",
                  "https://farm5.staticflickr.com/4733/39214424951_ba7b0cb26d.jpg",
                  "https://farm5.staticflickr.com/4727/38507076844_5bceb414c5.jpg",
                  "https://farm5.staticflickr.com/4680/38338931145_be766a2f67.jpg"
                ],
                "grid": [
                  1,
                  1,
                  1,
                  1
                ]
              }
            },
            {
              "type": "title",
              "options": "Музей истории искусств"
            },
            {
              "type": "text",
              "options": "Очень рекомендуем посетить этот музей. Он был создан для размещения императорских коллекций и считается одним из самых значительных музеев мира. Здесь представлены экспонаты пяти тысячелетий: со времён Древнего Египта и античной Греции до конца XVIII века. Основу собрания составляют коллекции произведений эпохи Возрождения и барокко. Кроме того, поражает сама архитектура музея и росписи парадной лестницы. Входной билет для взрослого стоит 15 евро. Часы работы: 10:00 - 18:00 (Вт-Вс), 10:00 - 21:00 (Чт). С июня по август музей открыт ежедневно. Узнать подробную информацию, а также приобрести билеты онлайн можно на <a target='_blank' href=\"http://www.khm.at/posetiteljam/\">этой странице</a>."
            },
            {
              "type": "text",
              "options": "Адрес: Maria-Theresien-Platz."
            },
            {
              "type": "title",
              "options": "Галерея Альбертина"
            },
            {
              "type": "text",
              "options": "Коллекция галереи охватывает период от поздней готики до современности. Здесь хранится одно из самых крупных и значительных мировых собраний графики - около 65 тыс. рисунков и более миллиона произведений печатной графики. Также здесь проводятся многочисленные временные выставки. Входной билет стоит 12,9 евро, действует система скидок. Часы работы: ежедневно с 10:00 до 18:00, по средам и пятницам с 10:00 до 21:00."
            },
            {
              "type": "text",
              "options": "Адрес: Albertinaplatz, 1."
            },
            {
              "type": "title",
              "options": "Дом музыки"
            },
            {
              "type": "text",
              "options": "Это интерактивный музей звука, где поют даже стены! Здесь вы совершите путешествие в прошлое, наблюдая за тем, как великие композиторы создавали свои известнейшие произведения, поэкспериментируете со звуком и отправитесь в музыкальное будущее, где компьютерные технологии помогут музыкально выразиться. Входной билет для взрослого стоит 13 евро, действует система скидок. Ежедневно после 20:00 в музей можно попасть в два раза дешевле — за 6,5 евро. Часы работы: ежедневно с 10:00 до 22:00."
            },
            {
              "type": "text",
              "options": "Адрес: Seilerstätte, 30."
            },
            {
              "type": "title",
              "options": "Дом Моря"
            },
            {
              "type": "text",
              "options": "Дом моря находится в башне противовоздушной обороны высотой в 45 метров. Всего таких сооружений в Вене шесть, однако доступ туристам открыт только в одну. В зоотеррариуме представлено более 10 000 морских и земноводных животных, рыб, а также птиц. Обязательно поднимитесь на обзорную площадку за панорамным видом на город. Входной билет для взрослого обойдётся в 17,6 евро. Актуальные часы работы уточняйте на <a target='_blank' href=\"https://www.haus-des-meeres.at/en/Visitor-Info/Opening-Hours.htm\">этой странице</a>."
            },
            {
              "type": "text",
              "options": "Адрес: Fritz-Grünbaum-Platz, 1."
            },
            {
              "type": "custom-photos",
              "options": {
                "ids": [
                  "39214265911",
                  "39215068651",
                  "38507534344",
                  "38338663685"
                ],
                "items": [
                  {
                    "id": "39214265911",
                    "owner": "151640904@N03",
                    "secret": "dc90207954",
                    "server": "4739",
                    "farm": 5,
                    "title": "Mullverbrennungsanlage4",
                    "ispublic": 1,
                    "isfriend": 0,
                    "isfamily": 0
                  },
                  {
                    "id": "39215068651",
                    "owner": "151640904@N03",
                    "secret": "f66148ecb4",
                    "server": "4589",
                    "farm": 5,
                    "title": "1200px-MUMOK_Vienna_June_2006_249",
                    "ispublic": 1,
                    "isfriend": 0,
                    "isfamily": 0
                  },
                  {
                    "id": "38507534344",
                    "owner": "151640904@N03",
                    "secret": "20541516c1",
                    "server": "4689",
                    "farm": 5,
                    "title": "Simmering_(Wien)_-_Luegerkirche_(1)",
                    "ispublic": 1,
                    "isfriend": 0,
                    "isfamily": 0
                  },
                  {
                    "id": "38338663685",
                    "owner": "151640904@N03",
                    "secret": "33a91e2c7f",
                    "server": "4734",
                    "farm": 5,
                    "title": "image_teaser-all",
                    "ispublic": 1,
                    "isfriend": 0,
                    "isfamily": 0
                  }
                ],
                "urls": [
                  "https://farm5.staticflickr.com/4739/39214265911_dc90207954.jpg",
                  "https://farm5.staticflickr.com/4589/39215068651_f66148ecb4.jpg",
                  "https://farm5.staticflickr.com/4689/38507534344_20541516c1.jpg",
                  "https://farm5.staticflickr.com/4734/38338663685_33a91e2c7f.jpg"
                ],
                "grid": [
                  1,
                  1,
                  1,
                  1
                ]
              }
            },
            {
              "type": "title",
              "options": "Мусоросжигательный завод Хундертвассера "
            },
            {
              "type": "text",
              "options": "Если вы уже успели полюбоваться домом Хундертвассера (адрес: Kegelgasse, 36-38), мы советуем отправиться на север города, где расположен ещё один объект, к которому мастер приложил свою руку. Этот мусоросжигательный завод не только похож на имбирный домик, но и превращает мусор в тепло, которое идёт на отопление близлежащих районов."
            },
            {
              "type": "text",
              "options": "Адрес: Spittelauer Linde, 45."
            },
            {
              "type": "title",
              "options": "MUMOK"
            },
            {
              "type": "text",
              "options": "Всем любителям современного искусства советуем посетить этот музей. Здание музея из тёмно-серого базальта расположилось в самом сердце так называемого <a target='_blank' href=\"https://www.mqw.at/\">музейного квартала</a>. Здесь представлена необычная коллекция произведений классического модернизма, поп-арта, флуксуса, венского акционизма и современного кино- и медиаискусства. От Пабло Пикассо и Энди Уорхола до Косима фон Бонин — в экспозициях музея сочетаются традиции и эксперименты, прошлое и настоящее. Часы работы: 14:00 - 19:00 (Пн), 10:00 - 21:00 (Чт), остальные дни с 10:00 до 19:00."
            },
            {
              "type": "text",
              "options": "Адрес: Museumsplatz, 1."
            },
            {
              "type": "title",
              "options": "Венское центральное кладбище"
            },
            {
              "type": "text",
              "options": "Это место больше похоже на парк со скульптурами, чем на унылый некрополь, а потому отлично подходит для неспешных прогулок. Здесь 3 миллиона захоронений, некоторое надгробья выглядят как настоящие произведения искусства. На этом кладбище похоронены Моцарт, Бетховен, Штраус и прочие известные личности."
            },
            {
              "type": "text",
              "options": "Адрес: Simmeringer Hauptstraße, 234."
            },
            {
              "type": "title",
              "options": "Therme Wien"
            },
            {
              "type": "text",
              "options": "После забега по достопримечательностям вполне можно позволить себе расслабиться в спа-комплексе. Актуальную информацию о ценах уточняйте на <a target='_blank' href=\"https://www.thermewien.at/\">этой странице</a>."
            },
            {
              "type": "text",
              "options": "Адрес: Kurbadstraße, 14."
            }
          ]
        },
        {
          "type": "drop-down",
          "title": "Где поесть",
          "options": [
            {
              "type": "custom-photos",
              "options": {
                "ids": [
                  "38319042535",
                  "27419219609",
                  "39194532181",
                  "39194531821"
                ],
                "items": [
                  {
                    "id": "39194531821",
                    "owner": "151640904@N03",
                    "secret": "58266885df",
                    "server": "4587",
                    "farm": 5,
                    "title": "4_schnitzel",
                    "ispublic": 1,
                    "isfriend": 0,
                    "isfamily": 0
                  },
                  {
                    "id": "39194532181",
                    "owner": "151640904@N03",
                    "secret": "f26d7cb5d1",
                    "server": "4733",
                    "farm": 5,
                    "title": "Без названия",
                    "ispublic": 1,
                    "isfriend": 0,
                    "isfamily": 0
                  },
                  {
                    "id": "38319042535",
                    "owner": "151640904@N03",
                    "secret": "f3af784d1f",
                    "server": "4731",
                    "farm": 5,
                    "title": "vegan+hazelnut+torte+_+RECIPE+by+hot+for+food",
                    "ispublic": 1,
                    "isfriend": 0,
                    "isfamily": 0
                  },
                  {
                    "id": "27419219609",
                    "owner": "151640904@N03",
                    "secret": "dc7b48e824",
                    "server": "4597",
                    "farm": 5,
                    "title": "strock",
                    "ispublic": 1,
                    "isfriend": 0,
                    "isfamily": 0
                  }
                ],
                "urls": [
                  "https://farm5.staticflickr.com/4587/39194531821_58266885df.jpg",
                  "https://farm5.staticflickr.com/4733/39194532181_f26d7cb5d1.jpg",
                  "https://farm5.staticflickr.com/4731/38319042535_f3af784d1f.jpg",
                  "https://farm5.staticflickr.com/4597/27419219609_dc7b48e824.jpg"
                ],
                "grid": [
                  1,
                  1,
                  1,
                  1
                ]
              }
            },
            {
              "type": "title",
              "options": "Centimeter"
            },
            {
              "type": "text",
              "options": "Сеть ресторанов славится огромными порциями: в меню блюда традиционной кухни, пиво и даже десерты. Обязательно закажите здесь огромный венский шницель. Цены ниже средних по Вене."
            },
            {
              "type": "text",
              "options": "Адреса: Lenaugasse, 11; Stiftgasse, 4; Währinger Gürtel, 1."
            },
            {
              "type": "title",
              "options": "Hungry Guy"
            },
            {
              "type": "text",
              "options": "Заведение отлично подходит для быстрого, вкусного и относительно недорогого перекуса в самом центре. Здесь приятная атмосфера и достаточно разнообразное меню (большая часть блюд подается в пите)."
            },
            {
              "type": "text",
              "options": "Адрес: Rabensteig, 1."
            },
            {
              "type": "title",
              "options": "Nordsee"
            },
            {
              "type": "text",
              "options": "Традиционный центральноевропейский фастфуд, специализирующийся на рыбе и морепродуктах. Здесь можно перекусить не только вкусно, но и полезно. Роллы и булки с креветками, красной или белой рыбой подойдут всем уставшим от сосисок и шницелей. Цены демократичные."
            },
            {
              "type": "text",
              "options": "Адреса: Kärntner Str., 25; Mariahilferstraße, 34; Kohlmarkt, 6."
            },
            {
              "type": "title",
              "options": "Mafiosi "
            },
            {
              "type": "text",
              "options": "В это заведение отправляйтесь за самой большой, вкусной и недорогой пиццей в Вене. Цены стартуют от 3,5 евро, при этом пиццы дороже 6 евро в меню нет."
            },
            {
              "type": "text",
              "options": "Адрес: Reindorfgasse, 15."
            },
            {
              "type": "title",
              "options": "Strock"
            },
            {
              "type": "text",
              "options": "Кафе с большим выбором свежей и очень вкусной выпечки. Цены ниже средних по Вене."
            },
            {
              "type": "text",
              "options": "Адрес: Obkirchergasse, 22."
            },
            {
              "type": "title",
              "options": "Esterhazykeller"
            },
            {
              "type": "text",
              "options": "Атмосферный ресторан традиционной австрийской кухни, открывшийся ещё в 1683 году. Цены средние."
            },
            {
              "type": "text",
              "options": "Адрес: Haarhof, 1."
            },
            {
              "type": "title",
              "options": "Cafe Sperl"
            },
            {
              "type": "text",
              "options": "Очень кинематографичное кафе с историческим интерьером, в котором можно попробовать знаменитые венские десерты. Цены выше средних, но оно того определённо стоит."
            },
            {
              "type": "text",
              "options": "Адрес: Gumpendorfer Strasse, 11."
            },
            {
              "type": "title",
              "options": "Figar"
            },
            {
              "type": "text",
              "options": "Небольшое и очень приятное кафе с разнообразными и вкусными завтраками. А ещё здесь много ежедневных акций. Цены средние."
            },
            {
              "type": "text",
              "options": "Адрес: Kirchengasse, 18."
            }
          ]
        },
        {
          "type": "drop-down",
          "title": "Куда сходить вечером",
          "options": [
            {
              "type": "custom-photos",
              "options": {
                "ids": [
                  "38319727245",
                  "24335066427",
                  "39168660572",
                  "24335700587"
                ],
                "items": [
                  {
                    "id": "38319727245",
                    "owner": "151640904@N03",
                    "secret": "f072a57b73",
                    "server": "4638",
                    "farm": 5,
                    "title": "",
                    "ispublic": 1,
                    "isfriend": 0,
                    "isfamily": 0
                  },
                  {
                    "id": "24335066427",
                    "owner": "151640904@N03",
                    "secret": "560cf09c18",
                    "server": "4642",
                    "farm": 5,
                    "title": "",
                    "ispublic": 1,
                    "isfriend": 0,
                    "isfamily": 0
                  },
                  {
                    "id": "39168660572",
                    "owner": "151640904@N03",
                    "secret": "e1eeb39d40",
                    "server": "4679",
                    "farm": 5,
                    "title": "",
                    "ispublic": 1,
                    "isfriend": 0,
                    "isfamily": 0
                  },
                  {
                    "id": "24335700587",
                    "owner": "151640904@N03",
                    "secret": "1c1b31b9c4",
                    "server": "4593",
                    "farm": 5,
                    "title": "cocktail-final",
                    "ispublic": 1,
                    "isfriend": 0,
                    "isfamily": 0
                  }
                ],
                "urls": [
                  "https://farm5.staticflickr.com/4638/38319727245_f072a57b73.jpg",
                  "https://farm5.staticflickr.com/4642/24335066427_560cf09c18.jpg",
                  "https://farm5.staticflickr.com/4679/39168660572_e1eeb39d40.jpg",
                  "https://farm5.staticflickr.com/4593/24335700587_1c1b31b9c4.jpg"
                ],
                "grid": [
                  1,
                  1,
                  1,
                  1
                ]
              }
            },
            {
              "type": "title",
              "options": "Венская опера"
            },
            {
              "type": "text",
              "options": "Поход в крупнейший оперный театр в Австрии — отличный вариант для культурного вечера. Изучить афишу можно на <a target='_blank' href=\"https://www.wiener-staatsoper.at/en/\">этой странице</a>. Чтобы попасть в Венскую оперу, совершенно не обязательно покупать заранее дорогие билеты: «стоячие» места на галёрке стоят около 4 евро и продаются прямо в день спектакля. Чтобы приобрести такой билет, необходимо приехать часа за 3 до начала представления и занять очередь в кассу оперы со стороны улицы Operngasse."
            },
            {
              "type": "text",
              "options": "Адрес: Opernring, 2."
            },
            {
              "type": "title",
              "options": "Dachboden"
            },
            {
              "type": "text",
              "options": "Этот бар в стиле лофт уютно расположился под самой крышей отеля. Отсюда открывается потрясающий панорамный вид на город. В меню практически отсутствует еда, поэтому приходить сюда стоит уже после ужина. Цены выше средних."
            },
            {
              "type": "text",
              "options": "Адрес: Lerchenfelder Straße, 1-3."
            },
            {
              "type": "title",
              "options": "57th floor"
            },
            {
              "type": "text",
              "options": "Модный lounge-бар в самом высоком здании Вены. Большой выбор вкусных коктейлей. Цены выше среднего, но замечательный вид того стоит."
            },
            {
              "type": "text",
              "options": "Адрес: Donau-City-Straße, 7."
            },
            {
              "type": "title",
              "options": "Fluc"
            },
            {
              "type": "text",
              "options": "Совершенно неформатный клуб в берлинском стиле. Зайти сюда стоит хотя бы ради невероятной архитектуры самого здания (бывший пешеходный переход). Кроме этого, здесь отличные диджейские сеты и невероятные вечеринки, которые совсем нехарактерны для Вены. "
            },
            {
              "type": "text",
              "options": "Адрес: Praterstern, 5."
            },
            {
              "type": "title",
              "options": "Motto am Fluss"
            },
            {
              "type": "text",
              "options": "В этом баре, расположенном на Дунайском канале, приятная публика и вкусные коктейли."
            },
            {
              "type": "text",
              "options": "Адрес: Franz Josefs Kai, 2."
            }
          ]
        }
      ]
    },
    {
      "title": "Погода в Вене",
      "description": [
        {
          "type": "weather",
          "options": {
            "lat": 48.2081743,
            "lng": 16.37381890000006,
            "text": "Вена, Австрия"
          }
        }
      ]
    }
  ],
  "advices": [
    "Если вы не приобрели сити-пасс, но планируете много перемещаться по городу на общественном транспорте, удобнее всего будет купить проездной на сутки (за 7,6 евро) или на два дня (13,3 евро). Такой билет действителен для всех видов транспорта (автобус, трамвай, метро). Подробную информацию вы найдёте на <a target='_blank' href=\"https://www.wienerlinien.at/eportal3/ep/channelView.do?pageTypeId=66526&channelId=-46648\">этой странице</a>.",
    "Отличный способ исследовать город — пересесть на велосипед. Арендовать его можно, например, на одной из 120 станций <a target='_blank' href=\"https://www.citybikewien.at/en/\">Citybike</a>.",
    "Метро работает с 5:00 до 0:00, а по пятницам, субботам и в дни перед официальными праздниками – круглосуточно. Кроме того, в ночные часы по городу курсируют автобусы.",
    "Чтобы познакомиться с городом, можно отправиться на бесплатную пешую экскурсию. Опытные гиды показывают туристам основные достопримечательности Вены, сопровождая это интересными фактами и деталями. Хотя экскурсии и бесплатны, чаевые гидам только приветствуются. Проводятся экскурсии на английском, продолжительность составляет 2 – 2,5 часа. Расписание можно посмотреть на <a target='_blank' href=\"https://www.welcometourvienna.at/?gclid=EAIaIQobChMI86CBko6d2AIVjsqyCh2klAvvEAAYAiAAEgLUufD_BwE\">этой странице</a>.",
    "В качестве сувениров из Вены можно привезти конфеты и ликёр \"Моцарт\", вафли \"Маннер\", кофе, тыквенное масло, засахаренные лепестки фиалок, местное вино, тирольскую шляпу, коровьи колокольчики, украшение Swarovski (это австрийская компания).",
    "В Вене стоит отведать венский шницель, тафельшпиц (отварное говяжье филе с яблочным хреном), бойшель (рагу из легких), ростбиф с луком, курицу по-венски. Венская кухня знаменита своими десертами — обязательно попробуйте штрудель, кайзершмаррн, линцский торт (миндальный пирог), торт Захер."
  ],
  "afterAdvices": {
    "title": "",
    "text": []
  }
}
