<?xml version="1.0" encoding="UTF-8"?>
<svg width="16px" height="36px" viewBox="0 0 16 36" version="1.1" xmlns="http://www.w3.org/2000/svg" xmlns:xlink="http://www.w3.org/1999/xlink">
    <!-- Generator: Sketch 39.1 (31720) - http://www.bohemiancoding.com/sketch -->
    <title>Page 1@v</title>
    <desc>Created with Sketch.</desc>
    <defs></defs>
    <g id="Page-1" stroke="none" stroke-width="1" fill="none" fill-rule="evenodd" opacity="0.600000024">
        <g id="travel_white" transform="translate(-712.000000, -546.000000)" fill="#FFFFFF">
            <g id="Bitmap-+-Mask-Mask">
                <g id="Page-1" transform="translate(712.000000, 546.000000)">
                    <path d="M0,8.00156364 C0,3.58229091 3.58072727,0.000109090909 8,0.000109090909 C12.4181818,0.000109090909 16,3.57938182 16,8.00156364 L16,17.4528364 C16,21.8721091 12.4192727,25.4546545 8,25.4546545 C3.58181818,25.4546545 0,21.8750182 0,17.4528364 L0,8.00156364 Z M1.45454545,8.00156364 L1.45454545,8.00156364 L1.45454545,17.4528364 C1.45454545,21.0706545 4.384,24.0001091 8,24.0001091 C11.6156364,24.0001091 14.5454545,21.0692 14.5454545,17.4528364 L14.5454545,8.00156364 C14.5454545,4.38374545 11.616,1.45465455 8,1.45465455 C4.38436364,1.45465455 1.45454545,4.3852 1.45454545,8.00156364 L1.45454545,8.00156364 Z" id="Fill-1"></path>
                    <path d="M7.27272727,5.82127273 C7.27272727,5.418 7.59563636,5.09072727 8,5.09072727 C8.40181818,5.09072727 8.72727273,5.41872727 8.72727273,5.82127273 L8.72727273,8.72418182 C8.72727273,9.12745455 8.40436364,9.45436364 8,9.45436364 C7.59818182,9.45436364 7.27272727,9.12672727 7.27272727,8.72418182 L7.27272727,5.82127273 Z" id="Fill-3"></path>
                    <path d="M8,34.0286545 L13.3792727,28.6493818 C13.6632727,28.3653818 14.1236364,28.3653818 14.4076364,28.6493818 C14.6916364,28.9333818 14.6916364,29.3941091 14.4076364,29.6781091 L8.51418182,35.5715636 C8.37236364,35.7133818 8.18618182,35.7842909 8,35.7842909 C7.81381818,35.7842909 7.62763636,35.7133818 7.48581818,35.5715636 L1.57490909,29.6606545 C1.29090909,29.3766545 1.29090909,28.9162909 1.57490909,28.6322909 C1.85890909,28.3482909 2.31963636,28.3482909 2.60363636,28.6322909 L8,34.0286545 Z" id="Fill-5"></path>
                </g>
            </g>
        </g>
    </g>
</svg>